-87.34989911910601 36.53234265811719
-87.35018573376375 36.53320741756058
-87.35029481109405 36.53350745879602
-87.35034909890698 36.53367567506021
-87.35039639589405 36.53384969187837
-87.35041838218623 36.53403064783191
-87.35044663277279 36.53421638977451
-87.35045106600204 36.53442379005689
-87.35043230318995 36.5346743691555
-87.35036811377481 36.5351471474247
-87.35294101459252 36.5354069912575
-87.3533284521062 36.53538478527906
-87.35702113436086 36.53484722901662
-87.35739300836958 36.5347364014677
-87.35933088471438 36.53402319514043
-87.36060055755587 36.53354398163493
-87.35991390012777 36.53141757205636
-87.35776643707916 36.53196622201126
-87.3576481711203 36.53196158549534
-87.35750631379982 36.53187375548002
-87.35740169145183 36.53180339231196
-87.35726814221803 36.5317691195532
-87.35709766691426 36.5317352608099
-87.35680854230492 36.53081450843723
-87.34986848174428 36.53230476765581
