T0,04:40:00,04:40:00,S164,0
T0,04:46:30,04:47:00,S247,17
T0,04:57:30,04:58:00,S405,50
T0,05:04:30,05:05:00,S464,61
T0,05:26:30,05:27:00,S334,88
T0,05:35:30,05:36:00,S434,112
T0,05:48:00,05:48:00,S164,129
T1,06:40:00,06:40:00,S164,0
T1,06:46:30,06:47:00,S247,17
T1,06:57:30,06:58:00,S405,50
T1,07:04:30,07:05:00,S464,61
T1,07:26:30,07:27:00,S334,88
T1,07:35:30,07:36:00,S434,112
T1,07:48:00,07:48:00,S164,129
T2,20:00:00,20:00:00,S164,0
T2,20:06:30,20:07:00,S247,17
T2,20:17:30,20:18:00,S405,50
T2,20:24:30,20:25:00,S464,61
T2,20:36:30,20:37:00,S334,88
T2,20:44:30,20:45:00,S434,112
T2,20:50:30,20:50:30,S164,129
