Sh4,36.52782867903005,-87.3584111720876,0
Sh4,36.52784385681331,-87.35833343386865,1
Sh4,36.52787691491544,-87.35827727564997,2
Sh4,36.52792286030765,-87.35826270229391,3
Sh4,36.52828029295344,-87.35836930339717,4
Sh4,36.5283427520876,-87.35807256036952,5
Sh4,36.52857245357573,-87.35812969192973,6
Sh4,36.5288305251091,-87.35820858448555,7
Sh4,36.52903887135545,-87.35827964282529,8
Sh4,36.52914412468398,-87.35831147814707,9
Sh4,36.52926817377253,-87.35834906643676,10
Sh4,36.52948190221067,-87.3584271977126,11
Sh4,36.52968718708552,-87.35849277491174,12
Sh4,36.52988106830112,-87.35855461077867,13
Sh4,36.53010631931383,-87.35862585039267,14
Sh4,36.53027588337314,-87.35868726857997,15
Sh4,36.53029303044286,-87.35871525698271,16
Sh4,36.53011503645769,-87.35952129448451,17
Sh4,36.53029318786783,-87.35956863085474,18
Sh4,36.53081489130808,-87.35974070731393,19
Sh4,36.5314003374197,-87.35993295306689,20
Sh4,36.53198379585076,-87.36012071159166,21
Sh4,36.53245281146162,-87.36027061412294,22
Sh4,36.53278355393199,-87.36037558884088,23
Sh4,36.53301019426898,-87.36045040587595,24
Sh4,36.53309107084247,-87.3604770062928,25
Sh4,36.5332838989689,-87.36053844396507,26
Sh4,36.53364340846535,-87.36062973380729,27
Sh4,36.53384589066486,-87.36068995338621,28
Sh4,36.53410394012467,-87.36077063208458,29
Sh4,36.53444620481943,-87.36086871821512,30
Sh4,36.53479715900194,-87.36097527937912,31
Sh4,36.53510482726536,-87.36107862953342,32
Sh4,36.53548394405369,-87.36120749243931,33
Sh4,36.53573049002204,-87.36129329488438,34
Sh4,36.53587835069239,-87.36135487292049,35
Sh4,36.53603800632181,-87.36142801708895,36
Sh4,36.53634375369496,-87.3615928491849,37
Sh4,36.53656550463657,-87.36172077601458,38
Sh4,36.53677160052641,-87.36184134194923,39
Sh4,36.53699613236128,-87.36197640980282,40
Sh4,36.53729448790252,-87.3621623936213,41
Sh4,36.53751897951039,-87.36230100845249,42
Sh4,36.53776190695919,-87.36245412561365,43
Sh4,36.53800197337174,-87.36260719435411,44
Sh4,36.53807155034689,-87.36265153195878,45
Sh4,36.53823492735717,-87.36275659540199,46
Sh4,36.53838833596743,-87.36285498193925,47
Sh4,36.53848925760021,-87.36291345806184,48
Sh4,36.5385858082832,-87.36297895070564,49
Sh4,36.53868094844069,-87.363042646209,50
Sh4,36.53877032707452,-87.36310978832985,51
Sh4,36.53887391013796,-87.36318604059873,52
Sh4,36.53901847685691,-87.36330732464543,53
Sh4,36.5391048550175,-87.3633868263057,54
Sh4,36.53920331869868,-87.36346443593445,55
Sh4,36.53935973780511,-87.36362171297674,56
Sh4,36.53948119824749,-87.36376210224788,57
Sh4,36.53962951731803,-87.36393132346649,58
Sh4,36.53981011743889,-87.36415606534872,59
Sh4,36.53996087797361,-87.36436256286859,60
Sh4,36.54005649045266,-87.36451137266286,61
Sh4,36.54008032872147,-87.36455433625473,62
Sh4,36.54010454594128,-87.36456361966125,63
Sh4,36.5401301935686,-87.36457292779104,64
Sh4,36.54015721176663,-87.36458757857628,65
Sh4,36.54018544096449,-87.36462175317934,66
Sh4,36.54022183371708,-87.36469330167328,67
Sh4,36.54031452511553,-87.36484738085665,68
Sh4,36.54043486676743,-87.36508704211126,69
Sh4,36.54051462411817,-87.3652462175595,70
Sh4,36.54051556353762,-87.36541086612999,71
Sh4,36.54069811579942,-87.36559512507603,72
Sh4,36.5407471021797,-87.36569171431722,73
Sh4,36.54081547535617,-87.36584537510288,74
Sh4,36.54085732946084,-87.36594006827053,75
Sh4,36.54091882982603,-87.36606878851049,76
Sh4,36.5409830710529,-87.36620819441762,77
Sh4,36.54104745191719,-87.36633519190755,78
Sh4,36.54109780819104,-87.36643712478011,79
Sh4,36.54111451370335,-87.36647819309279,80
Sh4,36.54113809160221,-87.36654420250444,81
Sh4,36.54115453740222,-87.36660831551579,82
Sh4,36.54116270036224,-87.36664569002927,83
Sh4,36.54116238074656,-87.36667405268415,84
Sh4,36.54116049087983,-87.36671479924345,85
Sh4,36.54115466936527,-87.36672356354535,86
Sh4,36.5413709878047,-87.36720602192771,87
Sh4,36.54156400689301,-87.36759765537882,88
Sh4,36.54177247924105,-87.36801438083394,89
Sh4,36.54197534852406,-87.3684203732348,90
Sh4,36.54217370512701,-87.36884579290454,91
Sh4,36.54231062332716,-87.36913717153557,92
Sh4,36.54245606320862,-87.36943401809752,93
Sh4,36.54256664311281,-87.36965047410841,94
Sh4,36.54266850002892,-87.36987919073236,95
Sh4,36.5428221600133,-87.37020809756675,96
Sh4,36.54301232852226,-87.3705979231902,97
Sh4,36.54327992558743,-87.37109902476925,98
Sh4,36.54349198829708,-87.37145022768244,99
Sh4,36.5437128128623,-87.37178562708286,100
Sh4,36.54390865129275,-87.37205321736509,101
Sh4,36.54407934358039,-87.37226717961073,102
Sh4,36.54421473675856,-87.37243974837045,103
Sh4,36.5444672882729,-87.3727526550913,104
Sh4,36.54474252472726,-87.37308368922592,105
Sh4,36.54494424242214,-87.37333720373594,106
Sh4,36.54514876014748,-87.37359608756708,107
Sh4,36.54530659607784,-87.37380805977196,108
Sh4,36.54549537832919,-87.37406667220692,109
Sh4,36.54568010985874,-87.37430393800582,110
Sh4,36.54581088739904,-87.37450480335232,111
Sh4,36.54602614247062,-87.37482593933761,112
Sh4,36.54614986760421,-87.37501781800587,113
Sh4,36.54623561476176,-87.37515229576246,114
Sh4,36.54634245597129,-87.37531905755537,115
Sh4,36.54643090275769,-87.37546776805605,116
Sh4,36.54656590921822,-87.37567403035639,117
Sh4,36.54669390408188,-87.37586775922534,118
Sh4,36.54683310048817,-87.37608296163462,119
Sh4,36.54695827411364,-87.37627309637126,120
Sh4,36.547075066212,-87.3764453541382,121
Sh4,36.54720449022082,-87.37663911044486,122
Sh4,36.54741107660765,-87.37696719946443,123
Sh4,36.54761935419809,-87.37727226864467,124
Sh4,36.54787378717814,-87.3776703492864,125
Sh4,36.54814784158775,-87.37810423839393,126
Sh4,36.54826882150703,-87.37828544048179,127
Sh4,36.54843017707139,-87.37852200935333,128
Sh4,36.54864725216999,-87.37885059881037,129
Sh4,36.54885232779427,-87.37914650323734,130
Sh4,36.54904814313936,-87.37945339201782,131
Sh4,36.54923941087785,-87.37974399138287,132
Sh4,36.54930123926376,-87.37984259766658,133
Sh4,36.54936991701626,-87.37996792180118,134
Sh4,36.54943158384123,-87.38008071120846,135
Sh4,36.54950157070068,-87.38021669785884,136
Sh4,36.54958757112509,-87.38041195889781,137
Sh4,36.54966622168521,-87.38058308326801,138
Sh4,36.54975683651535,-87.38079213303074,139
Sh4,36.54983189825209,-87.38098495236081,140
Sh4,36.54988195942561,-87.38111172592654,141
Sh4,36.54991507774562,-87.38121869793677,142
Sh4,36.54996022576248,-87.38137429923657,143
Sh4,36.55000985822832,-87.38156435947252,144
Sh4,36.55007023099496,-87.38179061421388,145
Sh4,36.55013030032988,-87.38204346225137,146
Sh4,36.55017499841861,-87.38226412365711,147
Sh4,36.55020203041723,-87.38240290794263,148
Sh4,36.55023174118199,-87.38255769820505,149
Sh4,36.55023813697898,-87.3825858743695,150
Sh4,36.55031733325781,-87.38260369610113,151
Sh4,36.55040957885832,-87.38258403275694,152
Sh4,36.55049548268978,-87.38257271215531,153
Sh4,36.55065286894628,-87.3825517796579,154
Sh4,36.55077687759917,-87.38253455958645,155
Sh4,36.55087025338507,-87.38252109194637,156
Sh4,36.55098761305595,-87.38250399810876,157
Sh4,36.55108561425679,-87.38248976433418,158
Sh4,36.55121725395665,-87.38247135375593,159
Sh4,36.55129063781288,-87.38246033208631,160
Sh4,36.55136334883211,-87.38244941145065,161
Sh4,36.55147204835023,-87.3824314463276,162
Sh4,36.55161805171544,-87.38240397305754,163
Sh4,36.5517062754816,-87.38238651051734,164
Sh4,36.55177440898555,-87.38237241999875,165
Sh4,36.55185712830964,-87.38235483977137,166
Sh4,36.5519354884202,-87.38233658814598,167
Sh4,36.55200666085273,-87.38231962471342,168
Sh4,36.55208778170697,-87.38229861852129,169
Sh4,36.55216144887385,-87.38227954241786,170
Sh4,36.5522429110431,-87.3822566643712,171
Sh4,36.55232296514803,-87.3822333911628,172
Sh4,36.55240497207834,-87.38220837498888,173
Sh4,36.55245602717245,-87.38219219570992,174
Sh4,36.55254050105809,-87.38216483139637,175
Sh4,36.55263023628277,-87.38213481330307,176
Sh4,36.55272724247669,-87.38210162615844,177
Sh4,36.55278462497071,-87.38208174684661,178
Sh4,36.55285513726555,-87.38205647424485,179
Sh4,36.55296287387311,-87.38201679641597,180
Sh4,36.55306130014615,-87.38197699472573,181
Sh4,36.5531529182075,-87.381939325023,182
Sh4,36.55323319415884,-87.38190955136564,183
Sh4,36.55337951140617,-87.3818562660414,184
Sh4,36.5534798446402,-87.38181934169809,185
Sh4,36.55358550630013,-87.38177939683204,186
Sh4,36.55367915900231,-87.38174303286503,187
Sh4,36.55379447908423,-87.38169823775235,188
Sh4,36.55389679132525,-87.38165825858334,189
Sh4,36.55401840675659,-87.38161581271338,190
Sh4,36.55415284480075,-87.38156945514788,191
Sh4,36.55425990443966,-87.38153441357805,192
Sh4,36.55439486637944,-87.38149322338026,193
Sh4,36.55445898243966,-87.38147434220006,194
Sh4,36.55452837117439,-87.38145501089463,195
Sh4,36.55461278157524,-87.38143149459101,196
Sh4,36.554719533334,-87.38140442189696,197
Sh4,36.55482436168974,-87.38138029465273,198
Sh4,36.55493263842044,-87.38135495088619,199
Sh4,36.55503413025323,-87.38133265636885,200
Sh4,36.55511148282555,-87.38131740846413,201
Sh4,36.5551844855641,-87.38130361407261,202
Sh4,36.55524516715008,-87.38129214999692,203
Sh4,36.55531965003135,-87.38127897494167,204
Sh4,36.55541025634315,-87.38126456823032,205
Sh4,36.55549636847008,-87.38125324279953,206
Sh4,36.55559108908184,-87.38124023845822,207
Sh4,36.55568066457762,-87.38122998889254,208
Sh4,36.55576410046581,-87.38122203541647,209
Sh4,36.55582257625262,-87.38121624436485,210
Sh4,36.55590286945563,-87.3812092324321,211
Sh4,36.5559832503482,-87.3812032464192,212
Sh4,36.55608610897524,-87.38119724459806,213
Sh4,36.55618487298612,-87.38119321039059,214
Sh4,36.55627364128404,-87.38119070255219,215
Sh4,36.55634764568346,-87.38118861181181,216
Sh4,36.55642969410867,-87.3811872083805,217
Sh4,36.55650101723226,-87.38118633646825,218
Sh4,36.55657395132469,-87.38118649455491,219
Sh4,36.55667744822247,-87.38118842298448,220
Sh4,36.556782492244,-87.38119246602584,221
Sh4,36.55686287270736,-87.38119695277811,222
Sh4,36.55696555688179,-87.38120302828806,223
Sh4,36.55706109955272,-87.38121047958742,224
Sh4,36.55715836843665,-87.38121938627697,225
Sh4,36.5572524619127,-87.3812278939595,226
Sh4,36.55735286221049,-87.38123741633845,227
Sh4,36.55744642532642,-87.38124741616255,228
Sh4,36.55752800822352,-87.38125948375041,229
Sh4,36.55761797804901,-87.38127382615492,230
Sh4,36.55768967718847,-87.38128483722274,231
Sh4,36.55776692016816,-87.3812982365171,232
Sh4,36.55785445494936,-87.38131431215388,233
Sh4,36.55794722517028,-87.38133311395889,234
Sh4,36.55804363937058,-87.38135397638844,235
Sh4,36.55810625218457,-87.38136719624852,236
Sh4,36.55817697629915,-87.38138315697583,237
Sh4,36.55824319704793,-87.38139840399593,238
Sh4,36.55832712113553,-87.38141939930648,239
Sh4,36.55839018342445,-87.38143405143991,240
Sh4,36.55851194708157,-87.38146172082448,241
Sh4,36.55861744920708,-87.38149007581811,242
Sh4,36.55872481214534,-87.38152137337731,243
Sh4,36.55880275699578,-87.38154481821371,244
Sh4,36.55887164281367,-87.3815704663244,245
Sh4,36.5589490964772,-87.38159930453951,246
Sh4,36.55902137798936,-87.38162908594875,247
Sh4,36.55909126218179,-87.3816583998381,248
Sh4,36.55914425993572,-87.38168072842923,249
Sh4,36.55920021685308,-87.38170776872518,250
Sh4,36.55924358124592,-87.3817304427764,251
Sh4,36.55932036191571,-87.38177222054279,252
Sh4,36.55938991082561,-87.38181234947362,253
Sh4,36.55944100325074,-87.38184182927303,254
Sh4,36.55949209566767,-87.38187130911061,255
Sh4,36.55954021441983,-87.38189907321116,256
Sh4,36.55959855535261,-87.38193887724508,257
Sh4,36.55961704592494,-87.38195149274796,258
Sh4,36.55966346810806,-87.38198500499348,259
Sh4,36.55970695317733,-87.38201648434431,260
Sh4,36.55978948972002,-87.38208049580878,261
Sh4,36.55986654806956,-87.38214313462925,262
Sh4,36.55991706129769,-87.38218487887195,263
Sh4,36.55996937171734,-87.38223274542598,264
Sh4,36.56003277018284,-87.38229075818569,265
Sh4,36.55999657301359,-87.38233353809849,266
Sh4,36.55997048314995,-87.38237819744926,267
Sh4,36.55995771090628,-87.38239925501588,268
Sh4,36.55993317114042,-87.38244351584305,269
Sh4,36.55991957414738,-87.38246157957906,270
Sh4,36.55990324515376,-87.38248511518526,271
Sh4,36.55982567524174,-87.38259613482202,272
Sh4,36.55970612595677,-87.38275194725969,273
Sh4,36.55957590178809,-87.38292544948868,274
Sh4,36.55944573303,-87.38310916591901,275
Sh4,36.55958080470909,-87.38323092322118,276
Sh4,36.55965104695729,-87.38331431584449,277
Sh4,36.55967524415735,-87.38334517129289,278
Sh4,36.55975530398769,-87.38342873615605,279
Sh4,36.55982817399323,-87.38349696110424,280
Sh4,36.55990342808436,-87.38357131293117,281
Sh4,36.55999411037174,-87.38367889605978,282
Sh4,36.55995360391535,-87.38373978352169,283
Sh4,36.55989838775432,-87.3838227817665,284
Sh4,36.55983197256079,-87.38392589540126,285
Sh4,36.55976408213201,-87.38403792220754,286
Sh4,36.55972026732248,-87.38411631996925,287
Sh4,36.55969709524766,-87.38416102974278,288
Sh4,36.55967500984033,-87.38423087028775,289
Sh4,36.55966838652572,-87.38425458903218,290
Sh4,36.55965838795706,-87.38430336033031,291
Sh4,36.55965432521382,-87.38432840083088,292
Sh4,36.55964769429518,-87.38436786746603,293
Sh4,36.5596389562557,-87.38442645016225,294
Sh4,36.5596358990855,-87.38445363639789,295
Sh4,36.55963440175189,-87.38447957311793,296
Sh4,36.55963280894179,-87.38457195109642,297
Sh4,36.55963246984526,-87.38466383493484,298
Sh4,36.55963454586786,-87.38472260726539,299
Sh4,36.55963548718337,-87.3848056201852,300
Sh4,36.55963647847954,-87.38487173370368,301
Sh4,36.55963770147692,-87.38495330362139,302
Sh4,36.5596395866611,-87.38503297458516,303
Sh4,36.55964405933528,-87.3851675509361,304
Sh4,36.55964625867119,-87.38529585406803,305
Sh4,36.55964777610519,-87.38546078242771,306
Sh4,36.55964714383968,-87.38558897154064,307
Sh4,36.55964753695807,-87.38564473613495,308
Sh4,36.55964476035447,-87.38593283398669,309
Sh4,36.5596467744818,-87.38601203517581,310
Sh4,36.55964882169283,-87.38608825759141,311
Sh4,36.55965608527266,-87.38618883321827,312
Sh4,36.55967076291096,-87.38643680345955,313
Sh4,36.55968268976858,-87.38670004791297,314
Sh4,36.55969044604736,-87.38693768292129,315
Sh4,36.5596962982354,-87.38711654742475,316
Sh4,36.55969693218379,-87.38713613722545,317
Sh4,36.55970518139083,-87.38730057381561,318
Sh4,36.55971796219042,-87.38747402705511,319
Sh4,36.55972076724539,-87.38752898175088,320
Sh4,36.55972405060887,-87.38767715635312,321
Sh4,36.55972804154106,-87.3878385388487,322
Sh4,36.55973020476463,-87.38793739992451,323
Sh4,36.55973245592779,-87.38802291135212,324
Sh4,36.55973370252444,-87.38809401236787,325
Sh4,36.55973379990617,-87.38814551450531,326
Sh4,36.55974043851442,-87.38824054524861,327
Sh4,36.55974653789302,-87.38841260548512,328
Sh4,36.5597491233404,-87.38848670943479,329
Sh4,36.55975192467884,-87.38855698657601,330
Sh4,36.55976014213367,-87.38866396261135,331
Sh4,36.5597737887342,-87.38882168338412,332
Sh4,36.55977761622363,-87.38892219789322,333
Sh4,36.55979051698352,-87.38902500128663,334
Sh4,36.55979836288965,-87.38907451168519,335
Sh4,36.55980899268916,-87.38918067904601,336
Sh4,36.55982950022907,-87.38935384321996,337
Sh4,36.55985390618968,-87.38953133346091,338
Sh4,36.55987739414817,-87.38969901718251,339
Sh4,36.55989311288914,-87.38985549799889,340
Sh4,36.5599196407757,-87.38995258177049,341
Sh4,36.55994836143239,-87.39005310921453,342
Sh4,36.55998056947107,-87.3901490173854,343
Sh4,36.56001347148003,-87.39022918861484,344
Sh4,36.56003922857673,-87.39030370095911,345
Sh4,36.56010071187383,-87.39045162449983,346
Sh4,36.56013827786067,-87.39052932437558,347
Sh4,36.56018749671944,-87.39062382899677,348
Sh4,36.56024922932606,-87.3907500516397,349
Sh4,36.56030743839733,-87.39085407870438,350
Sh4,36.56037061135976,-87.39097436720677,351
Sh4,36.56043702153941,-87.39109684108229,352
Sh4,36.5605097007556,-87.39125645636965,353
Sh4,36.56054142535349,-87.39133447972104,354
Sh4,36.56056635236809,-87.3914064245381,355
Sh4,36.56058496338442,-87.39149017566641,356
Sh4,36.56059963702327,-87.39158790316381,357
Sh4,36.56061603534671,-87.39175972043088,358
Sh4,36.56063135560653,-87.39193577616729,359
Sh4,36.56065193734233,-87.3921021341816,360
Sh4,36.56067243980435,-87.39227530094722,361
Sh4,36.56068910067229,-87.39240924332046,362
Sh4,36.5607088266194,-87.39254536684518,363
Sh4,36.56072502045929,-87.3926601466826,364
Sh4,36.56074450394967,-87.39274263679472,365
Sh4,36.56076902222701,-87.3928052112022,366
Sh4,36.56079754851056,-87.39287764583878,367
Sh4,36.56091459555116,-87.39307550186422,368
Sh4,36.5609893248146,-87.39319088948164,369
Sh4,36.56106157258284,-87.39329814653824,370
Sh4,36.5611213238484,-87.39325280727664,371
Sh4,36.56117431689327,-87.39321288188893,372
Sh4,36.56119920505667,-87.39319842400202,373
Sh4,36.56124099277822,-87.3931774542291,374
Sh4,36.56127668534722,-87.39316403824864,375
Sh4,36.56131543822991,-87.39315323005438,376
Sh4,36.56135207669322,-87.39314706649294,377
Sh4,36.5613988378667,-87.39314150719183,378
Sh4,36.56145103308428,-87.39314115137232,379
Sh4,36.56153719078551,-87.39314352304919,380
Sh4,36.56160052302762,-87.39314506629898,381
Sh4,36.56167054504703,-87.39314715323933,382
Sh4,36.56173746765238,-87.39315003675712,383
Sh4,36.56180298377481,-87.39315587490316,384
Sh4,36.5618552964218,-87.39316020314985,385
Sh4,36.56189130798436,-87.39316381809844,386
Sh4,36.56197785797988,-87.39317683763041,387
Sh4,36.56202410479799,-87.39318616648637,388
Sh4,36.56204484026728,-87.3931895118687,389
Sh4,36.56206300058805,-87.39319281180758,390
Sh4,36.56208404912535,-87.39319871653629,391
Sh4,36.5620955156818,-87.39320189834932,392
Sh4,36.56210053089137,-87.39316878721543,393
Sh4,36.5621183649192,-87.39309589245774,394
Sh4,36.56214276331862,-87.39298948820488,395
Sh4,36.56218389721089,-87.39281612742464,396
Sh4,36.56222399697853,-87.3926431749796,397
Sh4,36.56225644057118,-87.39247902570152,398
Sh4,36.56228326077327,-87.39235606393854,399
Sh4,36.56230925636729,-87.39223010697235,400
Sh4,36.56232798035345,-87.39212445341994,401
Sh4,36.56234537132693,-87.39203026853147,402
Sh4,36.56236059873142,-87.39193008652667,403
Sh4,36.56236952350546,-87.391825536989,404
Sh4,36.56242914083436,-87.3918665980466,405
Sh4,36.56250385906057,-87.39190835105551,406
Sh4,36.56256972887631,-87.39194313790669,407
Sh4,36.56264154726187,-87.39198313737451,408
Sh4,36.56270345010086,-87.3920195569584,409
Sh4,36.56278095277576,-87.39205795423739,410
Sh4,36.5628375829309,-87.39209002456357,411
Sh4,36.56287495909372,-87.39210941183143,412
Sh4,36.56289339924577,-87.39211824981894,413
Sh4,36.56290929445126,-87.392124489088,414
Sh4,36.56294212848946,-87.39213570911467,415
Sh4,36.56296901305165,-87.39214171654183,416
Sh4,36.56300209732199,-87.39214613073739,417
Sh4,36.5630274961183,-87.39214700427559,418
Sh4,36.56305410087276,-87.39214747343932,419
Sh4,36.56308381081541,-87.39214672043718,420
Sh4,36.56311713953399,-87.39214475432456,421
Sh4,36.56320119231675,-87.39213602114586,422
Sh4,36.56328476877429,-87.39212387440689,423
Sh4,36.56343748872489,-87.39210060327086,424
Sh4,36.56352884342924,-87.39208391153495,425
Sh4,36.56363666642024,-87.39206836144673,426
Sh4,36.56373852039474,-87.39204930089971,427
Sh4,36.56383737869245,-87.39203699781136,428
Sh4,36.56393854606841,-87.39201792506879,429
Sh4,36.56405529953055,-87.39200210663408,430
Sh4,36.56415539306674,-87.39198684568638,431
Sh4,36.56426234757045,-87.39197213132513,432
Sh4,36.56436621731559,-87.39195693688363,433
Sh4,36.56447644330456,-87.39194142882828,434
Sh4,36.56459235269815,-87.39192431834128,435
Sh4,36.56469130372243,-87.39190392924334,436
Sh4,36.56481936626514,-87.39189001249244,437
Sh4,36.56496023804835,-87.39186695720521,438
Sh4,36.56509695522811,-87.39184680815276,439
Sh4,36.56523520881383,-87.39182753630831,440
Sh4,36.56537160311037,-87.39180567880912,441
Sh4,36.56551051793461,-87.39178854787487,442
Sh4,36.56564034082673,-87.39177083093043,443
Sh4,36.56573714324811,-87.39175806529722,444
Sh4,36.56577446418137,-87.39175233843366,445
Sh4,36.56580715021286,-87.39174652985076,446
Sh4,36.56582536913235,-87.39174472277095,447
Sh4,36.56588100662523,-87.39172867739906,448
Sh4,36.56594047801691,-87.39170759171077,449
Sh4,36.56596238983397,-87.39169818789476,450
Sh4,36.56599034299385,-87.39168591097808,451
Sh4,36.56601433807305,-87.39167441558945,452
Sh4,36.56603627917827,-87.39166245832655,453
Sh4,36.56604891720937,-87.39165331665654,454
Sh4,36.56606557099914,-87.39163828656925,455
Sh4,36.56609609317868,-87.39161158253643,456
Sh4,36.56610953404945,-87.39159223921364,457
Sh4,36.56612352935897,-87.39156950039403,458
Sh4,36.5661352888313,-87.39154714781175,459
Sh4,36.566147022644,-87.39151202502664,460
Sh4,36.56615165504186,-87.39148231061203,461
Sh4,36.5661552438123,-87.39145385477306,462
Sh4,36.56615792996463,-87.39142921394563,463
Sh4,36.56616051234857,-87.39139861207276,464
Sh4,36.56616361171379,-87.39130800150208,465
Sh4,36.56614634557488,-87.39098717551967,466
Sh4,36.56613462136474,-87.39077997903138,467
Sh4,36.56611403591272,-87.39048092349218,468
Sh4,36.56611150109371,-87.3903276420087,469
Sh4,36.56609468715992,-87.39002695537931,470
Sh4,36.56608687741461,-87.38988715504003,471
Sh4,36.5660807177012,-87.38974284612478,472
Sh4,36.56607286027137,-87.38958376621896,473
Sh4,36.56606324346135,-87.3893848096253,474
Sh4,36.56604634694856,-87.38909123425843,475
Sh4,36.56603497287092,-87.38887011681963,476
Sh4,36.56602755841533,-87.38871171623539,477
Sh4,36.56602021396488,-87.3885682038561,478
Sh4,36.56601474074166,-87.38846283141716,479
Sh4,36.566008252031,-87.38832670861996,480
Sh4,36.56600186577592,-87.38819273832856,481
Sh4,36.56599423203509,-87.38805210493214,482
Sh4,36.56598735048583,-87.38792016767174,483
Sh4,36.56597868039714,-87.3877432613498,484
Sh4,36.56597307309937,-87.38764691876817,485
Sh4,36.56596625940898,-87.3875298501675,486
Sh4,36.56595877327676,-87.38739983506136,487
Sh4,36.56595101907699,-87.38726476134171,488
Sh4,36.56594508818584,-87.38714841984689,489
Sh4,36.5659381180181,-87.38701169452418,490
Sh4,36.5659209162629,-87.38671428284259,491
Sh4,36.56591249915243,-87.38648938831706,492
Sh4,36.56590006078721,-87.3862602756725,493
Sh4,36.56589508298139,-87.38614874556724,494
Sh4,36.56589127189562,-87.38606335794172,495
Sh4,36.56587670503291,-87.3857603771816,496
Sh4,36.56586952884582,-87.3856016907678,497
Sh4,36.56586385948175,-87.38548297785759,498
Sh4,36.56585362151194,-87.38528629885923,499
Sh4,36.56584734902673,-87.38511732333885,500
Sh4,36.56584206380264,-87.38498604497136,501
Sh4,36.56583431700661,-87.38481177814171,502
Sh4,36.56583298909196,-87.38468746328812,503
Sh4,36.56583553091732,-87.38466026588745,504
Sh4,36.56584092803317,-87.38463865209576,505
Sh4,36.56585068961516,-87.38461073001156,506
Sh4,36.56588222016367,-87.38454062299017,507
Sh4,36.56598049569443,-87.38461595104388,508
Sh4,36.56600782273971,-87.38463689722515,509
Sh4,36.56610832287161,-87.38472809473831,510
Sh4,36.5662628888323,-87.38486618300578,511
Sh4,36.56635246391472,-87.38494601138291,512
Sh4,36.56644211493084,-87.38502943307449,513
Sh4,36.56653731563579,-87.38511801910848,514
Sh4,36.56664257185184,-87.3852157202586,515
Sh4,36.56672172112671,-87.38528878554202,516
Sh4,36.566803110923,-87.38536391932165,517
Sh4,36.56688385962016,-87.38543846147795,518
Sh4,36.56699324424003,-87.38555658704719,519
Sh4,36.56702993919716,-87.38558125934804,520
Sh4,36.5670711359157,-87.3856089584947,521
Sh4,36.56710245343963,-87.38563001525952,522
Sh4,36.56715517715749,-87.38566367489561,523
Sh4,36.56719363820869,-87.38568822905727,524
Sh4,36.56722649096789,-87.38570863168937,525
Sh4,36.56727052131897,-87.38573597600003,526
Sh4,36.56730050793689,-87.38575291687425,527
Sh4,36.56734984057205,-87.38578078726999,528
Sh4,36.56742206824667,-87.38581525706509,529
Sh4,36.5674832369029,-87.38583995808816,530
Sh4,36.56752691190987,-87.38585759488053,531
Sh4,36.56757194137823,-87.38587577865175,532
Sh4,36.56762390585411,-87.38589274473789,533
Sh4,36.56767946352253,-87.38590869128711,534
Sh4,36.56773227368849,-87.38592243711123,535
Sh4,36.56782047176028,-87.385941437928,536
Sh4,36.56802458208306,-87.38597311559663,537
Sh4,36.56819727374475,-87.38597487063177,538
Sh4,36.56834692499665,-87.38597962649716,539
Sh4,36.56848060872484,-87.38598452769732,540
Sh4,36.56861173188739,-87.38598810694292,541
Sh4,36.56874265953731,-87.38599381112665,542
Sh4,36.56887857419488,-87.38599875154637,543
Sh4,36.56900588222307,-87.38600566923316,544
Sh4,36.56910807695049,-87.38600850988692,545
Sh4,36.56931682342976,-87.38601836527857,546
Sh4,36.56945464120079,-87.38602206216594,547
Sh4,36.56962527627218,-87.38602560002948,548
Sh4,36.56967912039283,-87.38602898342295,549
Sh4,36.5697664595799,-87.38603307104175,550
Sh4,36.56986187540799,-87.38603644912979,551
Sh4,36.56995654517473,-87.38604040415964,552
Sh4,36.57026293605033,-87.38605030216158,553
Sh4,36.57038925302725,-87.38605379720666,554
Sh4,36.57047351277965,-87.38606036311498,555
Sh4,36.57054968316445,-87.38606629867482,556
Sh4,36.57064311516459,-87.38607357935797,557
Sh4,36.57076922304256,-87.38609537514289,558
Sh4,36.57088332540771,-87.38611610881428,559
Sh4,36.57093109842307,-87.38612716411406,560
Sh4,36.57100666626996,-87.38614518503653,561
Sh4,36.57109000256337,-87.38616692407085,562
Sh4,36.5711403049866,-87.38618069303561,563
Sh4,36.57124313929394,-87.38620884127832,564
Sh4,36.57131316170511,-87.38623401135673,565
Sh4,36.57140403129817,-87.38626904989509,566
Sh4,36.57149456212113,-87.38630696493794,567
Sh4,36.5716288234057,-87.38636630772889,568
Sh4,36.57172217925938,-87.38641477415321,569
Sh4,36.57181534841558,-87.38646451336119,570
Sh4,36.57190846404589,-87.3865189343246,571
Sh4,36.57197852948607,-87.38656230828495,572
Sh4,36.57204638251665,-87.38660394069987,573
Sh4,36.57209471607705,-87.3866290272574,574
Sh4,36.57224399322065,-87.38672657860543,575
Sh4,36.57233789442689,-87.38678739934578,576
Sh4,36.57244100033632,-87.38685391594761,577
Sh4,36.57263374093177,-87.38697905049526,578
Sh4,36.57283992506979,-87.38711463967125,579
Sh4,36.57309732981869,-87.38728030943635,580
Sh4,36.57334802931884,-87.38744815068745,581
Sh4,36.57356068873585,-87.38758793883314,582
Sh4,36.57376725833421,-87.3877197055736,583
Sh4,36.57434054235348,-87.38809120560529,584
Sh4,36.57439113204846,-87.38812615257332,585
Sh4,36.57446820952544,-87.38817178116908,586
Sh4,36.5746288837389,-87.38827847862214,587
Sh4,36.57478194535542,-87.38837525140508,588
Sh4,36.57493900456559,-87.38847614445712,589
Sh4,36.57507114404333,-87.38856254047963,590
Sh4,36.57523542256447,-87.38866904595233,591
Sh4,36.57539153479139,-87.38876953770605,592
Sh4,36.57554569495736,-87.38886945960337,593
Sh4,36.57571124344814,-87.38897609778979,594
Sh4,36.57592021295144,-87.38911136883357,595
Sh4,36.57616352712075,-87.38926928497408,596
Sh4,36.5763458672154,-87.38938786259681,597
Sh4,36.57644523035206,-87.38945134011983,598
Sh4,36.57659175864058,-87.38954885383313,599
Sh4,36.57665499604003,-87.3895887071502,600
Sh4,36.57674822369033,-87.38964824571791,601
Sh4,36.57681434932851,-87.3896907043396,602
Sh4,36.57687552115225,-87.38973094723065,603
Sh4,36.57702174579163,-87.38982505203612,604
Sh4,36.5772899900395,-87.38999793405767,605
Sh4,36.57734686019869,-87.39003613920706,606
Sh4,36.57751515231706,-87.39014498885102,607
Sh4,36.57768244813688,-87.39025304043524,608
Sh4,36.5779479913257,-87.39042839584201,609
Sh4,36.57841553664046,-87.39073127084534,610
Sh4,36.57843986233937,-87.39074351136468,611
Sh4,36.57841973421623,-87.3907994606905,612
Sh4,36.57840386208951,-87.39085111935792,613
Sh4,36.57838641275041,-87.39092063062303,614
Sh4,36.5783614324692,-87.39103716736756,615
Sh4,36.57835007814201,-87.39109496395801,616
Sh4,36.57832953494258,-87.39119464698337,617
Sh4,36.57830871797387,-87.39130326533022,618
Sh4,36.57828582651919,-87.39141312422176,619
Sh4,36.57826362641524,-87.39152257063377,620
Sh4,36.5782447941011,-87.39160780901538,621
Sh4,36.57821486233635,-87.39176267025705,622
Sh4,36.57818329722404,-87.39192516559562,623
Sh4,36.57815391461086,-87.39207705734594,624
Sh4,36.57811477341578,-87.39225644771312,625
Sh4,36.57808498735551,-87.39239853936189,626
Sh4,36.57805351420505,-87.39255294709062,627
Sh4,36.5780292044718,-87.39266661287741,628
Sh4,36.57799185323326,-87.39285454871339,629
Sh4,36.57796948570019,-87.39297846481035,630
Sh4,36.57794855367806,-87.39308197152648,631
Sh4,36.5779282250537,-87.39319272722739,632
Sh4,36.57789855931267,-87.39333468486058,633
Sh4,36.57788325717373,-87.39340096276069,634
Sh4,36.57786784666983,-87.39348711216158,635
Sh4,36.57785303459682,-87.39356603483233,636
Sh4,36.57783887873322,-87.39363262314291,637
Sh4,36.57781957458901,-87.39374382236856,638
Sh4,36.5778130639255,-87.3938024569252,639
Sh4,36.57780968196823,-87.39385774095547,640
Sh4,36.57780644374707,-87.39394538232773,641
Sh4,36.57780180788585,-87.39405002785453,642
Sh4,36.57779838953964,-87.39419811843136,643
Sh4,36.57779403315379,-87.39430830436542,644
Sh4,36.57778736256194,-87.39445548602167,645
Sh4,36.57777404927662,-87.39468512143152,646
Sh4,36.57776332092722,-87.39486268821024,647
Sh4,36.57775102327826,-87.3950180738875,648
Sh4,36.57774594602611,-87.39516102637394,649
Sh4,36.57773720442134,-87.39524942179557,650
Sh4,36.57773001677766,-87.39535189345779,651
Sh4,36.57772347308585,-87.3954880095489,652
Sh4,36.57772130746872,-87.39558673848536,653
Sh4,36.57772328516378,-87.39565361162188,654
Sh4,36.57772681207619,-87.3957200864368,655
Sh4,36.57774383244745,-87.39588216136784,656
Sh4,36.57775918412127,-87.39598034982043,657
Sh4,36.57778589464758,-87.39613578474669,658
Sh4,36.57781191839294,-87.39629120763212,659
Sh4,36.57789112434558,-87.39674187167562,660
Sh4,36.57792347303087,-87.39694064833813,661
Sh4,36.5779449917448,-87.39706497128797,662
Sh4,36.57799157942442,-87.39733298626632,663
Sh4,36.57801818435587,-87.39749241617005,664
Sh4,36.57803995880732,-87.39761413265649,665
Sh4,36.5780779277398,-87.39783939883239,666
Sh4,36.57810910306041,-87.39802888853158,667
Sh4,36.57813675785857,-87.39819698143985,668
Sh4,36.57816388903252,-87.39836189311791,669
Sh4,36.5781952233277,-87.39855235450722,670
Sh4,36.57822318310159,-87.3987223059771,671
Sh4,36.57825557983686,-87.39891922915886,672
Sh4,36.57828716106344,-87.39911119730805,673
Sh4,36.57831781102877,-87.39929750665142,674
Sh4,36.57834576975766,-87.39946745864917,675
Sh4,36.57837342256052,-87.39963555256544,676
Sh4,36.5784046217266,-87.39982520570862,677
Sh4,36.57842944032899,-87.40000497317349,678
Sh4,36.57845923903702,-87.4002208155141,679
Sh4,36.57848259042134,-87.40038995971979,680
Sh4,36.57850673252252,-87.40056483333291,681
Sh4,36.57852986282791,-87.40073237980522,682
Sh4,36.57855785777515,-87.4009351661272,683
Sh4,36.57857221382076,-87.4010391576774,684
Sh4,36.57858800376684,-87.40115353682772,685
Sh4,36.57860478897634,-87.401201516106,686
Sh4,36.57862238700006,-87.40131294301156,687
Sh4,36.57864060675123,-87.40145971627612,688
Sh4,36.57866456391336,-87.40161510713955,689
Sh4,36.57868135787017,-87.4017218369586,690
Sh4,36.5787275499789,-87.402033012014,691
Sh4,36.57875079031267,-87.40219094486133,692
Sh4,36.57877944430619,-87.40237068494856,693
Sh4,36.57880376438662,-87.40249457791083,694
Sh4,36.57881415704515,-87.40260545163494,695
Sh4,36.57884170464996,-87.40282136030119,696
Sh4,36.5788803782109,-87.40305476678189,697
Sh4,36.578907565785,-87.40322782361797,698
Sh4,36.57893460425952,-87.4033985965734,699
Sh4,36.57895417608107,-87.40353219742197,700
Sh4,36.57897884672382,-87.4036850467818,701
Sh4,36.57900603319332,-87.40384305084451,702
Sh4,36.57902039170581,-87.40395229268294,703
Sh4,36.57905559515494,-87.40412959621435,704
Sh4,36.5790715827185,-87.40421672927305,705
Sh4,36.5791016937339,-87.40432965738448,706
Sh4,36.57913348693282,-87.40443069622329,707
Sh4,36.5791628281079,-87.40452104716491,708
Sh4,36.57921355396377,-87.40467734107168,709
Sh4,36.57924273892039,-87.40475151169555,710
Sh4,36.57926409805126,-87.40481958286766,711
Sh4,36.57933140765601,-87.40498170798753,712
Sh4,36.57938319771182,-87.40512014080564,713
Sh4,36.57939621501487,-87.40516720289658,714
Sh4,36.57935636202671,-87.40519884887739,715
Sh4,36.57930508186641,-87.40523880597456,716
Sh4,36.57924381670061,-87.40528113961764,717
Sh4,36.57917950134561,-87.40532001305169,718
Sh4,36.57911987865028,-87.40536876174465,719
Sh4,36.57904263474385,-87.40542698835,720
Sh4,36.57899135943241,-87.40546651949963,721
Sh4,36.57893069109802,-87.40551652764771,722
Sh4,36.57888423167853,-87.40555529299053,723
Sh4,36.57885129369122,-87.40558280444276,724
Sh4,36.57880163122836,-87.40563130439192,725
Sh4,36.57877395549929,-87.4056640182271,726
Sh4,36.57874408737316,-87.40569328717758,727
Sh4,36.57871337889102,-87.40573573866938,728
Sh4,36.57867004302613,-87.4057864797544,729
Sh4,36.57862535229346,-87.40585039416746,730
Sh4,36.5785847568677,-87.40590160967378,731
Sh4,36.57853591206648,-87.40596843003708,732
Sh4,36.57847676852173,-87.40603506685534,733
Sh4,36.57843542374138,-87.40607690398274,734
Sh4,36.57840056748822,-87.40610693524009,735
Sh4,36.57842870343082,-87.40616788947122,736
Sh4,36.57845866869347,-87.40623398504385,737
Sh4,36.57849116028052,-87.40628948253963,738
Sh4,36.57852129724314,-87.40634068086879,739
Sh4,36.57855506327026,-87.4064047156817,740
Sh4,36.57858489084338,-87.40646782891578,741
Sh4,36.57860453659929,-87.40653544374267,742
Sh4,36.57861859681185,-87.40661104897946,743
Sh4,36.57862191326883,-87.4067247770187,744
Sh4,36.57861524765904,-87.40681108066106,745
Sh4,36.57860238366338,-87.40688407628926,746
Sh4,36.57857091559487,-87.40699207552728,747
Sh4,36.57854008531422,-87.40708944290273,748
Sh4,36.57849862708095,-87.40720024506116,749
Sh4,36.57846386968105,-87.40728093895237,750
Sh4,36.57830203804605,-87.40721632344051,751
Sh4,36.57816808108921,-87.40714624389719,752
Sh4,36.57797346757864,-87.40703634359224,753
Sh4,36.57767077680676,-87.40684533318046,754
Sh4,36.57736006262591,-87.40666524995682,755
Sh4,36.57730545601285,-87.40663660501593,756
Sh4,36.57721498737566,-87.40659156942064,757
Sh4,36.57711242028645,-87.40653865428625,758
Sh4,36.57703680131107,-87.40650112073146,759
Sh4,36.57695927403909,-87.40646525611412,760
Sh4,36.57687205133325,-87.40642155590284,761
Sh4,36.57676102957758,-87.40637232313993,762
Sh4,36.57670562373502,-87.40635345584805,763
Sh4,36.5765619997856,-87.40628789094643,764
Sh4,36.57644881518549,-87.40623266002802,765
Sh4,36.57634413389235,-87.40618439218321,766
Sh4,36.57620755266933,-87.40611852764182,767
Sh4,36.57608158381504,-87.40605540665129,768
Sh4,36.57599603792642,-87.40601514294869,769
Sh4,36.57593128479465,-87.40598801994658,770
Sh4,36.57583895145557,-87.40595572400804,771
Sh4,36.57579584483509,-87.40609033340836,772
Sh4,36.57577315756569,-87.40616655722427,773
Sh4,36.57573731408991,-87.40629661187208,774
Sh4,36.57570627860322,-87.40639695233254,775
Sh4,36.57567684749795,-87.40649221277914,776
Sh4,36.57563765463686,-87.40661497148068,777
Sh4,36.57559190738936,-87.40676996609155,778
Sh4,36.57555470554707,-87.40688381899308,779
Sh4,36.57552017588682,-87.40700410506714,780
Sh4,36.57548313603447,-87.40711881318282,781
Sh4,36.57543569568426,-87.40728654829941,782
Sh4,36.57540092530899,-87.40741278965731,783
Sh4,36.57535591371634,-87.40754863958252,784
Sh4,36.57534860870538,-87.40757665679203,785
Sh4,36.57563973840743,-87.40770599285955,786
Sh4,36.57603345341202,-87.4078874388602,787
Sh4,36.57639876630417,-87.40805064186262,788
Sh4,36.57687550778606,-87.40826904915234,789
Sh4,36.57750406763978,-87.40855520903462,790
Sh4,36.57823458796742,-87.40889049625063,791
Sh4,36.57877293303275,-87.40914253444461,792
Sh4,36.57881567272816,-87.40915807973695,793
Sh4,36.57873622743023,-87.40942865421711,794
Sh4,36.57868849419472,-87.40963770926349,795
Sh4,36.5786124761885,-87.41002364522558,796
Sh4,36.57853964443317,-87.41041010482377,797
Sh4,36.57848448232062,-87.41077820611221,798
Sh4,36.57845346886689,-87.41098460218016,799
Sh4,36.57845257515688,-87.41106145349887,800
Sh4,36.57845358408597,-87.41117972891728,801
Sh4,36.57845963586399,-87.41127444303226,802
Sh4,36.57847577351943,-87.41132203454868,803
Sh4,36.57849889113336,-87.41138453308024,804
Sh4,36.57852871360681,-87.41148558523723,805
Sh4,36.5786072236597,-87.41170576584526,806
Sh4,36.57863037546628,-87.41176530876695,807
Sh4,36.57842589098713,-87.41142824239002,808
Sh4,36.57838089022936,-87.41136724278483,809
Sh4,36.57836489093452,-87.41115324261529,810
Sh4,36.57836289025978,-87.41092424265641,811
Sh4,36.5784518908273,-87.41038824266555,812
Sh4,36.57851489102245,-87.41004224196233,813
Sh4,36.57856389030214,-87.40997124222531,814
Sh4,36.57862089097498,-87.40959924246955,815
Sh4,36.57866789037193,-87.40934924273883,816
Sh4,36.57869589058907,-87.40922924188614,817
Sh4,36.58119189150451,-87.41037724273812,818
Sh4,36.58173089098005,-87.41062824315164,819
Sh4,36.58186689097343,-87.41060124279737,820
Sh4,36.58324989136912,-87.4112362432072,821
Sh4,36.58354089140133,-87.411295243513,822
Sh4,36.58365289170363,-87.41132524324286,823
Sh4,36.58378889203082,-87.41136524334053,824
Sh4,36.58396889139449,-87.41139724265896,825
Sh4,36.5841638914084,-87.41138724316051,826
Sh4,36.58433789137577,-87.41132324273822,827
Sh4,36.58450789209858,-87.41119024347968,828
Sh4,36.58458589186083,-87.41109824279448,829
Sh4,36.58466789222887,-87.41098824271218,830
Sh4,36.58474989143863,-87.41085624256483,831
Sh4,36.58483589140352,-87.41070924331561,832
Sh4,36.58490789193305,-87.41058324356813,833
Sh4,36.58498789224883,-87.41044624302488,834
Sh4,36.58513289233899,-87.41017824328942,835
Sh4,36.58526089234302,-87.40993824257521,836
Sh4,36.58538589171338,-87.40970724250072,837
Sh4,36.58550789238623,-87.40944124311976,838
Sh4,36.58560489216119,-87.40921124238192,839
Sh4,36.58582789238653,-87.40860224286529,840
Sh4,36.5859958921308,-87.40811924209154,841
Sh4,36.58605789232716,-87.40795724285341,842
Sh4,36.58610589260371,-87.40786324259501,843
Sh4,36.5862558921173,-87.40758724182744,844
Sh4,36.58634389272397,-87.40732924260689,845
Sh4,36.58656089276484,-87.4066672416284,846
Sh4,36.58663689206985,-87.40641124144358,847
Sh4,36.58685089216959,-87.40559124133199,848
Sh4,36.58689889230415,-87.40536224140182,849
Sh4,36.5869408929253,-87.40516824206058,850
Sh4,36.58705389247034,-87.40440424154798,851
Sh4,36.58706452118226,-87.40401656157989,852
Sh4,36.5871117657417,-87.40352749947886,853
Sh4,36.5871079816207,-87.40313550969177,854
Sh4,36.58710556693554,-87.40262493722818,855
Sh4,36.58708502879065,-87.40224296339231,856
Sh4,36.58704453400185,-87.40178843963777,857
Sh4,36.58699637780078,-87.40127705443123,858
Sh4,36.58677367473781,-87.39895251893793,859
Sh4,36.58641211790138,-87.39528775338651,860
Sh4,36.58608489283265,-87.39536423930596,861
Sh4,36.58601489323714,-87.39396623834243,862
Sh4,36.58580689280647,-87.3917592378383,863
Sh4,36.58576189256005,-87.39153923730264,864
Sh4,36.58564089272786,-87.39124523808059,865
Sh4,36.58559789265,-87.39111623711146,866
Sh4,36.58216189178557,-87.3916562378313,867
Sh4,36.58172589247364,-87.39170423729851,868
Sh4,36.58131289243169,-87.39171423693044,869
Sh4,36.58095789203912,-87.39169423730024,870
Sh4,36.58052589206839,-87.39163623782515,871
Sh4,36.58012889191619,-87.3915442375735,872
Sh4,36.57970889156193,-87.39140723713564,873
Sh4,36.57918689137487,-87.39118723668035,874
Sh4,36.57893789146493,-87.39105523693171,875
Sh4,36.57843789184512,-87.39074323640577,876
Sh4,36.57658689092504,-87.38954423612438,877
Sh4,36.57432289060073,-87.38808023587515,878
Sh4,36.57334789074525,-87.38744923539842,879
Sh4,36.57203789040888,-87.38660023517228,880
Sh4,36.57190489062038,-87.38651823581618,881
Sh4,36.57162489016273,-87.38636523532206,882
Sh4,36.57130689065267,-87.38623323499799,883
Sh4,36.57100389059514,-87.38614423511922,884
Sh4,36.57076922304253,-87.38609537514289,885
Sh4,36.56967914900449,-87.38602987103138,886
Sh4,36.56945389032646,-87.38602223444676,887
Sh4,36.56945689016325,-87.38571023448021,888
Sh4,36.56936288997418,-87.384358234646,889
Sh4,36.56932789033915,-87.38371323407316,890
Sh4,36.56938488990825,-87.38300223410272,891
Sh4,36.56941688990997,-87.38250623398443,892
Sh4,36.56945289003843,-87.38206823337013,893
Sh4,36.56947788979571,-87.38160423340999,894
Sh4,36.56946088976058,-87.38136423370088,895
Sh4,36.56939289045165,-87.38106923303414,896
Sh4,36.56929389015356,-87.38080523298555,897
Sh4,36.56914588976139,-87.38049623284188,898
Sh4,36.56904889014277,-87.38023323353038,899
Sh4,36.56896889019352,-87.37994323314639,900
Sh4,36.56892788969184,-87.37970123276934,901
Sh4,36.56871689017698,-87.37760923213997,902
Sh4,36.56803789004648,-87.37773023212998,903
Sh4,36.56746388978933,-87.37792723226886,904
Sh4,36.56716190585954,-87.37813918260635,905
Sh4,36.56676288969627,-87.37841923303024,906
Sh4,36.56641688959599,-87.37865923220757,907
Sh4,36.56581388958281,-87.37906423264683,908
Sh4,36.56525988948734,-87.37929423278771,909
Sh4,36.56489351479571,-87.37938883535087,910
Sh4,36.56437688910645,-87.37952223306795,911
Sh4,36.56414288902186,-87.37965723318349,912
Sh4,36.56402988959515,-87.37978323255095,913
Sh4,36.56385188919114,-87.38031823286192,914
Sh4,36.56387588863032,-87.3809482331592,915
Sh4,36.56414488918168,-87.38334123381944,916
Sh4,36.56417288881278,-87.38372023413028,917
Sh4,36.56416088895612,-87.38390923447875,918
Sh4,36.56317188900435,-87.38393723403968,919
Sh4,36.56274088849462,-87.38393123347497,920
Sh4,36.56250688836527,-87.38390123335717,921
Sh4,36.56221288905035,-87.38383323395755,922
Sh4,36.56177788832394,-87.38366823370832,923
Sh4,36.56144888843838,-87.38348723423368,924
Sh4,36.56117488850153,-87.3832892341246,925
Sh4,36.56003388820218,-87.38228723312366,926
Sh4,36.55955888797521,-87.38191723262963,927
Sh4,36.55902588844674,-87.3816312326553,928
Sh4,36.55850208191457,-87.38145693568318,929
Sh4,36.5578808879546,-87.38131723267463,930
Sh4,36.55738888756915,-87.38123623286195,931
Sh4,36.55684288790148,-87.38119023255673,932
Sh4,36.55607888721379,-87.38119423294101,933
Sh4,36.55542288757503,-87.38126023272756,934
Sh4,36.55459788755501,-87.38143423214854,935
Sh4,36.55385588721687,-87.38167223221386,936
Sh4,36.55280188671277,-87.38207723307215,937
Sh4,36.55218688634673,-87.38227223291401,938
Sh4,36.55136520032094,-87.38246740526616,939
Sh4,36.55090088648267,-87.38253823259352,940
Sh4,36.55016588656456,-87.38265523247112,941
Sh4,36.54988588618835,-87.3814342326074,942
Sh4,36.5494758859172,-87.38039923201193,943
Sh4,36.54911588652271,-87.37974723126392,944
Sh4,36.54873588641718,-87.37917323108904,945
Sh4,36.54837288622993,-87.37862323182635,946
Sh4,36.54810188566515,-87.37821223108132,947
Sh4,36.54792088633794,-87.37793523069925,948
Sh4,36.54731788604022,-87.37700723074498,949
Sh4,36.54691488567897,-87.3763842302054,950
Sh4,36.54649388592563,-87.37573523079607,951
Sh4,36.54616688555191,-87.37522823069082,952
Sh4,36.54589888542679,-87.37481022981184,953
Sh4,36.54548588596413,-87.37422323026173,954
Sh4,36.54487588594185,-87.37342722936577,955
Sh4,36.54444488541449,-87.37290222930368,956
Sh4,36.54418088563454,-87.37258522917654,957
Sh4,36.54374288584463,-87.37200122971987,958
Sh4,36.54317088584774,-87.37109622885618,959
Sh4,36.54289288538506,-87.37058322897214,960
Sh4,36.5424858853095,-87.36973622804216,961
Sh4,36.541808885534,-87.36826922766076,962
Sh4,36.54119788521033,-87.36701122748661,963
Sh4,36.5410778853963,-87.36692622706376,964
Sh4,36.54099588526031,-87.36677222762188,965
Sh4,36.54052488483816,-87.36577022741278,966
Sh4,36.54041088513509,-87.36554422675587,967
Sh4,36.54053188480076,-87.36544422709362,968
Sh4,36.54081388530704,-87.3651872275199,969
Sh4,36.54090288561252,-87.36509222662623,970
Sh4,36.54100888546406,-87.36495022734218,971
Sh4,36.54110788512266,-87.36471022668883,972
Sh4,36.54118488541508,-87.36446022695535,973
Sh4,36.54130588504227,-87.36403622664675,974
Sh4,36.54185388562939,-87.36210922569366,975
Sh4,36.54192790132211,-87.36182431813838,976
Sh4,36.54201988525414,-87.36146722578928,977
Sh4,36.54204888553124,-87.36127622550571,978
Sh4,36.54205788567806,-87.36114922643255,979
Sh4,36.54205888527603,-87.36098322580828,980
Sh4,36.54205488572292,-87.36088122599011,981
Sh4,36.54204388605962,-87.36077322636656,982
Sh4,36.54202888549504,-87.36066822586825,983
Sh4,36.54200788587048,-87.36055322549538,984
Sh4,36.54197588603292,-87.36041322561096,985
Sh4,36.54185888545626,-87.36004722610048,986
Sh4,36.54180588606138,-87.35985222585717,987
Sh4,36.54175388526011,-87.3596972256446,988
Sh4,36.54171588523653,-87.35957722567231,989
Sh4,36.54168388568454,-87.35945422536081,990
Sh4,36.54165788525136,-87.35935222489587,991
Sh4,36.5416348854339,-87.3592442249963,992
Sh4,36.54161188606705,-87.35910722588216,993
Sh4,36.54159588588538,-87.35888822567441,994
Sh4,36.54160288530644,-87.35864822558939,995
Sh4,36.54161588604938,-87.35853022510725,996
Sh4,36.54174288609398,-87.35756922457388,997
Sh4,36.54176169502146,-87.35742955805563,998
Sh4,36.5417898857203,-87.35722022441867,999
Sh4,36.54180288556542,-87.35691322451937,1000
Sh4,36.54179688586363,-87.35662622503295,1001
Sh4,36.54175888559119,-87.35634522411831,1002
Sh4,36.5417328856124,-87.35622022397871,1003
Sh4,36.54170088623752,-87.35610222413436,1004
Sh4,36.54165788621686,-87.35597022438766,1005
Sh4,36.54157288596621,-87.35574622383622,1006
Sh4,36.54146207112324,-87.35551770084814,1007
Sh4,36.54135844494987,-87.35530400376706,1008
Sh4,36.5411708856423,-87.35491722385791,1009
Sh4,36.54113288615842,-87.35484822379624,1010
Sh4,36.54087488544887,-87.35433122363872,1011
Sh4,36.54078788548416,-87.3540932244137,1012
Sh4,36.54076488575961,-87.3539742241326,1013
Sh4,36.54076588539847,-87.35377222359773,1014
Sh4,36.54079588535715,-87.35357422370741,1015
Sh4,36.5408598855515,-87.35338822393172,1016
Sh4,36.54094888537034,-87.35323322380376,1017
Sh4,36.5411107571075,-87.35298470024898,1018
Sh4,36.54135488566388,-87.35263722313508,1019
Sh4,36.5415358856454,-87.35234422310805,1020
Sh4,36.54161468386388,-87.35218796187901,1021
Sh4,36.54172188574216,-87.35193222316535,1022
Sh4,36.54183688618663,-87.35157622300937,1023
Sh4,36.54192288640417,-87.3511452229675,1024
Sh4,36.54195188599742,-87.35082822259865,1025
Sh4,36.54195188572447,-87.35056922291852,1026
Sh4,36.54194688580586,-87.35040622268211,1027
Sh4,36.54181188607917,-87.34866522242314,1028
Sh4,36.54154088643147,-87.34546122099846,1029
Sh4,36.54150988607804,-87.3451612209924,1030
Sh4,36.54144588626117,-87.34476522164637,1031
Sh4,36.54136888611873,-87.34442222089318,1032
Sh4,36.5412628859248,-87.34405822067762,1033
Sh4,36.54113488640546,-87.34370622071762,1034
Sh4,36.54106588619565,-87.34355122055727,1035
Sh4,36.54091888625609,-87.34324922096961,1036
Sh4,36.5407048864946,-87.34285322076495,1037
Sh4,36.54062388630554,-87.34270922012141,1038
Sh4,36.53999788586934,-87.34160621977793,1039
Sh4,36.53982688640728,-87.3412742198073,1040
Sh4,36.53970788622596,-87.34101621984125,1041
Sh4,36.53957188625446,-87.34067422012303,1042
Sh4,36.53939188617568,-87.34009221932834,1043
Sh4,36.53892888636294,-87.33838221871881,1044
Sh4,36.53876188602673,-87.33801221914091,1045
Sh4,36.53871788634702,-87.33793621919803,1046
Sh4,36.5386488862213,-87.33785921952038,1047
Sh4,36.53854088606264,-87.337794219503,1048
Sh4,36.53845788605529,-87.33778121868691,1049
Sh4,36.53833388631897,-87.33776321916511,1050
Sh4,36.53813488596922,-87.33781021947695,1051
Sh4,36.53786088609694,-87.33790021908978,1052
Sh4,36.53768488615657,-87.33796521930429,1053
Sh4,36.53760988553901,-87.33795121930869,1054
Sh4,36.53741288542063,-87.33804921879934,1055
Sh4,36.53731188561267,-87.33810521908319,1056
Sh4,36.537215886199,-87.33816721961978,1057
Sh4,36.53707288604131,-87.33826421899781,1058
Sh4,36.53693188587541,-87.33838021950264,1059
Sh4,36.53678885517376,-87.33851454330338,1060
Sh4,36.53658588567128,-87.33871121972229,1061
Sh4,36.53648088524601,-87.33882621974537,1062
Sh4,36.53638688586418,-87.33892921964066,1063
Sh4,36.53619688517314,-87.33915121949423,1064
Sh4,36.53604088523323,-87.3393532194083,1065
Sh4,36.53596288533406,-87.33945721985114,1066
Sh4,36.53576788553698,-87.33976021925176,1067
Sh4,36.53564388511835,-87.3399882200283,1068
Sh4,36.53548956013299,-87.34030219300482,1069
Sh4,36.53535388573229,-87.34057821911773,1070
Sh4,36.53515988542792,-87.34096921935253,1071
Sh4,36.53493788530129,-87.34144221956312,1072
Sh4,36.53467388526249,-87.34199921977218,1073
Sh4,36.53434229604491,-87.34268033149162,1074
Sh4,36.53385988482573,-87.34367121994387,1075
Sh4,36.53358388478972,-87.34432022069208,1076
Sh4,36.53345288473891,-87.3446572204584,1077
Sh4,36.53324788464094,-87.3452572209028,1078
Sh4,36.53313688418167,-87.34561122134006,1079
Sh4,36.53299188465739,-87.34622222114766,1080
Sh4,36.53269488462755,-87.34771622129377,1081
Sh4,36.53239188439243,-87.34915022231866,1082
Sh4,36.53232688410581,-87.34946422235339,1083
Sh4,36.53224888457908,-87.34982422215406,1084
Sh4,36.53175088426568,-87.35207722256824,1085
Sh4,36.53137988429842,-87.35374222267966,1086
Sh4,36.53135488360044,-87.35386322347495,1087
Sh4,36.53115888421333,-87.35479322381148,1088
Sh4,36.53092388408516,-87.35602422352498,1089
Sh4,36.53075188341852,-87.35681322416924,1090
Sh4,36.53071988361872,-87.35694822358092,1091
Sh4,36.53034388313351,-87.35867722412658,1092
Sh4,36.53013288362079,-87.35957522432034,1093
Sh4,36.52883788307842,-87.35915122406649,1094
Sh4,36.52813888271174,-87.35890922476446,1095
Sh4,36.52817290217519,-87.35875411284047,1096
Sh4,36.52799552117705,-87.35869890522309,1097
