-87.35867116668062,36.52798550929926
-87.358683382086,36.52805154193558
-87.35868736165678,36.52806589157149
-87.35868835288943,36.52808057446904
-87.35868632860914,36.52809518810713
-87.35868134430777,36.52810933186274
-87.35867353662488,36.52812261799436
-87.35866311960267,36.52813468227129
-87.35865037881506,36.5281451939593
-87.35863566354189,36.52815386488696
-87.35861937719315,36.52816045734632
-87.35860196624888,36.52816479060907
-87.35832998963367,36.52823376653949
-87.35829743798709,36.52824477977175
-87.35826726272148,36.5282595575653
-87.35825242200096,36.52826845728709
-87.35823618831103,36.52827559949233
-87.35821887899589,36.52828084456126
-87.35811912083686,36.52830413765125
-87.35810661427831,36.52830667525396
-87.35809478741373,36.52831082401573
-87.35808395652546,36.52831647298739
-87.3580744112618,36.52832347110015
-87.3580664068884,36.52833163120549
-87.3580601574654,36.52834073507983
-87.35805583011954,36.52835053926073
-87.35805354057679,36.52836078155745
-87.35805335006653,36.52837118806295
-87.35805526368452,36.52838148047837
-87.35805482791143,36.52838289840244
-87.35809330911285,36.52855891939571
-87.35816204432678,36.52877613130443
-87.3581963420379,36.5288806645252
-87.35821843438917,36.52896268183149
-87.35822313804151,36.52897622088667
-87.35823058681554,36.52898893220354
-87.35824056998597,36.52900045617817
-87.35825280513359,36.52901046679633
-87.35826694612118,36.52901868085662
-87.35828259289973,36.52902486598246
-87.35829930282371,36.52902884719605
-87.35831660316411,36.52903051186836
-87.35833400449263,36.52902981290564
-87.35835101452609,36.52902677008152
-87.35871162771714,36.52895000308179
-87.35889709327445,36.52891096523988
-87.35904875189499,36.52888184396659
-87.35906549070081,36.52887638231791
-87.35908087197331,36.52886875142823
-87.35909446787501,36.52885916355467
-87.35910590022954,36.52884788538883
-87.35911485103964,36.52883523063861
-87.35912107134048,36.52882155130182
-87.35912438810782,36.52880722787584
-87.35912438810782,36.52880722787584
-87.35907447885684,36.52863052372049
-87.3590417391241,36.52853074223769
-87.35899941483271,36.52840305694947
-87.35886232611759,36.52800644223206
-87.35875520590652,36.52770481277835
-87.35874657225352,36.52768672352925
-87.35873421966534,36.52767009870225
-87.35871851477654,36.52765543172905
-87.35869992371352,36.5276431579311
-87.35867899826813,36.52763364159948
-87.35865635951596,36.52762716518233
-87.35863267938362,36.52762392090205
-87.35836924477789,36.52768171551684
-87.35807776780833,36.52774101587703
-87.35796155837146,36.52776973897478
-87.3576730142286,36.52782781326469
-87.35734348309603,36.52790780605575
-87.35695052319242,36.52799327674578
-87.356656151479,36.52805618278058
-87.35624265565514,36.52815022661623
-87.35591295801561,36.52822067939832
-87.35558473677168,36.52829111477041
-87.35532423122386,36.52834767771775
-87.35503580573668,36.52841289780398
-87.35470610592459,36.52848334729791
-87.35439851946694,36.52855116440635
-87.35406887981854,36.52862518820632
-87.35379512003023,36.52868428032954
-87.35353758631679,36.5287419984643
-87.35326673886287,36.52879867238985
-87.35306807994874,36.52884381002472
-87.35270315326683,36.52892776176073
-87.35243966915068,36.52898315943686
-87.35216155753999,36.52904706534167
-87.35189220545639,36.52910491173473
-87.3515993841676,36.52917255705779
-87.35134921186973,36.52922899620332
-87.35104303545687,36.52929321227826
-87.35065880156145,36.52937141170941
-87.35047187422896,36.52941164540864
-87.35030263001858,36.52944929742152
-87.35017751244564,36.52947572769678
-87.34998765098217,36.52951718555433
-87.34977860858542,36.52956004886437
-87.34955192332789,36.52960787713273
-87.34943267255693,36.52963185685544
-87.34931048805966,36.52965706134604
-87.34915742880126,36.52969095492318
-87.34888364128622,36.52974884392009
-87.34870850790196,36.52978775143856
-87.34853189733144,36.52982667512946
-87.34830666721727,36.52987329262481
-87.34814769904963,36.52990725061733
-87.34797104724551,36.52994378946058
-87.34777082404155,36.52998416675861
-87.34760590667146,36.53001580567671
-87.34737911711009,36.53005766980215
-87.347246592171,36.53008298709185
-87.34713468441301,36.53010449846965
-87.34691384308569,36.53014868011706
-87.34675778715173,36.53018021944222
-87.34661650130246,36.53021159454107
-87.3464355999389,36.53025890848316
-87.34630331819595,36.53029852891628
-87.34603222244382,36.53042791594278
-87.34585627945164,36.53050617221135
-87.34573170711762,36.53056478228488
-87.34558069024055,36.53063203135432
-87.34542528262833,36.53070171342759
-87.34524786139301,36.53077998519335
-87.34510271121968,36.53084478408896
-87.34496927558888,36.53090349167638
-87.34481380600933,36.53096959691496
-87.34465689972609,36.53103810236066
-87.34448374574913,36.53110678774533
-87.34436936868926,36.53115693766702
-87.34430195242092,36.53118868328866
-87.34418933620007,36.53125550486912
-87.34402854539042,36.53135624300705
-87.34378738883,36.53150913782883
-87.34358408706991,36.53162942226847
-87.34342187850508,36.53173375199683
-87.34319824152313,36.5318745291151
-87.34305938102513,36.53196190836899
-87.34291315521186,36.53205056126306
-87.34277573061476,36.53213553979988
-87.34265006140076,36.53221681130138
-87.34250383465543,36.53230546369328
-87.34236214007191,36.53240002692569
-87.34214072375571,36.5325378206823
-87.34194083652643,36.53266807927446
-87.34176371146049,36.5327816327769
-87.34164717777009,36.53286160987499
-87.34145158650014,36.5329839513243
-87.34128226617823,36.53308740295583
-87.3410997974521,36.53319958386863
-87.34092086105974,36.53331101009398
-87.34075067737629,36.5334159011873
-87.34054805403871,36.53354189558525
-87.34041993602919,36.53361842280138
-87.34031819900046,36.53368249747274
-87.34020589959107,36.53375098084504
-87.34004273123038,36.53385150131879
-87.33983738620968,36.53397394784672
-87.33976448218098,36.53401338181794
-87.33958101372021,36.53411913332155
-87.33948529721035,36.53417241062436
-87.33946596936299,36.5341826389085
-87.33944636073895,36.53419356445995
-87.33942921910391,36.53420692152503
-87.33941500226868,36.53422235336597
-87.33940408993735,36.5342394478322
-87.33939677355598,36.53425774836766
-87.33939324853462,36.53427676620451
-87.33939360901888,36.53429599341721
-87.33939784538489,36.5343149164876
-87.33940584448895,36.53433303002033
-87.3394173926998,36.53434985024065
-87.33959273676717,36.53449670461695
-87.33981759038873,36.53468807831126
-87.33999400424639,36.53484565042006
-87.3400452131192,36.53488585906801
-87.34022964069524,36.53504548830469
-87.34033763150957,36.53514086596955
-87.3404689690915,36.53525386902656
-87.34047712068234,36.53526549835042
-87.340482719904,36.53527807203005
-87.34048560571218,36.53529122843064
-87.34048569510682,36.53530458915726
-87.34048298551511,36.53531776993822
-87.34047755486819,36.53533039167715
-87.34046955935607,36.53534209135624
-87.34045922893974,36.53535253247715
-87.34044686073493,36.53536141473928
-87.34032287971435,36.53542072782516
-87.34020859895648,36.5354770722094
-87.34009084576067,36.53553774690831
-87.33997662534412,36.53559766711156
-87.33986777093884,36.53566038928457
-87.3397580907512,36.53572669718987
-87.33965112987207,36.53579655166234
-87.33954418093246,36.53586712124669
-87.33943814234362,36.53593911136154
-87.33933564867421,36.53601106222854
-87.33923496376212,36.53608513905559
-87.33913521345426,36.53616206684179
-87.3390372718943,36.53624112059533
-87.33894729454934,36.53631937099033
-87.33885473093244,36.53640194191801
-87.33876572438055,36.53648518884376
-87.33867239532955,36.53657492149004
-87.33858868185901,36.53665667916367
-87.33850067012628,36.53674635297445
-87.33841880160244,36.53683238220794
-87.3383431490424,36.53691905812379
-87.33826233613752,36.53701509037401
-87.33818863760335,36.53711247474305
-87.33812802724962,36.53719755384
-87.33806586230864,36.53729552620134
-87.3380012322143,36.53740497118638
-87.33794620578566,36.53750572608062
-87.33789295180988,36.53760646139039
-87.33784422611612,36.53771286944711
-87.33779902125932,36.5378178079563
-87.3377557342678,36.53793130938214
-87.33772018156063,36.53803041864781
-87.33768563621655,36.53813667019844
-87.33765558287232,36.53824644889242
-87.33763255931262,36.53835257333008
-87.33760959626082,36.53846227379648
-87.33758503013213,36.53858200670897
-87.33750002525109,36.53900642610051
-87.33745100126011,36.53925232868627
-87.33740855877782,36.53946811433277
-87.33736362667425,36.53969394216843
-87.33732119582503,36.53991044295488
-87.33727951784297,36.54011906665776
-87.33723456077755,36.54034346397537
-87.33719296711311,36.54055709406241
-87.33715065643706,36.54078074678639
-87.33711153966829,36.54098361939032
-87.33706826953733,36.54120299058043
-87.3370283507745,36.54141087934346
-87.33698508017967,36.54163025046788
-87.33695077205452,36.54180302564956
-87.33690994211354,36.54200949368354
-87.33688605432499,36.54211705801009
-87.33685699367602,36.54223326342692
-87.33683136937064,36.54234299289323
-87.33679869050741,36.54245494612729
-87.33676836792303,36.54254898987842
-87.33673034655206,36.54265957128944
-87.33669389196794,36.54275797463752
-87.33665139018538,36.54286574403449
-87.33661560385615,36.54295126386862
-87.33656950800808,36.54305621147734
-87.33652082559004,36.54316547960514
-87.33647288414264,36.54326615546641
-87.33642411673216,36.54337041710301
-87.3363770371907,36.54346965273899
-87.33632914378825,36.54357318935641
-87.33628296247457,36.54367313038797
-87.33623335660671,36.5437802625221
-87.33618458856248,36.54388452404184
-87.33613926904795,36.54398302482929
-87.3360912782113,36.54408083968374
-87.33603994748874,36.54419085207538
-87.3359989263719,36.54428143671131
-87.33594757118878,36.54439001864343
-87.33590057514074,36.54449426049735
-87.33584925598463,36.5446049879967
-87.33580477361828,36.54470061804538
-87.33575340580063,36.54480848467182
-87.3357097611913,36.54490124409242
-87.33566271613252,36.54500262501033
-87.33561392238542,36.5451054558399
-87.33556166766003,36.54521333212938
-87.33550754325391,36.54531550626623
-87.33544982478585,36.54541485859136
-87.33538852434359,36.54551210430592
-87.33532183286026,36.54560511730534
-87.33525238530601,36.54569243789437
-87.33517151129053,36.54578560693907
-87.33509924703419,36.5458636590341
-87.33501639431786,36.5459446889876
-87.33492648657224,36.54602794254781
-87.33483028925716,36.54610625788683
-87.33473840282267,36.54617737231757
-87.33464040817351,36.5462542765996
-87.33454676069371,36.54632612559463
-87.33444785510369,36.54640160905885
-87.33425354060546,36.54654967591193
-87.33405571603011,36.5466999270608
-87.33386050158224,36.54684728781134
-87.33366880785214,36.54699317884094
-87.33347276594364,36.54714412472506
-87.33327669913101,36.54729363987262
-87.33307366106112,36.54745038468957
-87.33284961395452,36.54762309745958
-87.33255467177116,36.54785023906678
-87.33225445766935,36.54808029917762
-87.33193059809437,36.54832778627758
-87.33170568370328,36.54850193702087
-87.33141424445665,36.54872689123216
-87.33119631066131,36.54889452631393
-87.33099940904727,36.54904762343416
-87.33091100117103,36.54911511994924
-87.33071321202577,36.5492682263186
-87.33052063222699,36.54941483716686
-87.33032195514156,36.54956795260438
-87.33012766125867,36.54971815828205
-87.32993071937929,36.54986910800365
-87.32973026713341,36.55002224188421
-87.32953946859153,36.55016954690093
-87.32933990126394,36.55032267040198
-87.32914120756499,36.55047506864683
-87.32894777157378,36.55062383225828
-87.32875082517946,36.55077478001131
-87.32865279492319,36.55085024890956
-87.32855384192763,36.55092358182106
-87.32845408653722,36.55100193079291
-87.32835603165043,36.55107596903486
-87.32825626383783,36.55115360263451
-87.3280567035645,36.55130743917096
-87.32795340138219,36.55138582654282
-87.32783522173455,36.55147582207488
-87.32774073555052,36.55155125139854
-87.32763042527648,36.55163472254977
-87.32753324326254,36.55170803520098
-87.32743167687984,36.55178425709789
-87.32722941796247,36.55193597572534
-87.32703151844679,36.55208335428634
-87.32683008436146,36.55223148650834
-87.32662430132197,36.5523846732974
-87.32638961254719,36.55255892055889
-87.32607611360261,36.55279197118185
-87.32597801822894,36.55286386183623
-87.32586594332753,36.55294806592642
-87.32576522418381,36.55302213108777
-87.3255594250094,36.55317460081884
-87.32536850301739,36.55331546225396
-87.32516356478007,36.55346649120088
-87.32496128519411,36.553617490743
-87.32475755136824,36.55376993648436
-87.32456136361142,36.55391419232785
-87.32422153526561,36.55416397814334
-87.32405222726872,36.55428981783999
-87.3238584008961,36.55443404671328
-87.32365869586687,36.55458024697202
-87.32346018806729,36.55472738760322
-87.3233620998974,36.55479999129257
-87.32326172747848,36.55487738871858
-87.32305852218475,36.55502648746459
-87.32285534808163,36.55517749307303
-87.32275345325675,36.55525228376436
-87.32264834369236,36.55532925542398
-87.32255638763118,36.55539749955498
-87.32244909896977,36.55547673617517
-87.32224592254111,36.5556277407365
-87.32204187080863,36.55577946981487
-87.32183869282214,36.55593047367636
-87.32164253427104,36.55607710869229
-87.32154269368196,36.55615116059872
-87.32144116368332,36.55623023816506
-87.32134397026519,36.55630354572701
-87.32124587818889,36.55637614766083
-87.32114603685058,36.55645019923225
-87.32104444623481,36.55652570043684
-87.32094372996866,36.55660047669618
-87.32084388806312,36.55667452801242
-87.32074490855318,36.55674713918384
-87.32064770189005,36.55681973096915
-87.32054347470171,36.55689669110643
-87.32044625570762,36.55696856752203
-87.32033852990118,36.5570484268958
-87.3202430476898,36.55711813823327
-87.32013970623162,36.55719508836607
-87.32004249846065,36.55726767965375
-87.31993913269702,36.55734319920325
-87.31984103803811,36.55741579997176
-87.3197411940654,36.55748985035706
-87.31954063098796,36.55763867572226
-87.31934094172794,36.55778677590127
-87.31914037714211,36.55793560058755
-87.31893891332278,36.55808371936897
-87.31873834722461,36.55823254337344
-87.31853689383682,36.55838137667392
-87.31833982458949,36.55852730064198
-87.31813749510587,36.5586768581008
-87.31796146248708,36.55880824616007
-87.31775908381523,36.55895494215636
-87.31756377284319,36.55910013036633
-87.31736496272112,36.55924821757932
-87.31706541632255,36.55947036221014
-87.31686045815719,36.55962209197167
-87.31666338271225,36.55976801314591
-87.31647507662999,36.55990811615109
-87.31626837886407,36.56006200973955
-87.3160677907839,36.56021011401069
-87.31586986161557,36.56035818909123
-87.31566927203546,36.56050629268629
-87.31546869361785,36.56065511114468
-87.31527603390951,36.56080026673376
-87.31506762982856,36.56095846866852
-87.31486810245742,36.56111728934499
-87.31467775531104,36.56127720240648
-87.3144864493741,36.5614328335455
-87.31429987104973,36.56158841314539
-87.31410977745469,36.56174593807351
-87.31390449042713,36.56191411878515
-87.31371201519221,36.56207071507193
-87.31351714325841,36.56222542943381
-87.31331399583489,36.56238023305561
-87.31312132795314,36.56252538512523
-87.31302322058615,36.56259798023412
-87.31284106375369,36.56273538786061
-87.31265884286623,36.56286898078921
-87.31231658994207,36.56311971156882
-87.31201758193681,36.56334040660021
-87.31179802162724,36.56350396903888
-87.31161578135546,36.56363660675667
-87.31141141276439,36.56378951268006
-87.31110305352499,36.5640169828584
-87.31089398610553,36.56417184619873
-87.31059263753062,36.56439447038299
-87.31031114617964,36.5646025726838
-87.31019670528107,36.56468869465542
-87.30999229956973,36.56483969091783
-87.30979255836142,36.56498682135921
-87.30959049957899,36.56513683779699
-87.30939427167893,36.56528202207464
-87.30909059777855,36.56550752876092
-87.30879272224672,36.56572629567472
-87.30850772234626,36.56593729275367
-87.30832205088584,36.56607759247807
-87.3081258025145,36.56622182104711
-87.30791089158888,36.56638151086519
-87.30770764349194,36.56653153683011
-87.3075043946223,36.56668156244564
-87.3072275840822,36.56688769923561
-87.3070278167522,36.56703387140399
-87.30682574747512,36.56718388311702
-87.30662832722369,36.56732907553892
-87.30641919490972,36.56748107015742
-87.30622180472759,36.56762816910753
-87.30602564332628,36.56777811581141
-87.30583312239173,36.56793374563551
-87.3056418775227,36.56809508404125
-87.30546012095508,36.56825822757521
-87.30528433768821,36.56842512164333
-87.30520060711433,36.56850995446838
-87.305115757228,36.56859861436271
-87.30503445374731,36.56868723604455
-87.30495546719533,36.56877297142773
-87.30487775725426,36.56886441565965
-87.30479999984485,36.56895299902956
-87.30471997241978,36.56904732939172
-87.30464933941197,36.56913774358241
-87.3045764521451,36.56923485837395
-87.3045058975996,36.56933004048901
-87.30444237311471,36.56942133188247
-87.30437657860406,36.56951837027719
-87.30431198190148,36.56961634952569
-87.30418075443839,36.56983235898301
-87.30411981417086,36.56993697521087
-87.30400958208278,36.57013559086603
-87.30395693670404,36.57023236844265
-87.30390627728539,36.57033305895676
-87.30385480195204,36.57043805018621
-87.30382539970303,36.57049053376646
-87.30379067527626,36.5705408574342
-87.30375087043154,36.57058867080979
-87.30372363546918,36.57063290728735
-87.30370098767249,36.57067879566259
-87.30368307948565,36.57072602707343
-87.3036379638645,36.5708402491248
-87.30356162378335,36.57105066068977
-87.30348987022215,36.57127032218068
-87.30345314213673,36.57135842977323
-87.30340898507366,36.57144429012348
-87.30335760832358,36.57152749624644
-87.30329925538835,36.57160765373716
-87.30323420284793,36.57168438264046
-87.30317606116066,36.57172883211219
-87.30311341804104,36.57176910641869
-87.30304673283791,36.57180491023669
-87.30297649453134,36.57183598102384
-87.30290321816406,36.57186209094384
-87.30282744105476,36.57188304853717
-87.3027497188673,36.57189870012535
-87.30231301138394,36.57192937876711
-87.30191607470796,36.57195176046155
-87.30150613306483,36.57197428036343
-87.30115055895395,36.57199526206244
-87.30093553095752,36.57200615184485
-87.3008101810417,36.57200558831212
-87.30066589941551,36.5720042738351
-87.30053221091076,36.57199998432414
-87.3004150739164,36.57199551726341
-87.30037729672813,36.57199399732325
-87.30033972512891,36.57199751706335
-87.30030183392566,36.57200202164224
-87.30026354070172,36.57200262552705
-87.30015528237277,36.5719987783904
-87.30002571999738,36.57199372877751
-87.2998721346419,36.57198392911003
-87.29972739264177,36.57197260385716
-87.29958609145639,36.57195480362362
-87.29945909506172,36.57194400329693
-87.29932323183317,36.5719332977956
-87.29919001693209,36.57192184845562
-87.29905681383882,36.57191111417136
-87.29901462229323,36.57191022563287
-87.29897254003106,36.57191282973456
-87.29893101026796,36.5719188990496
-87.29888599738254,36.57192383703167
-87.29884057900354,36.57192456276238
-87.29879535897661,36.57192106659289
-87.2986523788524,36.57190900587151
-87.29838506267754,36.57188611506098
-87.29811953178924,36.57186391988942
-87.29785664935265,36.5718409804792
-87.29758665006766,36.57181668596002
-87.29745520898354,36.57180521574867
-87.29719320186656,36.57178155021622
-87.2970582141599,36.57177011749555
-87.29679267228715,36.57174720421698
-87.29665235283892,36.57173511270604
-87.29638773312387,36.57171433467151
-87.29626163598354,36.5717042367251
-87.2961319803935,36.57169346133529
-87.29599792664453,36.57168487877144
-87.29570935505811,36.57166363978249
-87.29557439124436,36.57165363581519
-87.29506140672284,36.57162978416435
-87.29473483723291,36.57161681705799
-87.29447221462857,36.57160960476764
-87.29429477234099,36.57160505988326
-87.29406407042818,36.57159750617969
-87.29378188230064,36.57158692444251
-87.29357068752617,36.57157916178274
-87.2933825817187,36.57157329860356
-87.29310156156411,36.57155054226691
-87.29289906978373,36.57153267109722
-87.29262727628974,36.57150695403143
-87.29234486620189,36.57148278010013
-87.29207486983988,36.57145847331231
-87.29180394014338,36.57143131455306
-87.29160328084039,36.57141699835241
-87.29134926860091,36.57139395044523
-87.29115741779684,36.57137596311706
-87.29089451561568,36.57135157821255
-87.29069106799959,36.571329421573
-87.29055954687897,36.57131293746879
-87.29043600593948,36.57129636834447
-87.29028846622492,36.57127647768525
-87.29012476762401,36.57124459811031
-87.28999041140402,36.57121741362865
-87.28985332511772,36.5711859660592
-87.28973225759351,36.57115792468842
-87.28956391575559,36.57111321782789
-87.28940620256429,36.57106768245043
-87.28921003534904,36.57100252632511
-87.28907798949783,36.57095385646882
-87.28895748228115,36.57090577921117
-87.2887860376687,36.57083392180319
-87.28866539070383,36.57077726181364
-87.28850807505027,36.57070167730532
-87.28831561914664,36.5705921300321
-87.28816066076077,36.57049792153301
-87.28803873129982,36.57041695340978
-87.28784401333061,36.57027738565582
-87.28770744282349,36.57016867484375
-87.28757888769168,36.57006202479462
-87.28747898618018,36.56997223840014
-87.28738251491423,36.56987526224933
-87.28732572192567,36.56981863867868
-87.28726614073361,36.56975417606224
-87.28720932459058,36.56969612202695
-87.28718691667716,36.56967042772726
-87.2871597518245,36.56964791626997
-87.2871285141445,36.56962915457419
-87.28709399031618,36.56961461512658
-87.28705704977369,36.56960466408204
-87.28701862281037,36.5695995520432
-87.28697967715597,36.56959940774939
-87.28694119359678,36.56960423483435
-87.28690414128573,36.56961391173491
-87.28686945333205,36.56962819475255
-87.28677357659838,36.56967642328682
-87.28668304304352,36.56972602573158
-87.28658370101962,36.56977929815409
-87.28635423968814,36.56990190627433
-87.28613006268695,36.57002231194731
-87.28601493467806,36.57008648114193
-87.28591041154776,36.57014839184157
-87.28579895800269,36.57022039047781
-87.28569463255882,36.57029445945155
-87.28559474027324,36.57036848135621
-87.28550022606611,36.57044602282631
-87.28540407808274,36.5705321654529
-87.28528113007349,36.57066079620822
-87.28520266851484,36.57074388998858
-87.28511916618488,36.57084420495461
-87.28504801891022,36.57094081236124
-87.28498220317437,36.57103807858026
-87.28491823048735,36.57113961720025
-87.28486222612006,36.57124035606816
-87.28481158826629,36.5713438993819
-87.28476628201658,36.57144810153742
-87.28472722900102,36.57155509876199
-87.28469606292703,36.57165628984213
-87.28466684474306,36.57176819018404
-87.28464294660172,36.57188003418317
-87.28462341200567,36.57198754001066
-87.28460474076601,36.5720936060357
-87.28458878774802,36.57220321990556
-87.28456929955257,36.57231358652382
-87.28455156141233,36.57242250395204
-87.28453295980543,36.57253286116708
-87.28451517501352,36.5726389177679
-87.28449747164143,36.57274998078366
-87.28447974494189,36.57285961338584
-87.28446198328089,36.57296710037139
-87.28444425648441,36.57307673295894
-87.28442645981095,36.57318207432107
-87.28440790440085,36.573295292296
-87.28439190431681,36.5734020452763
-87.28437327898108,36.57351097201842
-87.28435729044305,36.57361844018801
-87.28433869992036,36.57372951252432
-87.2843225250987,36.57382553743427
-87.28430318740909,36.57394520157623
-87.28426692762851,36.57416948241842
-87.28423132163344,36.57437944979024
-87.28420734063289,36.57448628716988
-87.28417803925841,36.57459318085092
-87.28414159750604,36.57469728878869
-87.2840972449803,36.57480577238776
-87.28405097927205,36.5749056923034
-87.28399680274391,36.57500998786703
-87.28394159974359,36.57510571035498
-87.28387755262263,36.57520295704879
-87.28381259535219,36.57529878268236
-87.28373872412124,36.57539184128684
-87.28366300947093,36.5754806273909
-87.28358279122114,36.57556516913368
-87.28349547895544,36.57564978586168
-87.28340369795902,36.57573230381416
-87.28330831170123,36.57581128319742
-87.2832101836627,36.57588528422069
-87.2831128375371,36.57595283896365
-87.28300397532006,36.57602123072441
-87.28289149622678,36.57608536867425
-87.28278158417204,36.5761437567746
-87.28266365645744,36.57620008353368
-87.28254387375142,36.57625142250662
-87.28242578302212,36.57629773619925
-87.28230412196683,36.57634265685712
-87.28205550223426,36.57643398442686
-87.28180775705231,36.57652458691378
-87.28155472568957,36.57661739069422
-87.28130610422464,36.57670871671853
-87.28106276782245,36.57679784044935
-87.28081149659167,36.57688990874302
-87.28056728393023,36.57697975603654
-87.28030720207866,36.57707549287765
-87.28018637896595,36.57711754123223
-87.27994127813953,36.57720739661381
-87.27981785236609,36.57725304867321
-87.27968917552595,36.57730304793412
-87.27956938920981,36.57735438394845
-87.27945232096015,36.57740926780345
-87.27933531050759,36.57746772755596
-87.27922635019759,36.57753039426825
-87.27911304867354,36.57759882923996
-87.27900950124264,36.57766716128393
-87.27890606951725,36.57774264526046
-87.27880624255317,36.57782166777472
-87.27871439619554,36.57790060609816
-87.27862615461265,36.57798308298283
-87.27854063104583,36.57806910778006
-87.27846046260106,36.57815722206102
-87.27838305851201,36.57825174507749
-87.27831008804296,36.57834622133002
-87.27824422308329,36.57844133800376
-87.27818109932815,36.57854143302929
-87.2781250579487,36.57864073808933
-87.27807265613821,36.57874572737436
-87.27802643839704,36.57884922084759
-87.27798906505839,36.57895119049671
-87.27795181900119,36.57906102735213
-87.27792169016274,36.57917221988063
-87.27789773390815,36.57928120141669
-87.27787905190625,36.57938726610163
-87.27786577155469,36.57949828115871
-87.27785867543618,36.57960780043371
-87.27785691153775,36.57971797887208
-87.27786142455645,36.57983238314415
-87.27787472432551,36.57994168760869
-87.27789514153476,36.58005234775742
-87.27791821914654,36.58016297987981
-87.27794502923729,36.58028501786146
-87.27794880185093,36.58030252211978
-87.27794909641575,36.58032028726532
-87.27794590552558,36.58033786662745
-87.27793930940761,36.5803548182068
-87.27792947390473,36.58037071578786
-87.27791664630907,36.58038515965583
-87.27790114914805,36.58039778664659
-87.27788337206603,36.58040827927768
-87.27786376203484,36.58041637373135
-87.27784281211245,36.58042186648728
-87.27782104904631,36.5804246194401
-87.27750292017807,36.58047851872882
-87.27736757768872,36.58050068795441
-87.27723396240016,36.58051997755359
-87.27710648511351,36.58053491046194
-87.27696830848724,36.58054637921705
-87.27683184754304,36.58055425314359
-87.27670152466281,36.58055777039355
-87.27656848357296,36.58055773948336
-87.27643447473137,36.58055271134388
-87.27629774772255,36.58054413503021
-87.2761609860509,36.58053341295721
-87.27603218236335,36.58052117639677
-87.27590070679958,36.58050825247158
-87.27563417397786,36.58048029587877
-87.27537478185302,36.58045512494194
-87.27523973625505,36.58044080717951
-87.27522459795156,36.58043685517429
-87.27521052360063,36.58043086892957
-87.27519792978437,36.58042302563209
-87.27518718926527,36.58041355743509
-87.27517861995037,36.5804027445871
-87.27517247548366,36.58039090713685
-87.27516893773385,36.58037839545988
-87.27516811141021,36.58036557988802
-87.27517002097,36.58035283974806
-87.27521326502958,36.58011990519258
-87.27525306571819,36.57989344469795
-87.2752799373478,36.57974509031718
-87.27530537896085,36.57956313074322
-87.2753219211163,36.57943419863425
-87.27533800402935,36.57933173831739
-87.27536140911988,36.57918842758304
-87.27539917267812,36.57900061584147
-87.27542847289,36.57883792936659
-87.27544683445107,36.57871183937075
-87.27549027327285,36.57849106300623
-87.27553884427995,36.57820370752457
-87.27560577572696,36.57781768268505
-87.27566578120648,36.57752448426265
-87.27568755037594,36.5773897744411
-87.27568369814263,36.57734639463335
-87.27567244123875,36.57730386194471
-87.27565399621767,36.57726299454486
-87.27562871790282,36.57722457856825
-87.27559709256229,36.57718935299221
-87.27555972855453,36.57715799542206
-87.27551734462472,36.57713110905652
-87.27547075608166,36.57710921108519
-87.27542085910899,36.57709272274006
-87.27536861353147,36.57708196119224
-87.27504079137857,36.57704749434391
-87.27471735704403,36.57701011921829
-87.27448818373804,36.57698820561988
-87.27418170199468,36.57695708891934
-87.2739001070927,36.57692928678235
-87.27357505031229,36.57690122486905
-87.27319578692956,36.57686657766102
-87.27287418536645,36.57683275502544
-87.27244250092235,36.57679221746925
-87.27242292499318,36.57679028898967
-87.27240322187056,36.57679097379549
-87.27238392420043,36.57679425337387
-87.2723655536673,36.5768000390661
-87.27234860689453,36.57680817446382
-87.2723335420157,36.5768184396375
-87.27232076629018,36.57683055708222
-87.27231062509372,36.5768441992189
-87.27230339258151,36.57685899725058
-87.27229926427665,36.5768745511318
-87.27226646992125,36.57709593012172
-87.27224241517266,36.57725426893951
-87.27220895277668,36.57748924603537
-87.2721790939745,36.57767268200209
-87.27215964471475,36.57778662240303
-87.27213524455883,36.5779785849881
-87.27211399858638,36.57809111355651
-87.272081399163,36.57832465083703
-87.27205455658435,36.57847515020089
-87.27202021787211,36.57871085163053
-87.27199945563214,36.5788534186566
-87.27196166171584,36.57909487883919
-87.27193613186576,36.57927183132811
-87.27189730095111,36.57950400311466
-87.27184708062853,36.57979995800923
-87.27181811841507,36.57998409962704
-87.27180823634944,36.58000261819142
-87.27179489420722,36.58001966715958
-87.27177841850742,36.58003482929537
-87.2717592124521,36.58004773353848
-87.27173774606798,36.58005806408538
-87.27171454469951,36.58006556811822
-87.27169017614871,36.58007006199169
-87.27166523678424,36.58007143572791
-87.27164033694341,36.5800696557077
-87.2713720220285,36.58004099313312
-87.27110195678463,36.58001377894876
-87.27083720089385,36.57998579323517
-87.27057599231209,36.579957769801
-87.27030680289543,36.57992982935795
-87.27005004009295,36.57990247357483
-87.26965138821916,36.57986023899385
-87.26952257513743,36.57984728031804
-87.26942746152903,36.57984165019916
-87.26933209210826,36.57984169239693
-87.26923698621646,36.57984740668173
-87.26915067210716,36.57985268581166
-87.26906411539767,36.57985191784456
-87.26897796617575,36.57984510854821
-87.26863056872311,36.57980725243278
-87.26859151671334,36.57980298536616
-87.2685521370245,36.57980420621291
-87.26851360639043,36.57981087849181
-87.26847707617512,36.5798228028234
-87.26844363796698,36.57983962288768
-87.26841429096079,36.5798608360709
-87.26838991210391,36.57988580848484
-87.26837122988387,36.57991379390811
-87.26835880256729,36.57994395608395
-87.26835300151318,36.57997539370955
-87.26833092996739,36.58014730188227
-87.26832875803707,36.5801887257585
-87.2683329855642,36.58023004622319
-87.26834354702432,36.58027062269821
-87.26836027869214,36.58030982613824
-87.26838292119116,36.58034704878275
-87.26839230967015,36.5803609605919
-87.26839864206232,36.58037595357178
-87.26840173551206,36.58039159479463
-87.26840150069405,36.58040743261402
-87.26839794438679,36.58042300970644
-87.26839116927827,36.58043787627669
-87.26838137100097,36.58045160304595
-87.26836883248316,36.58046379364766
-87.26820082192312,36.58060575297289
-87.26816224349533,36.5806440166448
-87.26812947142682,36.58068565298329
-87.26810295448109,36.58073009185415
-87.26808305577124,36.58077672474615
-87.26807004778679,36.58082491310419
-87.26806410866232,36.58087399707242
-87.26805494341981,36.58113160894171
-87.26804378418147,36.58143073031756
-87.26803572595574,36.58164684186654
-87.26803324822896,36.58169857058265
-87.26803880939406,36.58175014322342
-87.2680523221886,36.58180075039709
-87.26807357455446,36.58184959786252
-87.26815171070508,36.58202045861933
-87.26823165528263,36.58219344638322
-87.26825389280815,36.58224211056626
-87.26828083747166,36.58228920222135
-87.26831232014671,36.58233442574885
-87.26834814322002,36.58237749727485
-87.26862997746312,36.5826950153616
-87.26888840033482,36.58299060260865
-87.26903290111912,36.58315146958048
-87.26914398067517,36.58327477387019
-87.26928585654829,36.583437813953
-87.26940966298268,36.58358029855931
-87.26955235775088,36.58373903782479
-87.26969430433771,36.58390636860855
-87.26983599836746,36.58405796478545
-87.27003757016077,36.58429262675833
-87.27009084837049,36.58435144082935
-87.27010152789245,36.58436530264678
-87.27011496999147,36.58437750138562
-87.27013078454559,36.58438768300815
-87.27014851257803,36.58439555201855
-87.27016763957721,36.5844008800383
-87.27018761043004,36.58440351243505
-87.27020784553207,36.58440337280992
-87.27022775760996,36.58440046521528
-87.27024676876505,36.58439487403673
-87.27052130646906,36.58431331449772
-87.27060518679498,36.58428954592964
-87.27062207269866,36.58428698178213
-87.27063924515866,36.58428650501691
-87.2706563097407,36.58428812658482
-87.27067287449134,36.58429180924033
-87.27068855893778,36.5842974683973
-87.27070300282978,36.58430497407161
-87.27072268185826,36.5843142114644
-87.2707438625109,36.58432095119309
-87.2707660608274,36.58432503925916
-87.27078876958656,36.58432638225284
-87.27081146990841,36.58432494948754
-87.27083364310472,36.58432077370123
-87.27125841083833,36.58420473426047
-87.27193396413384,36.58401953993217
-87.27229340338573,36.58392277994202
-87.27237171970202,36.58389952878748
-87.27244733248985,36.58387104582534
-87.27251970550033,36.58383753305898
-87.27258832546285,36.5837992281635
-87.27265270572464,36.58375640279932
-87.27271238970782,36.58370936068637
-87.27276695413654,36.58365843544905
-87.27281601204894,36.58360398825048
-87.2730942817405,36.58331422488391
-87.27321468963592,36.58319064144467
-87.27323631525789,36.58315658103788
-87.27325032361739,36.58312002074359
-87.27325629390538,36.58308205885528
-87.27325404678113,36.58304383576935
-87.27324364976604,36.5830064997273
-87.27309279003347,36.58267188103329
-87.27298288903906,36.58245700662731
-87.27286421151848,36.5821928669157
-87.27274743526286,36.58193657567588
-87.27262890923102,36.58168173330247
-87.27250956635334,36.58143119129861
-87.27235797583712,36.58110587840721
-87.27226079383742,36.58090946828392
-87.27224549434129,36.58087697835586
-87.27222438228182,36.58084668098528
-87.27219792581535,36.58081924799992
-87.27216671160434,36.5807952877109
-87.27197221509569,36.58066928389778
-87.27193402165993,36.58064035127476
-87.27190109917591,36.58060747394685
-87.27187406761995,36.58057127104858
-87.2718534360375,36.58053242433945
-87.27183959293917,36.58049166536537
-87.27183279900339,36.58044976168216
-87.27183318215882,36.58040750240102
-87.27184250974605,36.58032585781025
-87.27186080445131,36.58030277629052
-87.27188352614846,36.5802824134337
-87.27191006508669,36.58026531568744
-87.27193970908201,36.58025194187768
-87.27197166262165,36.580242650897
-87.27200506821767,36.58023769207293
-87.27203902941412,36.58023719847786
-87.27207263484861,36.58024118335749
-87.27236404165892,36.58027174822208
-87.27263767842337,36.58030035279618
-87.27291307741812,36.58032822294528
-87.2733093100597,36.58036913100197
-87.2737179696443,36.58041062264586
-87.27412577750978,36.58045426783042
-87.27453622308445,36.58049645329596
-87.274939551701,36.5805372815096
-87.27525493862507,36.58056973345721
-87.27553035104208,36.58059831286525
-87.27578799323204,36.58062493251917
-87.27605627704538,36.58065143971767
-87.27619840589036,36.58066496675453
-87.27633159751306,36.58067429569243
-87.27647008676028,36.58068213810835
-87.27660316276361,36.58068431473139
-87.27674240001083,36.58068356508678
-87.27689663165332,36.58067765023009
-87.27702333814125,36.5806698788922
-87.27713758328672,36.58065937728703
-87.27722611157269,36.58064914627077
-87.27733497806618,36.58063512447697
-87.2774526197846,36.5806152876136
-87.27758443845404,36.58059458604502
-87.27779139074323,36.5805580713585
-87.2778551003981,36.58054881655743
-87.27788088725941,36.58054769593697
-87.27790656826829,36.58054988671131
-87.27793149382364,36.58055533346487
-87.27795503343356,36.58056389842188
-87.27797659166167,36.58057536493184
-87.27799562319504,36.58058944294906
-87.27801164662546,36.58060577636991
-87.27802425663882,36.58062395203967
-87.27803313426175,36.58064351020371
-87.27809278901329,36.58087679265188
-87.27816274319829,36.58114358676271
-87.27824600489217,36.58146532052154
-87.2783008562251,36.58167576306069
-87.27835856518378,36.58189833594959
-87.27844175895922,36.58221577827163
-87.27855618770461,36.58265449630883
-87.27863760944749,36.58297195708941
-87.27872081706668,36.58329011428569
-87.27880779281757,36.58362182281349
-87.27883431574206,36.58372598041659
-87.2789175828961,36.58404771338541
-87.27900262438766,36.58436942756153
-87.27905579882034,36.58458560981437
-87.27908596245381,36.58469545153442
-87.27911604502937,36.58480028684046
-87.27914531040209,36.58490942268426
-87.27917097055165,36.58501501990926
-87.27920016652666,36.5851198645296
-87.27922767005131,36.58522973423718
-87.2792542404402,36.58533675248248
-87.2792852335127,36.5854430087709
-87.27931454573098,36.58555500534619
-87.27934108156632,36.58565987795865
-87.2793703591629,36.58576972891085
-87.27944880219999,36.58606719120792
-87.27950554959082,36.58628476611555
-87.27953485083901,36.58639604740035
-87.27959150593475,36.5866079006417
-87.27964638762251,36.58681977254253
-87.27966936529555,36.58692396723864
-87.27971285740077,36.58714454305413
-87.27974303521295,36.58736454392564
-87.27975272181685,36.58746959407168
-87.27975896536483,36.58758111841842
-87.27976343520076,36.58769266146536
-87.2797651980548,36.58780137176829
-87.27976515310263,36.58801739937264
-87.27976786154962,36.58823912049379
-87.27976517917612,36.58845660651721
-87.27976429373783,36.58867550421444
-87.27976343148826,36.58889583229072
-87.27976256923826,36.58911616034757
-87.27976077370491,36.58933363694222
-87.27976086791526,36.58955824680091
-87.27975914266619,36.58988945866681
-87.27975828039092,36.59010978663643
-87.279757395622,36.59043812828246
-87.2797556696347,36.59065989595361
-87.27975561305669,36.59087520811353
-87.27975757384733,36.59110552071601
-87.27975650278849,36.59131297500859
-87.27975473038484,36.59153188180924
-87.27975303915885,36.59175579497834
-87.27975216524808,36.59197540758574
-87.27975038052034,36.592084155114
-87.27974863127888,36.59230449224332
-87.27975100824997,36.59249664990966
-87.27975159445762,36.59276071613009
-87.27975333421185,36.59286799581768
-87.27975592905956,36.59298241968552
-87.27975774614755,36.59309446734926
-87.27976270390764,36.59330901110322
-87.27976529878345,36.59342343495072
-87.27976854578695,36.59353248701603
-87.27977105368869,36.59364154687056
-87.27977434903693,36.5937535789164
-87.27977685695331,36.59386263876123
-87.27978190180379,36.59408254643023
-87.27978447740102,36.59419577824597
-87.27979216883274,36.59430537951029
-87.27980798091693,36.59441429903495
-87.27983173969859,36.59451180885565
-87.27986841156529,36.59463064208187
-87.27991073551436,36.5947333209922
-87.2799656343127,36.59483646336354
-87.28002712735545,36.59493595955934
-87.28009741269416,36.59503059418669
-87.2801765580288,36.59512453921447
-87.2802629884436,36.59521185024317
-87.28035223050109,36.59529019005267
-87.28044955478103,36.59536546402661
-87.28055866659993,36.59543822914968
-87.28067208764601,36.59550319940735
-87.28078685170813,36.59555980999162
-87.2809096689612,36.59561156667589
-87.28103978091811,36.59565728524279
-87.2811719749466,36.59569463629725
-87.2813010770961,36.59572367445627
-87.28143376853092,36.59574611748526
-87.28156642132275,36.59576617637931
-87.28170349928742,36.5957855922962
-87.28183613285307,36.59580445890033
-87.28196950561251,36.595823317552
-87.28210656440831,36.59584154101844
-87.28223845903226,36.59586041499075
-87.28237552764009,36.59587923415064
-87.28264522057316,36.59591632287732
-87.28291788966756,36.59595457174606
-87.28318463627458,36.59599228652299
-87.28331513068378,36.59601594293151
-87.28344425353468,36.5960461708016
-87.28356758944709,36.5960842090344
-87.2836947181016,36.59612816802351
-87.28381681840497,36.5961811215664
-87.28393088536316,36.5962401209695
-87.28403759023122,36.59630098645548
-87.28425634901768,36.59643339033924
-87.28458341867234,36.59663439113524
-87.28487463278675,36.59681252276421
-87.28501949149056,36.596901000141
-87.28511656984188,36.59696077440589
-87.28529651825062,36.59707033947893
-87.28539656329923,36.59713067820191
-87.28545081120531,36.59714881740953
-87.28550782558142,36.59716017103894
-87.28556630920485,36.59716448076519
-87.28562493141915,36.59716164853101
-87.28568235841401,36.59715173877695
-87.28573728357918,36.5971349769758
-87.2857884572216,36.59711174450224
-87.28583471501487,36.597082569955
-87.28587500448049,36.59704811712979
-87.28606264340047,36.59685835755125
-87.28614846312998,36.59677160976631
-87.28623284325123,36.59668726157172
-87.28640077637185,36.5965132088607
-87.28657376609164,36.59633194909466
-87.28673577491702,36.5961573625819
-87.28690584543737,36.59597851765025
-87.28706350550914,36.59580934167273
-87.2873163767965,36.59554020297928
-87.28756773893448,36.59526929142179
-87.28763602052041,36.59519524666308
-87.28783437775891,36.59498331468228
-87.28800149650432,36.59480509550087
-87.28824707721877,36.59454258917049
-87.28838730412323,36.59439267158111
-87.28857401639667,36.59419218781445
-87.28874110259756,36.59401217956651
-87.28898377061499,36.59375268304336
-87.28922203159617,36.5934950211098
-87.28934336908746,36.59336557040329
-87.28961653984892,36.59307296288814
-87.2898562943995,36.59281647592634
-87.29009892584313,36.59255518905707
-87.29017958225035,36.59246968526605
-87.29034013595694,36.59229749337753
-87.29057841735734,36.59204161662421
-87.29085739420277,36.59174298330608
-87.29110369497722,36.59148046301294
-87.29119087422727,36.59138713977552
-87.2913448497623,36.59121978523741
-87.29159619406546,36.59094946086719
-87.29191648102892,36.59060090879247
-87.29207615145019,36.59042037837703
-87.29215375939246,36.59032954069617
-87.29222703028167,36.5902447101605
-87.29237853039375,36.59006188189838
-87.29252487580641,36.58988030053176
-87.29283320905985,36.58947941613754
-87.29295900488766,36.58930699463448
-87.29309486390544,36.58911717879319
-87.29315912713628,36.58902409818224
-87.29329048242964,36.5888301573668
-87.29335249870292,36.58873531227746
-87.29341445621935,36.58863689116382
-87.29347568428779,36.58853907389045
-87.29359740090841,36.58834344711784
-87.29365631364873,36.58823969339414
-87.2938942779398,36.58783061451352
-87.29405651574255,36.58753679432233
-87.29417142155025,36.58733170185035
-87.29428339988935,36.58712842877789
-87.29449733081792,36.58674166059768
-87.29466311268978,36.58643886007077
-87.29482890306662,36.58613665527953
-87.29493370278503,36.58594657233884
-87.29495863537986,36.58592154699636
-87.29498820123673,36.58590005173709
-87.2950216423055,36.58588263768936
-87.29505810116599,36.58586975134038
-87.29509664303258,36.58586172308976
-87.29513627971086,36.5858587587774
-87.29517599494085,36.58586093440679
-87.29521477044195,36.58586819419599
-87.29529194910118,36.58587838461125
-87.29571817390108,36.58594021780073
-87.29606381976652,36.58598018785284
-87.29635820795359,36.5860205468332
-87.2965172140058,36.58604460761644
-87.29665334494281,36.5860649689632
-87.29673133266503,36.58607663365197
-87.29681614403623,36.58608706010388
-87.29690622441427,36.58609716832215
-87.29702968747291,36.58610956838939
-87.29711798156411,36.58611893081103
-87.29724378267265,36.58613211352365
-87.29737164027195,36.58614248338974
-87.29748817686503,36.58615193494769
-87.29762084584948,36.58616269476472
-87.29767242904588,36.58616012356608
-87.29771670082424,36.58615535818585
-87.29776251107896,36.58613626985918
-87.29780110893024,36.58611010541123
-87.29787802228199,36.58604061172326
-87.29793523672076,36.5859598834994
-87.29800274028362,36.58585758546906
-87.29837128741337,36.58529139803225
-87.29853822542556,36.58504332517705
-87.2985498642749,36.58502676588581
-87.29855792578056,36.58500887606449
-87.29856218536384,36.58499015409662
-87.29856252436362,36.58497112154777
-87.29855893333699,36.58495230863549
-87.2985515123269,36.58493423945826
-87.29854046807567,36.58491741739473
-87.298526108258,36.5849023110807
-87.2985088329195,36.58488934135395
-87.29781937625955,36.58460343416485
-87.29771397776825,36.58455878061427
-87.29754421038969,36.58448334100854
-87.2973673722321,36.58440940741211
-87.29712770426909,36.58429036443632
-87.29710774840446,36.58428553028102
-87.29708707491581,36.58428343130154
-87.29706625603183,36.58428412559633
-87.29704586801036,36.58428759394782
-87.29702647517919,36.58429374035379
-87.29700861432234,36.58430239468513
-87.29699277981993,36.58431331739434
-87.29697940996317,36.58432620614644
-87.29696887482399,36.5843407041873
-87.29683405546875,36.58455674235713
-87.29675987990892,36.58468486275609
-87.29657515054502,36.58499442607283
-87.29642142950787,36.58524786251113
-87.29637038665656,36.58532637812988
-87.29631591382319,36.58541208360405
-87.29623311489804,36.58555531754104
-87.29613802909076,36.58570655121049
-87.29608542339066,36.58579795921009
-87.29607285078316,36.58582099710802
-87.29605557529798,36.58584196020347
-87.29603410654109,36.58586023010713
-87.29600907781638,36.58587526787542
-87.2959812274445,36.58588662990914
-87.29595137698287,36.58589398103968
-87.29592040699083,36.5858971044157
-87.29588923105298,36.58589590790078
-87.29578136114272,36.58588084579503
-87.2956118312388,36.58585595052342
-87.29542456457534,36.58583124436091
-87.2952052621287,36.58580020349124
-87.29514602971499,36.58579415933436
-87.29513078656483,36.58579052648103
-87.29511651979527,36.58578487523104
-87.29510363696498,36.58577736702392
-87.29509250609738,36.58576821634648
-87.29508344516729,36.58575768460619
-87.29507671301721,36.58574607266305
-87.29507250196272,36.58573371223506
-87.29507093230085,36.58572095642215
-87.29507204886998,36.58570816961895
-87.29507581977269,36.58569571710503
-87.29509971243458,36.58563823621267
-87.2951675054632,36.58551733827516
-87.29527885418018,36.58531204405186
-87.29544430598426,36.58501651820512
-87.29556277923791,36.58481305513763
-87.2956766473648,36.58461727122644
-87.2957895203685,36.58443294299986
-87.29591409192229,36.58424085959047
-87.29604449672617,36.58404394490117
-87.29623160256557,36.58377107687325
-87.29643622415263,36.58348466865498
-87.29664874631715,36.58320234834721
-87.29671212064277,36.5831186934793
-87.29678551690046,36.58302420160211
-87.29693097867454,36.58283523192143
-87.29706555447335,36.58265853892865
-87.29714061770333,36.58255759106849
-87.29721134663282,36.58246276975246
-87.2972817025243,36.5823722443274
-87.29734810878664,36.58228426472144
-87.29762073268063,36.58192654844316
-87.29776614927225,36.58173507448141
-87.29790898710233,36.58154863518277
-87.29804268348765,36.58137266570127
-87.29818939293028,36.5811790313624
-87.29832093579933,36.58100701886443
-87.29846546809444,36.5808159110832
-87.29870075632557,36.58050759138701
-87.29877193670312,36.58041347953849
-87.29884226543965,36.58032152273586
-87.29891389475668,36.58022776365085
-87.29898682464479,36.58013220228106
-87.29905846538952,36.58003915830339
-87.29912921330255,36.57994576617451
-87.29920262137458,36.57985234551632
-87.29933935095433,36.57967240765724
-87.29941010998155,36.57957973055083
-87.29957591541441,36.57936121108145
-87.29964841209234,36.57926636922989
-87.29979034246486,36.57907922183295
-87.29993183467074,36.5788924366062
-87.30007119176291,36.57871068135358
-87.30021315547809,36.57852567902109
-87.30035465747422,36.57833960846054
-87.30049314942771,36.57815929258711
-87.3006363823676,36.57797069946205
-87.30077740952766,36.57778284511998
-87.30091841244204,36.57759356019967
-87.30105109667431,36.57741080223362
-87.30118499840512,36.5772212354426
-87.30131793020813,36.57702667159771
-87.30144210596895,36.57683899710855
-87.30150610329444,36.57673995320703
-87.30156832698137,36.57664092829218
-87.30162055941845,36.57655452874393
-87.30183153364814,36.57620300690005
-87.3018854013491,36.5761082441884
-87.30194251060497,36.57600837976458
-87.30200135892943,36.5759019394811
-87.30205734472879,36.57580119288857
-87.30211074409461,36.57570047402159
-87.3021630250808,36.57559917102232
-87.30221568031989,36.57549816203134
-87.30226755715317,36.57539477694224
-87.30232014820345,36.57528989389397
-87.30236984729056,36.57518891654929
-87.30241991571947,36.57508793521426
-87.30247029447855,36.57498337388447
-87.30259625586183,36.57471168745429
-87.3026426241278,36.57461044767337
-87.30269007116036,36.57450740796796
-87.30273599102915,36.57440140410384
-87.30278294046977,36.57429062031032
-87.30282588470787,36.57418345613842
-87.3028674149234,36.57408018182159
-87.30290706820513,36.57397513932128
-87.30294669186689,36.57386830880109
-87.30298334497448,36.57376061600392
-87.30301927873779,36.57365412312858
-87.30305518780706,36.57354614023578
-87.30308895873226,36.57344294914366
-87.30312385673892,36.57333640773449
-87.30315755959281,36.57322910420793
-87.3031916998002,36.57312143830482
-87.30322496502336,36.57301449711301
-87.30325604293583,36.57290936772229
-87.30328797793909,36.57280244079107
-87.30357948405639,36.57181060614346
-87.30361022412157,36.57170297658225
-87.30364242222005,36.57159413912703
-87.30367462022983,36.57148530165861
-87.30370967531451,36.57137047240357
-87.3037404544058,36.57126522679648
-87.3037660608272,36.57118239078301
-87.30380089386027,36.57107650548004
-87.30387080083995,36.57087933686779
-87.3039132787701,36.57076651412316
-87.30404525431104,36.57040105288994
-87.30409137391513,36.57029397315632
-87.30413845095715,36.57019117508145
-87.30418220572476,36.57010200394737
-87.30422522734644,36.5700221399521
-87.30427756494595,36.56991570861234
-87.3043688922232,36.56975377772272
-87.30444237929805,36.56963925029156
-87.30450235635327,36.56954346663262
-87.30456871819725,36.5694449914103
-87.30470240683515,36.56926174094119
-87.3047747629616,36.56916826804335
-87.30492839049202,36.56898420674997
-87.30500522862111,36.56889366603005
-87.30523639224805,36.56863902563913
-87.30531923922821,36.56855438113385
-87.30540392828431,36.56846941869282
-87.30549101184298,36.56838458689981
-87.30566916685484,36.56821814388542
-87.30585405966727,36.56805699304027
-87.30603120861487,36.56791023185551
-87.30622731313365,36.56775682833838
-87.3063262842927,36.56768208371734
-87.30654357027366,36.56752260972554
-87.30674216545023,36.56737692791758
-87.30694454276551,36.56722762837373
-87.3071434083181,36.56708051230322
-87.30734345925099,36.56693362155983
-87.30744361838933,36.5668593400657
-87.30773007057836,36.56664642242684
-87.30783054032953,36.5665730910228
-87.30793012721931,36.56650000749297
-87.30812926094046,36.56635145617296
-87.3082297180931,36.56627740922716
-87.30832871710979,36.56620457013654
-87.30842827146225,36.5661295789802
-87.30852872014928,36.56605505497861
-87.30870975741473,36.56592052756869
-87.30881286146865,36.56584573623162
-87.3089077534862,36.5657748485008
-87.30901024631942,36.56569887136439
-87.30920908835689,36.56555079821624
-87.30941058157649,36.5654022192232
-87.30961031268143,36.56525437423172
-87.30980829355376,36.56510797845348
-87.3099110762347,36.56503175894444
-87.31010729464776,36.56488609701477
-87.31020803570162,36.5648115683951
-87.31030672760736,36.56473825403853
-87.31040747224212,36.56466396364989
-87.31060748327276,36.5645153985789
-87.3107093936417,36.56444014155807
-87.31090614503057,36.5642947109563
-87.3110070555614,36.56421979829823
-87.3111079754033,36.56414545771634
-87.31130681152247,36.56399927664779
-87.31150536231179,36.5638519776356
-87.31171706270796,36.56369559445681
-87.31181779775304,36.56362088566502
-87.31202039036576,36.56347234984196
-87.31222301689014,36.56332589968118
-87.31242455424517,36.56318065316809
-87.31250119420511,36.56312349163537
-87.31275385827428,36.56294222285495
-87.31295460529314,36.56279400342125
-87.31315351938676,36.5626466976445
-87.31335277239981,36.56249759952559
-87.31362492925723,36.56228899479807
-87.3137226558581,36.56221133637099
-87.31382037730859,36.56213337986156
-87.31391479871131,36.5620569492871
-87.31401249001998,36.56197720460993
-87.31410581275539,36.56190138188894
-87.31433360503343,36.56171352380483
-87.31442801551394,36.56163649681574
-87.31452019450332,36.56155859976379
-87.31461824902456,36.56147855257903
-87.31480886606495,36.56132149803484
-87.31490292110175,36.56124536867234
-87.31499995582918,36.56116181516284
-87.31509593932032,36.56108614162577
-87.31528701183677,36.56093879795002
-87.31549025535678,36.56078577814503
-87.31558731891892,36.56071289420555
-87.31578952757907,36.56056435592619
-87.31598694323809,36.56041646539973
-87.31618695387554,36.5602691424908
-87.31638584066972,36.56012093726491
-87.31658618939157,36.55997182166319
-87.31678728111882,36.55982299570398
-87.3169832502749,36.55967720556329
-87.31718506934668,36.55952777490379
-87.31738397229017,36.55938076000494
-87.31758540055981,36.55923014066754
-87.31778283936359,36.55908403515117
-87.31798432083888,36.55893669315136
-87.31825220461089,36.55873915197398
-87.31835183888273,36.55866564166171
-87.31854960940663,36.55851744483967
-87.31865071072323,36.55844332221182
-87.31874961543004,36.55837041559849
-87.31895252602432,36.55822037387219
-87.31915178679037,36.55807305398213
-87.31925469904827,36.55799682474186
-87.31935469087678,36.55792271356425
-87.31945358432007,36.55784921035889
-87.31955357079492,36.55777480101148
-87.31975319371898,36.55762717808823
-87.31995316036904,36.55747806080026
-87.32015240743004,36.55733014322084
-87.32035385508901,36.55718130717674
-87.32055238680805,36.55703488697308
-87.32075857509433,36.55688242194324
-87.32096038984892,36.55673358084423
-87.32116511898799,36.55658232320236
-87.32136325836738,36.5564347136537
-87.32156395272591,36.5562852875924
-87.32176459144617,36.55613258317131
-87.32186347541509,36.55605877994866
-87.3219634523611,36.55598407056148
-87.3221630412997,36.55583495356122
-87.32236445639734,36.55568462408323
-87.3225626012656,36.55553760852782
-87.32276403481578,36.55538847037613
-87.32296875201779,36.55523691160955
-87.32316546209391,36.55509259317457
-87.32336428778572,36.55494229019759
-87.32356207454507,36.55479617100257
-87.32376642430592,36.55464491288731
-87.32397006952419,36.55449574849516
-87.3241667609299,36.55435053438947
-87.32431927285569,36.55423650211436
-87.32487580435382,36.55382775041116
-87.32507976972285,36.55367589805741
-87.32527788448576,36.55352768594477
-87.32548186831839,36.55337702490487
-87.32568183840418,36.55322938793795
-87.32588106401069,36.55308146070588
-87.32607810773132,36.55293564338022
-87.32617479752446,36.55286364879186
-87.32627952299779,36.55278620123871
-87.32637986098276,36.55271148407837
-87.32649188816448,36.55262888952404
-87.32659222074162,36.55255387418148
-87.32669219879082,36.55247975679954
-87.32679472711817,36.55240352503761
-87.32704684952689,36.55221597173541
-87.3271471910705,36.55214155192587
-87.32735298949649,36.55198937744202
-87.32755145509785,36.55184056147355
-87.32775137733199,36.55169053699113
-87.32794718075964,36.55153727862986
-87.32814342296052,36.55138818792742
-87.32824298861792,36.55131168926206
-87.32834584317793,36.55123306809364
-87.3284421243668,36.55115898968143
-87.32855809976505,36.55106979262619
-87.32865947628278,36.55099118736708
-87.32875648555844,36.55091650460241
-87.3288568138088,36.55084148733705
-87.32905521349714,36.5506890928174
-87.32925288876788,36.55053760006583
-87.32945603328975,36.55038187422888
-87.32964822197876,36.55023371956364
-87.3298466336699,36.55008221772
-87.33004539386798,36.54992951948436
-87.33024415329868,36.54977682091407
-87.33063840412,36.54947229315688
-87.33083681300268,36.54932084924949
-87.33102994274894,36.54917184739156
-87.3312274532498,36.54901979271068
-87.33142089930826,36.54887035752248
-87.33162103781649,36.54871650881874
-87.33181765398953,36.54856412911957
-87.33201311164321,36.54841319248293
-87.33221224184247,36.54826102294626
-87.3323107086905,36.54818554622755
-87.33257547591413,36.54798270061746
-87.33267174414215,36.5479083207528
-87.33287216720896,36.54775410907837
-87.33309006410967,36.5475846828985
-87.33328436522199,36.54743554516021
-87.33338326114178,36.54735934746934
-87.33357754302664,36.54720913644032
-87.3337692012052,36.54706109995064
-87.33396348162214,36.54691088828616
-87.33416082744635,36.54675849655853
-87.33435950814908,36.54660644747581
-87.33455249299358,36.54645839508626
-87.33474851904727,36.54630673221154
-87.33494933487036,36.54615000891268
-87.33504068719472,36.54607353515765
-87.3351292955183,36.5459920841647
-87.33521340519188,36.54590674826441
-87.33530350170535,36.54580847028906
-87.33537827972982,36.5457218063242
-87.33545069042403,36.54562622663875
-87.33551771609685,36.54552677183747
-87.33557683067187,36.54543133847471
-87.33563449455349,36.54532876766368
-87.33569074402502,36.5452212050231
-87.33573780127685,36.54512053930867
-87.33578790629382,36.54501662097756
-87.33583412531746,36.54491882580371
-87.33588163749447,36.54481887034639
-87.33593037626544,36.5447128209711
-87.33597830718342,36.54461143017437
-87.33602366356158,36.54451507508878
-87.33607415654869,36.54440793330621
-87.33611863237127,36.54431194554501
-87.33616953197891,36.54420265321378
-87.33625890203237,36.54400924229144
-87.33635039678553,36.54381044282668
-87.33645301435981,36.54358791450055
-87.33655062187788,36.54338368243504
-87.33664768280634,36.54317337590605
-87.33669296490182,36.54307272927912
-87.33673646811322,36.54297174456689
-87.3367790061598,36.5428661207635
-87.3368574645301,36.5426567343918
-87.33689549177798,36.54254651054396
-87.33692660974336,36.54244709294194
-87.33695927025843,36.54233406686345
-87.33698974508192,36.54222285321549
-87.33700921313474,36.54211605293592
-87.33703606370618,36.54200022950953
-87.33705696409265,36.54189949381192
-87.33707865388919,36.54179302668216
-87.33711158377635,36.54161740529515
-87.33715399795004,36.54139983191357
-87.33717479508502,36.5412930169152
-87.33721728157748,36.54107973472528
-87.33725727234615,36.54087613711464
-87.33729480981624,36.5406847273123
-87.3373372290403,36.54046751139236
-87.33737966014316,36.54025101064651
-87.33742208495782,36.54003415226433
-87.33748570660049,36.53970797062048
-87.33750697628486,36.53960293862635
-87.33754897541381,36.53938715784422
-87.33757018435705,36.53927854978988
-87.33761350049595,36.53906203908824
-87.33763462009809,36.53895688947382
-87.33764268768378,36.53890982643315
-87.33771976745756,36.53853278632911
-87.33774108159119,36.53842343785815
-87.33776264816794,36.53831504038166
-87.33778663849199,36.53820959674761
-87.33781277597687,36.53810415326226
-87.33784158441154,36.53799939564244
-87.33787473339432,36.53788922506654
-87.33791016467437,36.53778296367409
-87.33795096211294,36.53767950442837
-87.33799579624879,36.53757886199222
-87.33804546853949,36.53747602012868
-87.33810010620763,36.53737848851269
-87.3381591509673,36.53727947755439
-87.33822487306698,36.53718218123158
-87.33829332053888,36.53708878917027
-87.33836622959994,36.53699713618027
-87.33844271395024,36.53690723203572
-87.33852278570666,36.53681979193761
-87.33860380418737,36.53673591804002
-87.33869492385399,36.53664656751521
-87.33878125362088,36.53656227718756
-87.33887027843146,36.53648010306462
-87.33895843496319,36.53639901147122
-87.33905145373809,36.53631715077898
-87.33914497610019,36.53623886115902
-87.33924117531089,36.5361616149136
-87.33933878259515,36.53608900275876
-87.3394425754544,36.53601524918773
-87.33954733325189,36.53594613458771
-87.3396552292339,36.53587913125197
-87.33976010193204,36.53581681094036
-87.33987161546578,36.53575405949098
-87.33998626112204,36.53569306168178
-87.34010007494199,36.53563529199266
-87.3402156793485,36.53557857541788
-87.3403370018779,36.53551929183215
-87.34045130081539,36.53546402013972
-87.34047858999038,36.53544754927501
-87.34050225469012,36.53542776145103
-87.34052168293401,36.53540516839294
-87.34053637229962,36.53538035437083
-87.34054594291644,36.53535396108929
-87.34055014728804,36.53532667109315
-87.34054887669292,36.53529919011589
-87.34054216399476,36.53527222882916
-87.34053018279263,36.53524648446457
-87.34051324293075,36.53522262278274
-87.34038056379615,36.53510891925822
-87.34026136718531,36.53500615438415
-87.34014672358326,36.53491049249953
-87.34007079645969,36.53485016979039
-87.33996006869401,36.53475017240247
-87.33986156057959,36.53466506208975
-87.33977928446986,36.53459622523806
-87.33968080707352,36.53451290279432
-87.33958599017822,36.53443633558689
-87.33951397932431,36.53437167721217
-87.33948290599055,36.53434269140645
-87.33947211158335,36.53433074892569
-87.33946386048764,36.53431755164658
-87.33945837122991,36.53430344909493
-87.33945578919004,36.53428881477199
-87.33945618275057,36.53427403626274
-87.33945954148628,36.53425950497055
-87.33946577644144,36.53424560575136
-87.33947472248428,36.53423270672025
-87.33948614268047,36.53422114950303
-87.33949973456998,36.53421124018766
-87.3396458831903,36.53412628835797
-87.33976127338349,36.53405705603552
-87.33988814829782,36.53398555067589
-87.34002244692962,36.53390752506201
-87.34015357665537,36.53382559993069
-87.34027813203781,36.53374803937027
-87.34041236311643,36.53366607967074
-87.34060843723486,36.53354588065601
-87.34071723349987,36.5334799393292
-87.34087247256724,36.53338236696423
-87.3409917758501,36.53330879810201
-87.34122247233621,36.53316568188577
-87.34141849538747,36.53304262070403
-87.34159828634097,36.53292939590681
-87.34180476693162,36.53279584590586
-87.34199062069497,36.53267432697226
-87.34223852605066,36.53251846404869
-87.34241151406806,36.53240495562523
-87.34272259044379,36.53221075334491
-87.34305590571339,36.53200390464374
-87.34335883720051,36.53181742120624
-87.34355495666895,36.53169173243971
-87.34381632710392,36.53152859928503
-87.34407597269541,36.53136834603791
-87.3442531521345,36.53125836514103
-87.3443471259714,36.53120724929238
-87.34445706388405,36.53115667171576
-87.34469383839731,36.53105890558308
-87.34506163610652,36.53089959681972
-87.34524462991163,36.5308188790345
-87.34540034550342,36.53074990912698
-87.34571087746832,36.530611263333
-87.34596860107104,36.53049466322138
-87.34607682547197,36.53044767988038
-87.34629970903107,36.53036723299883
-87.34647341533692,36.53031379950942
-87.34669115157176,36.53024342387077
-87.34693053463133,36.53019498306121
-87.34726271342414,36.53013048857019
-87.34756653292735,36.53006630832304
-87.34781818759682,36.53000986058192
-87.34806630927591,36.52995416693465
-87.34834543570516,36.52989741267713
-87.34867483133436,36.52982579178578
-87.34893889134791,36.52976920372076
-87.34917912114523,36.52971860297912
-87.34947498609411,36.52965593710019
-87.3498909099676,36.52956475092214
-87.35025747446954,36.52948985053192
-87.35051535326214,36.52943475852121
-87.35109293591798,36.52931172312149
-87.3514514611049,36.52923333193998
-87.35181973378117,36.52915483102119
-87.35229654287619,36.52904793548745
-87.35280430634299,36.52893711599845
-87.35319367345588,36.5288483606938
-87.3535362674487,36.52877157176409
-87.35379057231056,36.52871508192492
-87.35407844183172,36.52865177862796
-87.35437779461218,36.52858620034363
-87.35465949664625,36.52852511057741
-87.35498533605924,36.52845351210917
-87.35533505294465,36.52837878448959
-87.35570059782343,36.52829672543305
-87.35588873008923,36.52825813926422
-87.35624723345212,36.52817901866425
-87.35648120127938,36.52812561197658
-87.35680969595445,36.52805397885443
-87.35692359631037,36.52802838254495
-87.35713819003368,36.52798234484039
-87.35742431870708,36.52792119904512
-87.35761145240635,36.52787618324354
-87.35776981998839,36.52784212407336
-87.35778602828292,36.52783932552124
-87.35780258115815,36.5278386335395
-87.35781906097505,36.52784006558743
-87.35783505193741,36.52784358553339
-87.3578501505838,36.52784910456703
-87.35786397596505,36.52785648343972
-87.35787617925791,36.52786553597774
-87.35788645256486,36.52787603377973
-87.35789453668282,36.52788771197945
-87.35790022764329,36.52790027592802
-87.35794201581599,36.52802809333321
-87.35797637849575,36.52813644108986
-87.35801071667508,36.52824335841587
-87.35802629813793,36.52829039674158
-87.35802629813732,36.5282903967416
-87.35803074544332,36.52830025663465
-87.35803714953671,36.52830938827738
-87.35804533450295,36.52831754083088
-87.35805507550801,36.5283244903511
-87.35806610497458,36.5283300459402
-87.35807811993217,36.52833405499056
-87.35809079033938,36.52833640737671
-87.35810376815,36.52833703848039
-87.35811669687369,36.52833593096572
-87.35812922136847,36.52833311525525
-87.35819248567326,36.52831809973387
-87.35829135621506,36.52829490890773
-87.35830252668082,36.5282908036158
-87.35831267267544,36.52828522889003
-87.35832150026084,36.52827834623508
-87.35832875369465,36.52827035504737
-87.35833422283918,36.52826148683847
-87.35833774924929,36.52825199852788
-87.35833923076265,36.52824216499992
-87.35833862445938,36.52823227113998
-87.3583359479053,36.52822260358127
-87.35824839059768,36.52793412797455
-87.35824687126262,36.52792087840958
-87.35824798400617,36.52790760256541
-87.35825170046313,36.52789463884577
-87.35825792589907,36.52788231769775
-87.3582665016246,36.52787095318963
-87.35827720904531,36.52786083500402
-87.3582897752238,36.52785222105501
-87.35830387984727,36.52784533091318
-87.35831916338677,36.52784034020895
-87.35845748639717,36.52780898454125
-87.35852378617949,36.52779870380545
-87.35854171013425,36.5277995222072
-87.3585592533132,36.52780259894918
-87.35857598162373,36.52780785789983
-87.35859148113713,36.52781516893047
-87.35860536832843,36.527824351135
-87.35861729956935,36.52783517730684
-87.35862697962909,36.52784737956016
-87.35863416897972,36.52786065595927
-87.35866786732778,36.52797690135181
-87.35867116668062,36.52798550929926
-87.35867116668062,36.52798550929926
-87.358683382086,36.52805154193558
-87.35868736165678,36.52806589157149
-87.35868835288943,36.52808057446904
-87.35868632860914,36.52809518810713
-87.35868134430777,36.52810933186274
-87.35867353662488,36.52812261799436
-87.35866311960267,36.52813468227129
-87.35865037881506,36.5281451939593
-87.35863566354189,36.52815386488696
-87.35861937719315,36.52816045734632
-87.35860196624888,36.52816479060907
-87.35832998963367,36.52823376653949
-87.35829743798709,36.52824477977175
-87.35826726272148,36.5282595575653
-87.35825242200096,36.52826845728709
-87.35823618831103,36.52827559949233
-87.35821887899589,36.52828084456126
-87.35811912083686,36.52830413765125
-87.35810661427831,36.52830667525396
-87.35809478741373,36.52831082401573
-87.35808395652546,36.52831647298739
-87.3580744112618,36.52832347110015
-87.3580664068884,36.52833163120549
-87.3580601574654,36.52834073507983
-87.35805583011954,36.52835053926073
-87.35805354057679,36.52836078155745
-87.35805335006653,36.52837118806295
-87.35805526368452,36.52838148047837
-87.35805482791143,36.52838289840244
-87.35809330911285,36.52855891939571
-87.35816204432678,36.52877613130443
-87.3581963420379,36.5288806645252
-87.35821843438917,36.52896268183149
-87.35822313804151,36.52897622088667
-87.35823058681554,36.52898893220354
-87.35824056998597,36.52900045617817
-87.35825280513359,36.52901046679633
-87.35826694612118,36.52901868085662
-87.35828259289973,36.52902486598246
-87.35829930282371,36.52902884719605
-87.35831660316411,36.52903051186836
-87.35833400449263,36.52902981290564
-87.35835101452609,36.52902677008152
-87.35871162771714,36.52895000308179
-87.35889709327445,36.52891096523988
-87.35904875189499,36.52888184396659
-87.35906549070081,36.52887638231791
-87.35908087197331,36.52886875142823
-87.35909446787501,36.52885916355467
-87.35910590022954,36.52884788538883
-87.35911485103964,36.52883523063861
-87.35912107134048,36.52882155130182
-87.35912438810782,36.52880722787584
