T3,05:00:00,05:00:00,S164,0
T3,,,S165,1
T3,,,S166,2
T3,,,S167,3
T3,,,S372,4
T3,,,S373,5
T3,,,S444,6
T3,,,S374,7
T3,,,S375,8
T3,,,S376,9
T3,,,S377,10
T3,,,S378,11
T3,,,S240,12
T3,,,S241,13
T3,,,S242,14
T3,,,S304,15
T3,,,S459,16
T3,,,S460,17
T3,05:13:30,05:14:00,S247,18
T3,,,S306,19
T3,,,S305,20
T3,,,S307,21
T3,,,S379,22
T3,,,S380,23
T3,,,S381,24
T3,,,S382,25
T3,,,S489,26
T3,,,S383,27
T3,,,S384,28
T3,,,S385,29
T3,,,S386,30
T3,,,S387,31
T3,,,S272,32
T3,05:26:30,05:27:00,S334,33
T3,,,S273,34
T3,,,S274,35
T3,,,S388,36
T3,,,S389,37
T3,,,S390,38
T3,,,S391,39
T3,,,S392,40
T3,,,S393,41
T3,,,S395,42
T3,,,S396,43
T3,,,S451,44
T3,,,S452,45
T3,,,S453,46
T3,,,S454,47
T3,,,S455,48
T3,,,S456,49
T3,,,S457,50
T3,,,S458,51
T3,,,S397,52
T3,,,S398,53
T3,,,S399,54
T3,,,S400,55
T3,,,S401,56
T3,,,S402,57
T3,,,S403,58
T3,,,S404,59
T3,05:51:30,05:52:00,S497,60
T3,06:04:30,06:05:00,S498,61
T3,,,S406,62
T3,,,S480,63
T3,,,S407,64
T3,,,S408,65
T3,,,S409,66
T3,,,S410,67
T3,,,S458,68
T3,,,S457,69
T3,,,S456,70
T3,,,S455,71
T3,,,S454,72
T3,,,S453,73
T3,,,S452,74
T3,,,S451,75
T3,,,S415,76
T3,,,S416,77
T3,,,S417,78
T3,,,S418,79
T3,,,S419,80
T3,,,S421,81
T3,,,S420,82
T3,,,S422,83
T3,,,S423,84
T3,,,S424,85
T3,06:26:30,06:27:00,S334,86
T3,,,S335,87
T3,,,S336,88
T3,,,S425,89
T3,,,S426,90
T3,,,S427,91
T3,,,S429,92
T3,,,S430,93
T3,,,S431,94
T3,,,S432,95
T3,,,S364,96
T3,,,S366,97
T3,,,S367,98
T3,,,S368,99
T3,,,S369,100
T3,06:35:30,06:36:00,S247,101
T3,,,S295,102
T3,,,S296,103
T3,,,S297,104
T3,,,S298,105
T3,,,S302,106
T3,,,S303,107
T3,,,S304,108
T3,,,S435,109
T3,,,S436,110
T3,,,S437,111
T3,,,S438,112
T3,,,S439,113
T3,,,S440,114
T3,,,S441,115
T3,,,S442,116
T3,,,S443,117
T3,,,S444,118
T3,,,S445,119
T3,,,S446,120
T3,,,S447,121
T3,,,S448,122
T3,,,S449,123
T3,,,S450,124
T3,06:50:00,06:50:00,S164,125
T4,06:00:00,06:00:00,S164,0
T4,,,S165,1
T4,,,S166,2
T4,,,S167,3
T4,,,S372,4
T4,,,S373,5
T4,,,S444,6
T4,,,S374,7
T4,,,S375,8
T4,,,S376,9
T4,,,S377,10
T4,,,S378,11
T4,,,S240,12
T4,,,S241,13
T4,,,S242,14
T4,,,S304,15
T4,,,S459,16
T4,,,S460,17
T4,06:13:30,06:14:00,S247,18
T4,,,S306,19
T4,,,S305,20
T4,,,S307,21
T4,,,S379,22
T4,,,S380,23
T4,,,S381,24
T4,,,S382,25
T4,,,S489,26
T4,,,S383,27
T4,,,S384,28
T4,,,S385,29
T4,,,S386,30
T4,,,S387,31
T4,,,S272,32
T4,06:26:30,06:27:00,S334,33
T4,,,S273,34
T4,,,S274,35
T4,,,S388,36
T4,,,S389,37
T4,,,S390,38
T4,,,S391,39
T4,,,S392,40
T4,,,S393,41
T4,,,S395,42
T4,,,S396,43
T4,,,S451,44
T4,,,S452,45
T4,,,S453,46
T4,,,S454,47
T4,,,S455,48
T4,,,S456,49
T4,,,S457,50
T4,,,S458,51
T4,,,S397,52
T4,,,S398,53
T4,,,S399,54
T4,,,S400,55
T4,,,S401,56
T4,,,S402,57
T4,,,S403,58
T4,,,S404,59
T4,06:51:30,06:52:00,S497,60
T4,07:04:30,07:05:00,S498,61
T4,,,S406,62
T4,,,S480,63
T4,,,S407,64
T4,,,S408,65
T4,,,S409,66
T4,,,S410,67
T4,,,S458,68
T4,,,S457,69
T4,,,S456,70
T4,,,S455,71
T4,,,S454,72
T4,,,S453,73
T4,,,S452,74
T4,,,S451,75
T4,,,S415,76
T4,,,S416,77
T4,,,S417,78
T4,,,S418,79
T4,,,S419,80
T4,,,S421,81
T4,,,S420,82
T4,,,S422,83
T4,,,S423,84
T4,,,S424,85
T4,07:26:30,07:27:00,S334,86
T4,,,S335,87
T4,,,S336,88
T4,,,S425,89
T4,,,S426,90
T4,,,S427,91
T4,,,S429,92
T4,,,S430,93
T4,,,S431,94
T4,,,S432,95
T4,,,S364,96
T4,,,S366,97
T4,,,S367,98
T4,,,S368,99
T4,,,S369,100
T4,07:35:30,07:36:00,S247,101
T4,,,S295,102
T4,,,S296,103
T4,,,S297,104
T4,,,S298,105
T4,,,S302,106
T4,,,S303,107
T4,,,S304,108
T4,,,S435,109
T4,,,S436,110
T4,,,S437,111
T4,,,S438,112
T4,,,S439,113
T4,,,S440,114
T4,,,S441,115
T4,,,S442,116
T4,,,S443,117
T4,,,S444,118
T4,,,S445,119
T4,,,S446,120
T4,,,S447,121
T4,,,S448,122
T4,,,S449,123
T4,,,S450,124
T4,07:50:00,07:50:00,S164,125
T5,07:00:00,07:00:00,S164,0
T5,,,S165,1
T5,,,S166,2
T5,,,S167,3
T5,,,S372,4
T5,,,S373,5
T5,,,S444,6
T5,,,S374,7
T5,,,S375,8
T5,,,S376,9
T5,,,S377,10
T5,,,S378,11
T5,,,S240,12
T5,,,S241,13
T5,,,S242,14
T5,,,S304,15
T5,,,S459,16
T5,,,S460,17
T5,07:13:30,07:14:00,S247,18
T5,,,S306,19
T5,,,S305,20
T5,,,S307,21
T5,,,S379,22
T5,,,S380,23
T5,,,S381,24
T5,,,S382,25
T5,,,S489,26
T5,,,S383,27
T5,,,S384,28
T5,,,S385,29
T5,,,S386,30
T5,,,S387,31
T5,,,S272,32
T5,07:26:30,07:27:00,S334,33
T5,,,S273,34
T5,,,S274,35
T5,,,S388,36
T5,,,S389,37
T5,,,S390,38
T5,,,S391,39
T5,,,S392,40
T5,,,S393,41
T5,,,S395,42
T5,,,S396,43
T5,,,S451,44
T5,,,S452,45
T5,,,S453,46
T5,,,S454,47
T5,,,S455,48
T5,,,S456,49
T5,,,S457,50
T5,,,S458,51
T5,,,S397,52
T5,,,S398,53
T5,,,S399,54
T5,,,S400,55
T5,,,S401,56
T5,,,S402,57
T5,,,S403,58
T5,,,S404,59
T5,07:51:30,07:52:00,S497,60
T5,08:04:30,08:05:00,S498,61
T5,,,S406,62
T5,,,S480,63
T5,,,S407,64
T5,,,S408,65
T5,,,S409,66
T5,,,S410,67
T5,,,S458,68
T5,,,S457,69
T5,,,S456,70
T5,,,S455,71
T5,,,S454,72
T5,,,S453,73
T5,,,S452,74
T5,,,S451,75
T5,,,S415,76
T5,,,S416,77
T5,,,S417,78
T5,,,S418,79
T5,,,S419,80
T5,,,S421,81
T5,,,S420,82
T5,,,S422,83
T5,,,S423,84
T5,,,S424,85
T5,08:26:30,08:27:00,S334,86
T5,,,S335,87
T5,,,S336,88
T5,,,S425,89
T5,,,S426,90
T5,,,S427,91
T5,,,S429,92
T5,,,S430,93
T5,,,S431,94
T5,,,S432,95
T5,,,S364,96
T5,,,S366,97
T5,,,S367,98
T5,,,S368,99
T5,,,S369,100
T5,08:35:30,08:36:00,S247,101
T5,,,S295,102
T5,,,S296,103
T5,,,S297,104
T5,,,S298,105
T5,,,S302,106
T5,,,S303,107
T5,,,S304,108
T5,,,S435,109
T5,,,S436,110
T5,,,S437,111
T5,,,S438,112
T5,,,S439,113
T5,,,S440,114
T5,,,S441,115
T5,,,S442,116
T5,,,S443,117
T5,,,S444,118
T5,,,S445,119
T5,,,S446,120
T5,,,S447,121
T5,,,S448,122
T5,,,S449,123
T5,,,S450,124
T5,08:50:00,08:50:00,S164,125
T6,08:00:00,08:00:00,S164,0
T6,,,S165,1
T6,,,S166,2
T6,,,S167,3
T6,,,S372,4
T6,,,S373,5
T6,,,S444,6
T6,,,S374,7
T6,,,S375,8
T6,,,S376,9
T6,,,S377,10
T6,,,S378,11
T6,,,S240,12
T6,,,S241,13
T6,,,S242,14
T6,,,S304,15
T6,,,S459,16
T6,,,S460,17
T6,08:13:30,08:14:00,S247,18
T6,,,S306,19
T6,,,S305,20
T6,,,S307,21
T6,,,S379,22
T6,,,S380,23
T6,,,S381,24
T6,,,S382,25
T6,,,S489,26
T6,,,S383,27
T6,,,S384,28
T6,,,S385,29
T6,,,S386,30
T6,,,S387,31
T6,,,S272,32
T6,08:26:30,08:27:00,S334,33
T6,,,S273,34
T6,,,S274,35
T6,,,S388,36
T6,,,S389,37
T6,,,S390,38
T6,,,S391,39
T6,,,S392,40
T6,,,S393,41
T6,,,S395,42
T6,,,S396,43
T6,,,S451,44
T6,,,S452,45
T6,,,S453,46
T6,,,S454,47
T6,,,S455,48
T6,,,S456,49
T6,,,S457,50
T6,,,S458,51
T6,,,S397,52
T6,,,S398,53
T6,,,S399,54
T6,,,S400,55
T6,,,S401,56
T6,,,S402,57
T6,,,S403,58
T6,,,S404,59
T6,08:51:30,08:52:00,S497,60
T6,09:04:30,09:05:00,S498,61
T6,,,S406,62
T6,,,S480,63
T6,,,S407,64
T6,,,S408,65
T6,,,S409,66
T6,,,S410,67
T6,,,S458,68
T6,,,S457,69
T6,,,S456,70
T6,,,S455,71
T6,,,S454,72
T6,,,S453,73
T6,,,S452,74
T6,,,S451,75
T6,,,S415,76
T6,,,S416,77
T6,,,S417,78
T6,,,S418,79
T6,,,S419,80
T6,,,S421,81
T6,,,S420,82
T6,,,S422,83
T6,,,S423,84
T6,,,S424,85
T6,09:26:30,09:27:00,S334,86
T6,,,S335,87
T6,,,S336,88
T6,,,S425,89
T6,,,S426,90
T6,,,S427,91
T6,,,S429,92
T6,,,S430,93
T6,,,S431,94
T6,,,S432,95
T6,,,S364,96
T6,,,S366,97
T6,,,S367,98
T6,,,S368,99
T6,,,S369,100
T6,09:35:30,09:36:00,S247,101
T6,,,S295,102
T6,,,S296,103
T6,,,S297,104
T6,,,S298,105
T6,,,S302,106
T6,,,S303,107
T6,,,S304,108
T6,,,S435,109
T6,,,S436,110
T6,,,S437,111
T6,,,S438,112
T6,,,S439,113
T6,,,S440,114
T6,,,S441,115
T6,,,S442,116
T6,,,S443,117
T6,,,S444,118
T6,,,S445,119
T6,,,S446,120
T6,,,S447,121
T6,,,S448,122
T6,,,S449,123
T6,,,S450,124
T6,09:50:00,09:50:00,S164,125
T7,09:00:00,09:00:00,S164,0
T7,,,S165,1
T7,,,S166,2
T7,,,S167,3
T7,,,S372,4
T7,,,S373,5
T7,,,S444,6
T7,,,S374,7
T7,,,S375,8
T7,,,S376,9
T7,,,S377,10
T7,,,S378,11
T7,,,S240,12
T7,,,S241,13
T7,,,S242,14
T7,,,S304,15
T7,,,S459,16
T7,,,S460,17
T7,09:13:30,09:14:00,S247,18
T7,,,S306,19
T7,,,S305,20
T7,,,S307,21
T7,,,S379,22
T7,,,S380,23
T7,,,S381,24
T7,,,S382,25
T7,,,S489,26
T7,,,S383,27
T7,,,S384,28
T7,,,S385,29
T7,,,S386,30
T7,,,S387,31
T7,,,S272,32
T7,09:26:30,09:27:00,S334,33
T7,,,S273,34
T7,,,S274,35
T7,,,S388,36
T7,,,S389,37
T7,,,S390,38
T7,,,S391,39
T7,,,S392,40
T7,,,S393,41
T7,,,S395,42
T7,,,S396,43
T7,,,S451,44
T7,,,S452,45
T7,,,S453,46
T7,,,S454,47
T7,,,S455,48
T7,,,S456,49
T7,,,S457,50
T7,,,S458,51
T7,,,S397,52
T7,,,S398,53
T7,,,S399,54
T7,,,S400,55
T7,,,S401,56
T7,,,S402,57
T7,,,S403,58
T7,,,S404,59
T7,09:51:30,09:52:00,S497,60
T7,10:04:30,10:05:00,S498,61
T7,,,S406,62
T7,,,S480,63
T7,,,S407,64
T7,,,S408,65
T7,,,S409,66
T7,,,S410,67
T7,,,S458,68
T7,,,S457,69
T7,,,S456,70
T7,,,S455,71
T7,,,S454,72
T7,,,S453,73
T7,,,S452,74
T7,,,S451,75
T7,,,S415,76
T7,,,S416,77
T7,,,S417,78
T7,,,S418,79
T7,,,S419,80
T7,,,S421,81
T7,,,S420,82
T7,,,S422,83
T7,,,S423,84
T7,,,S424,85
T7,10:26:30,10:27:00,S334,86
T7,,,S335,87
T7,,,S336,88
T7,,,S425,89
T7,,,S426,90
T7,,,S427,91
T7,,,S429,92
T7,,,S430,93
T7,,,S431,94
T7,,,S432,95
T7,,,S364,96
T7,,,S366,97
T7,,,S367,98
T7,,,S368,99
T7,,,S369,100
T7,10:35:30,10:36:00,S247,101
T7,,,S295,102
T7,,,S296,103
T7,,,S297,104
T7,,,S298,105
T7,,,S302,106
T7,,,S303,107
T7,,,S304,108
T7,,,S435,109
T7,,,S436,110
T7,,,S437,111
T7,,,S438,112
T7,,,S439,113
T7,,,S440,114
T7,,,S441,115
T7,,,S442,116
T7,,,S443,117
T7,,,S444,118
T7,,,S445,119
T7,,,S446,120
T7,,,S447,121
T7,,,S448,122
T7,,,S449,123
T7,,,S450,124
T7,10:50:00,10:50:00,S164,125
T8,10:00:00,10:00:00,S164,0
T8,,,S165,1
T8,,,S166,2
T8,,,S167,3
T8,,,S372,4
T8,,,S373,5
T8,,,S444,6
T8,,,S374,7
T8,,,S375,8
T8,,,S376,9
T8,,,S377,10
T8,,,S378,11
T8,,,S240,12
T8,,,S241,13
T8,,,S242,14
T8,,,S304,15
T8,,,S459,16
T8,,,S460,17
T8,10:13:30,10:14:00,S247,18
T8,,,S306,19
T8,,,S305,20
T8,,,S307,21
T8,,,S379,22
T8,,,S380,23
T8,,,S381,24
T8,,,S382,25
T8,,,S489,26
T8,,,S383,27
T8,,,S384,28
T8,,,S385,29
T8,,,S386,30
T8,,,S387,31
T8,,,S272,32
T8,10:26:30,10:27:00,S334,33
T8,,,S273,34
T8,,,S274,35
T8,,,S388,36
T8,,,S389,37
T8,,,S390,38
T8,,,S391,39
T8,,,S392,40
T8,,,S393,41
T8,,,S395,42
T8,,,S396,43
T8,,,S451,44
T8,,,S452,45
T8,,,S453,46
T8,,,S454,47
T8,,,S455,48
T8,,,S456,49
T8,,,S457,50
T8,,,S458,51
T8,,,S397,52
T8,,,S398,53
T8,,,S399,54
T8,,,S400,55
T8,,,S401,56
T8,,,S402,57
T8,,,S403,58
T8,,,S404,59
T8,10:51:30,10:52:00,S497,60
T8,11:04:30,11:05:00,S498,61
T8,,,S406,62
T8,,,S480,63
T8,,,S407,64
T8,,,S408,65
T8,,,S409,66
T8,,,S410,67
T8,,,S458,68
T8,,,S457,69
T8,,,S456,70
T8,,,S455,71
T8,,,S454,72
T8,,,S453,73
T8,,,S452,74
T8,,,S451,75
T8,,,S415,76
T8,,,S416,77
T8,,,S417,78
T8,,,S418,79
T8,,,S419,80
T8,,,S421,81
T8,,,S420,82
T8,,,S422,83
T8,,,S423,84
T8,,,S424,85
T8,11:26:30,11:27:00,S334,86
T8,,,S335,87
T8,,,S336,88
T8,,,S425,89
T8,,,S426,90
T8,,,S427,91
T8,,,S429,92
T8,,,S430,93
T8,,,S431,94
T8,,,S432,95
T8,,,S364,96
T8,,,S366,97
T8,,,S367,98
T8,,,S368,99
T8,,,S369,100
T8,11:35:30,11:36:00,S247,101
T8,,,S295,102
T8,,,S296,103
T8,,,S297,104
T8,,,S298,105
T8,,,S302,106
T8,,,S303,107
T8,,,S304,108
T8,,,S435,109
T8,,,S436,110
T8,,,S437,111
T8,,,S438,112
T8,,,S439,113
T8,,,S440,114
T8,,,S441,115
T8,,,S442,116
T8,,,S443,117
T8,,,S444,118
T8,,,S445,119
T8,,,S446,120
T8,,,S447,121
T8,,,S448,122
T8,,,S449,123
T8,,,S450,124
T8,11:50:00,11:50:00,S164,125
T9,11:00:00,11:00:00,S164,0
T9,,,S165,1
T9,,,S166,2
T9,,,S167,3
T9,,,S372,4
T9,,,S373,5
T9,,,S444,6
T9,,,S374,7
T9,,,S375,8
T9,,,S376,9
T9,,,S377,10
T9,,,S378,11
T9,,,S240,12
T9,,,S241,13
T9,,,S242,14
T9,,,S304,15
T9,,,S459,16
T9,,,S460,17
T9,11:13:30,11:14:00,S247,18
T9,,,S306,19
T9,,,S305,20
T9,,,S307,21
T9,,,S379,22
T9,,,S380,23
T9,,,S381,24
T9,,,S382,25
T9,,,S489,26
T9,,,S383,27
T9,,,S384,28
T9,,,S385,29
T9,,,S386,30
T9,,,S387,31
T9,,,S272,32
T9,11:26:30,11:27:00,S334,33
T9,,,S273,34
T9,,,S274,35
T9,,,S388,36
T9,,,S389,37
T9,,,S390,38
T9,,,S391,39
T9,,,S392,40
T9,,,S393,41
T9,,,S395,42
T9,,,S396,43
T9,,,S451,44
T9,,,S452,45
T9,,,S453,46
T9,,,S454,47
T9,,,S455,48
T9,,,S456,49
T9,,,S457,50
T9,,,S458,51
T9,,,S397,52
T9,,,S398,53
T9,,,S399,54
T9,,,S400,55
T9,,,S401,56
T9,,,S402,57
T9,,,S403,58
T9,,,S404,59
T9,11:51:30,11:52:00,S497,60
T9,12:04:30,12:05:00,S498,61
T9,,,S406,62
T9,,,S480,63
T9,,,S407,64
T9,,,S408,65
T9,,,S409,66
T9,,,S410,67
T9,,,S458,68
T9,,,S457,69
T9,,,S456,70
T9,,,S455,71
T9,,,S454,72
T9,,,S453,73
T9,,,S452,74
T9,,,S451,75
T9,,,S415,76
T9,,,S416,77
T9,,,S417,78
T9,,,S418,79
T9,,,S419,80
T9,,,S421,81
T9,,,S420,82
T9,,,S422,83
T9,,,S423,84
T9,,,S424,85
T9,12:26:30,12:27:00,S334,86
T9,,,S335,87
T9,,,S336,88
T9,,,S425,89
T9,,,S426,90
T9,,,S427,91
T9,,,S429,92
T9,,,S430,93
T9,,,S431,94
T9,,,S432,95
T9,,,S364,96
T9,,,S366,97
T9,,,S367,98
T9,,,S368,99
T9,,,S369,100
T9,12:35:30,12:36:00,S247,101
T9,,,S295,102
T9,,,S296,103
T9,,,S297,104
T9,,,S298,105
T9,,,S302,106
T9,,,S303,107
T9,,,S304,108
T9,,,S435,109
T9,,,S436,110
T9,,,S437,111
T9,,,S438,112
T9,,,S439,113
T9,,,S440,114
T9,,,S441,115
T9,,,S442,116
T9,,,S443,117
T9,,,S444,118
T9,,,S445,119
T9,,,S446,120
T9,,,S447,121
T9,,,S448,122
T9,,,S449,123
T9,,,S450,124
T9,12:50:00,12:50:00,S164,125
T10,12:00:00,12:00:00,S164,0
T10,,,S165,1
T10,,,S166,2
T10,,,S167,3
T10,,,S372,4
T10,,,S373,5
T10,,,S444,6
T10,,,S374,7
T10,,,S375,8
T10,,,S376,9
T10,,,S377,10
T10,,,S378,11
T10,,,S240,12
T10,,,S241,13
T10,,,S242,14
T10,,,S304,15
T10,,,S459,16
T10,,,S460,17
T10,12:13:30,12:14:00,S247,18
T10,,,S306,19
T10,,,S305,20
T10,,,S307,21
T10,,,S379,22
T10,,,S380,23
T10,,,S381,24
T10,,,S382,25
T10,,,S489,26
T10,,,S383,27
T10,,,S384,28
T10,,,S385,29
T10,,,S386,30
T10,,,S387,31
T10,,,S272,32
T10,12:26:30,12:27:00,S334,33
T10,,,S273,34
T10,,,S274,35
T10,,,S388,36
T10,,,S389,37
T10,,,S390,38
T10,,,S391,39
T10,,,S392,40
T10,,,S393,41
T10,,,S395,42
T10,,,S396,43
T10,,,S451,44
T10,,,S452,45
T10,,,S453,46
T10,,,S454,47
T10,,,S455,48
T10,,,S456,49
T10,,,S457,50
T10,,,S458,51
T10,,,S397,52
T10,,,S398,53
T10,,,S399,54
T10,,,S400,55
T10,,,S401,56
T10,,,S402,57
T10,,,S403,58
T10,,,S404,59
T10,12:51:30,12:52:00,S497,60
T10,13:04:30,13:05:00,S498,61
T10,,,S406,62
T10,,,S480,63
T10,,,S407,64
T10,,,S408,65
T10,,,S409,66
T10,,,S410,67
T10,,,S458,68
T10,,,S457,69
T10,,,S456,70
T10,,,S455,71
T10,,,S454,72
T10,,,S453,73
T10,,,S452,74
T10,,,S451,75
T10,,,S415,76
T10,,,S416,77
T10,,,S417,78
T10,,,S418,79
T10,,,S419,80
T10,,,S421,81
T10,,,S420,82
T10,,,S422,83
T10,,,S423,84
T10,,,S424,85
T10,13:26:30,13:27:00,S334,86
T10,,,S335,87
T10,,,S336,88
T10,,,S425,89
T10,,,S426,90
T10,,,S427,91
T10,,,S429,92
T10,,,S430,93
T10,,,S431,94
T10,,,S432,95
T10,,,S364,96
T10,,,S366,97
T10,,,S367,98
T10,,,S368,99
T10,,,S369,100
T10,13:35:30,13:36:00,S247,101
T10,,,S295,102
T10,,,S296,103
T10,,,S297,104
T10,,,S298,105
T10,,,S302,106
T10,,,S303,107
T10,,,S304,108
T10,,,S435,109
T10,,,S436,110
T10,,,S437,111
T10,,,S438,112
T10,,,S439,113
T10,,,S440,114
T10,,,S441,115
T10,,,S442,116
T10,,,S443,117
T10,,,S444,118
T10,,,S445,119
T10,,,S446,120
T10,,,S447,121
T10,,,S448,122
T10,,,S449,123
T10,,,S450,124
T10,13:50:00,13:50:00,S164,125
T11,13:00:00,13:00:00,S164,0
T11,,,S165,1
T11,,,S166,2
T11,,,S167,3
T11,,,S372,4
T11,,,S373,5
T11,,,S444,6
T11,,,S374,7
T11,,,S375,8
T11,,,S376,9
T11,,,S377,10
T11,,,S378,11
T11,,,S240,12
T11,,,S241,13
T11,,,S242,14
T11,,,S304,15
T11,,,S459,16
T11,,,S460,17
T11,13:13:30,13:14:00,S247,18
T11,,,S306,19
T11,,,S305,20
T11,,,S307,21
T11,,,S379,22
T11,,,S380,23
T11,,,S381,24
T11,,,S382,25
T11,,,S489,26
T11,,,S383,27
T11,,,S384,28
T11,,,S385,29
T11,,,S386,30
T11,,,S387,31
T11,,,S272,32
T11,13:26:30,13:27:00,S334,33
T11,,,S273,34
T11,,,S274,35
T11,,,S388,36
T11,,,S389,37
T11,,,S390,38
T11,,,S391,39
T11,,,S392,40
T11,,,S393,41
T11,,,S395,42
T11,,,S396,43
T11,,,S451,44
T11,,,S452,45
T11,,,S453,46
T11,,,S454,47
T11,,,S455,48
T11,,,S456,49
T11,,,S457,50
T11,,,S458,51
T11,,,S397,52
T11,,,S398,53
T11,,,S399,54
T11,,,S400,55
T11,,,S401,56
T11,,,S402,57
T11,,,S403,58
T11,,,S404,59
T11,13:51:30,13:52:00,S497,60
T11,14:04:30,14:05:00,S498,61
T11,,,S406,62
T11,,,S480,63
T11,,,S407,64
T11,,,S408,65
T11,,,S409,66
T11,,,S410,67
T11,,,S458,68
T11,,,S457,69
T11,,,S456,70
T11,,,S455,71
T11,,,S454,72
T11,,,S453,73
T11,,,S452,74
T11,,,S451,75
T11,,,S415,76
T11,,,S416,77
T11,,,S417,78
T11,,,S418,79
T11,,,S419,80
T11,,,S421,81
T11,,,S420,82
T11,,,S422,83
T11,,,S423,84
T11,,,S424,85
T11,14:26:30,14:27:00,S334,86
T11,,,S335,87
T11,,,S336,88
T11,,,S425,89
T11,,,S426,90
T11,,,S427,91
T11,,,S429,92
T11,,,S430,93
T11,,,S431,94
T11,,,S432,95
T11,,,S364,96
T11,,,S366,97
T11,,,S367,98
T11,,,S368,99
T11,,,S369,100
T11,14:35:30,14:36:00,S247,101
T11,,,S295,102
T11,,,S296,103
T11,,,S297,104
T11,,,S298,105
T11,,,S302,106
T11,,,S303,107
T11,,,S304,108
T11,,,S435,109
T11,,,S436,110
T11,,,S437,111
T11,,,S438,112
T11,,,S439,113
T11,,,S440,114
T11,,,S441,115
T11,,,S442,116
T11,,,S443,117
T11,,,S444,118
T11,,,S445,119
T11,,,S446,120
T11,,,S447,121
T11,,,S448,122
T11,,,S449,123
T11,,,S450,124
T11,14:50:00,14:50:00,S164,125
T12,14:00:00,14:00:00,S164,0
T12,,,S165,1
T12,,,S166,2
T12,,,S167,3
T12,,,S372,4
T12,,,S373,5
T12,,,S444,6
T12,,,S374,7
T12,,,S375,8
T12,,,S376,9
T12,,,S377,10
T12,,,S378,11
T12,,,S240,12
T12,,,S241,13
T12,,,S242,14
T12,,,S304,15
T12,,,S459,16
T12,,,S460,17
T12,14:13:30,14:14:00,S247,18
T12,,,S306,19
T12,,,S305,20
T12,,,S307,21
T12,,,S379,22
T12,,,S380,23
T12,,,S381,24
T12,,,S382,25
T12,,,S489,26
T12,,,S383,27
T12,,,S384,28
T12,,,S385,29
T12,,,S386,30
T12,,,S387,31
T12,,,S272,32
T12,14:26:30,14:27:00,S334,33
T12,,,S273,34
T12,,,S274,35
T12,,,S388,36
T12,,,S389,37
T12,,,S390,38
T12,,,S391,39
T12,,,S392,40
T12,,,S393,41
T12,,,S395,42
T12,,,S396,43
T12,,,S451,44
T12,,,S452,45
T12,,,S453,46
T12,,,S454,47
T12,,,S455,48
T12,,,S456,49
T12,,,S457,50
T12,,,S458,51
T12,,,S397,52
T12,,,S398,53
T12,,,S399,54
T12,,,S400,55
T12,,,S401,56
T12,,,S402,57
T12,,,S403,58
T12,,,S404,59
T12,14:51:30,14:52:00,S497,60
T12,15:04:30,15:05:00,S498,61
T12,,,S406,62
T12,,,S480,63
T12,,,S407,64
T12,,,S408,65
T12,,,S409,66
T12,,,S410,67
T12,,,S458,68
T12,,,S457,69
T12,,,S456,70
T12,,,S455,71
T12,,,S454,72
T12,,,S453,73
T12,,,S452,74
T12,,,S451,75
T12,,,S415,76
T12,,,S416,77
T12,,,S417,78
T12,,,S418,79
T12,,,S419,80
T12,,,S421,81
T12,,,S420,82
T12,,,S422,83
T12,,,S423,84
T12,,,S424,85
T12,15:26:30,15:27:00,S334,86
T12,,,S335,87
T12,,,S336,88
T12,,,S425,89
T12,,,S426,90
T12,,,S427,91
T12,,,S429,92
T12,,,S430,93
T12,,,S431,94
T12,,,S432,95
T12,,,S364,96
T12,,,S366,97
T12,,,S367,98
T12,,,S368,99
T12,,,S369,100
T12,15:35:30,15:36:00,S247,101
T12,,,S295,102
T12,,,S296,103
T12,,,S297,104
T12,,,S298,105
T12,,,S302,106
T12,,,S303,107
T12,,,S304,108
T12,,,S435,109
T12,,,S436,110
T12,,,S437,111
T12,,,S438,112
T12,,,S439,113
T12,,,S440,114
T12,,,S441,115
T12,,,S442,116
T12,,,S443,117
T12,,,S444,118
T12,,,S445,119
T12,,,S446,120
T12,,,S447,121
T12,,,S448,122
T12,,,S449,123
T12,,,S450,124
T12,15:50:00,15:50:00,S164,125
T13,15:00:00,15:00:00,S164,0
T13,,,S165,1
T13,,,S166,2
T13,,,S167,3
T13,,,S372,4
T13,,,S373,5
T13,,,S444,6
T13,,,S374,7
T13,,,S375,8
T13,,,S376,9
T13,,,S377,10
T13,,,S378,11
T13,,,S240,12
T13,,,S241,13
T13,,,S242,14
T13,,,S304,15
T13,,,S459,16
T13,,,S460,17
T13,15:13:30,15:14:00,S247,18
T13,,,S306,19
T13,,,S305,20
T13,,,S307,21
T13,,,S379,22
T13,,,S380,23
T13,,,S381,24
T13,,,S382,25
T13,,,S489,26
T13,,,S383,27
T13,,,S384,28
T13,,,S385,29
T13,,,S386,30
T13,,,S387,31
T13,,,S272,32
T13,15:26:30,15:27:00,S334,33
T13,,,S273,34
T13,,,S274,35
T13,,,S388,36
T13,,,S389,37
T13,,,S390,38
T13,,,S391,39
T13,,,S392,40
T13,,,S393,41
T13,,,S395,42
T13,,,S396,43
T13,,,S451,44
T13,,,S452,45
T13,,,S453,46
T13,,,S454,47
T13,,,S455,48
T13,,,S456,49
T13,,,S457,50
T13,,,S458,51
T13,,,S397,52
T13,,,S398,53
T13,,,S399,54
T13,,,S400,55
T13,,,S401,56
T13,,,S402,57
T13,,,S403,58
T13,,,S404,59
T13,15:51:30,15:52:00,S497,60
T13,16:04:30,16:05:00,S498,61
T13,,,S406,62
T13,,,S480,63
T13,,,S407,64
T13,,,S408,65
T13,,,S409,66
T13,,,S410,67
T13,,,S458,68
T13,,,S457,69
T13,,,S456,70
T13,,,S455,71
T13,,,S454,72
T13,,,S453,73
T13,,,S452,74
T13,,,S451,75
T13,,,S415,76
T13,,,S416,77
T13,,,S417,78
T13,,,S418,79
T13,,,S419,80
T13,,,S421,81
T13,,,S420,82
T13,,,S422,83
T13,,,S423,84
T13,,,S424,85
T13,16:26:30,16:27:00,S334,86
T13,,,S335,87
T13,,,S336,88
T13,,,S425,89
T13,,,S426,90
T13,,,S427,91
T13,,,S429,92
T13,,,S430,93
T13,,,S431,94
T13,,,S432,95
T13,,,S364,96
T13,,,S366,97
T13,,,S367,98
T13,,,S368,99
T13,,,S369,100
T13,16:35:30,16:36:00,S247,101
T13,,,S295,102
T13,,,S296,103
T13,,,S297,104
T13,,,S298,105
T13,,,S302,106
T13,,,S303,107
T13,,,S304,108
T13,,,S435,109
T13,,,S436,110
T13,,,S437,111
T13,,,S438,112
T13,,,S439,113
T13,,,S440,114
T13,,,S441,115
T13,,,S442,116
T13,,,S443,117
T13,,,S444,118
T13,,,S445,119
T13,,,S446,120
T13,,,S447,121
T13,,,S448,122
T13,,,S449,123
T13,,,S450,124
T13,16:50:00,16:50:00,S164,125
T14,15:00:00,15:00:00,S164,0
T14,,,S165,1
T14,,,S166,2
T14,,,S167,3
T14,,,S372,4
T14,,,S373,5
T14,,,S444,6
T14,,,S374,7
T14,,,S375,8
T14,,,S376,9
T14,,,S377,10
T14,,,S378,11
T14,,,S240,12
T14,,,S241,13
T14,,,S242,14
T14,,,S304,15
T14,,,S459,16
T14,,,S460,17
T14,15:13:30,15:14:00,S247,18
T14,,,S306,19
T14,,,S305,20
T14,,,S307,21
T14,,,S379,22
T14,,,S380,23
T14,,,S381,24
T14,,,S382,25
T14,,,S489,26
T14,,,S383,27
T14,,,S384,28
T14,,,S385,29
T14,,,S386,30
T14,,,S387,31
T14,,,S272,32
T14,15:26:30,15:27:00,S334,33
T14,,,S273,34
T14,,,S274,35
T14,,,S388,36
T14,,,S389,37
T14,,,S390,38
T14,,,S391,39
T14,,,S392,40
T14,,,S393,41
T14,,,S395,42
T14,,,S396,43
T14,,,S451,44
T14,,,S452,45
T14,,,S453,46
T14,,,S454,47
T14,,,S455,48
T14,,,S456,49
T14,,,S457,50
T14,,,S458,51
T14,,,S397,52
T14,,,S398,53
T14,,,S399,54
T14,,,S400,55
T14,,,S401,56
T14,,,S402,57
T14,,,S403,58
T14,,,S404,59
T14,15:51:30,15:52:00,S497,60
T14,16:04:30,16:05:00,S498,61
T14,,,S406,62
T14,,,S480,63
T14,,,S407,64
T14,,,S408,65
T14,,,S409,66
T14,,,S410,67
T14,,,S458,68
T14,,,S457,69
T14,,,S456,70
T14,,,S455,71
T14,,,S454,72
T14,,,S453,73
T14,,,S452,74
T14,,,S451,75
T14,,,S415,76
T14,,,S416,77
T14,,,S417,78
T14,,,S418,79
T14,,,S419,80
T14,,,S421,81
T14,,,S420,82
T14,,,S422,83
T14,,,S423,84
T14,,,S424,85
T14,16:26:30,16:27:00,S334,86
T14,,,S335,87
T14,,,S336,88
T14,,,S425,89
T14,,,S426,90
T14,,,S427,91
T14,,,S429,92
T14,,,S430,93
T14,,,S431,94
T14,,,S432,95
T14,,,S364,96
T14,,,S366,97
T14,,,S367,98
T14,,,S368,99
T14,,,S369,100
T14,16:35:30,16:36:00,S247,101
T14,,,S295,102
T14,,,S296,103
T14,,,S297,104
T14,,,S298,105
T14,,,S302,106
T14,,,S303,107
T14,,,S304,108
T14,,,S435,109
T14,,,S436,110
T14,,,S437,111
T14,,,S438,112
T14,,,S439,113
T14,,,S440,114
T14,,,S441,115
T14,,,S442,116
T14,,,S443,117
T14,,,S444,118
T14,,,S445,119
T14,,,S446,120
T14,,,S447,121
T14,,,S448,122
T14,,,S449,123
T14,,,S450,124
T14,16:50:00,16:50:00,S164,125
T15,16:00:00,16:00:00,S164,0
T15,,,S165,1
T15,,,S166,2
T15,,,S167,3
T15,,,S372,4
T15,,,S373,5
T15,,,S444,6
T15,,,S374,7
T15,,,S375,8
T15,,,S376,9
T15,,,S377,10
T15,,,S378,11
T15,,,S240,12
T15,,,S241,13
T15,,,S242,14
T15,,,S304,15
T15,,,S459,16
T15,,,S460,17
T15,16:13:30,16:14:00,S247,18
T15,,,S306,19
T15,,,S305,20
T15,,,S307,21
T15,,,S379,22
T15,,,S380,23
T15,,,S381,24
T15,,,S382,25
T15,,,S489,26
T15,,,S383,27
T15,,,S384,28
T15,,,S385,29
T15,,,S386,30
T15,,,S387,31
T15,,,S272,32
T15,16:26:30,16:27:00,S334,33
T15,,,S273,34
T15,,,S274,35
T15,,,S388,36
T15,,,S389,37
T15,,,S390,38
T15,,,S391,39
T15,,,S392,40
T15,,,S393,41
T15,,,S395,42
T15,,,S396,43
T15,,,S451,44
T15,,,S452,45
T15,,,S453,46
T15,,,S454,47
T15,,,S455,48
T15,,,S456,49
T15,,,S457,50
T15,,,S458,51
T15,,,S397,52
T15,,,S398,53
T15,,,S399,54
T15,,,S400,55
T15,,,S401,56
T15,,,S402,57
T15,,,S403,58
T15,,,S404,59
T15,16:51:30,16:52:00,S497,60
T15,17:04:30,17:05:00,S498,61
T15,,,S406,62
T15,,,S480,63
T15,,,S407,64
T15,,,S408,65
T15,,,S409,66
T15,,,S410,67
T15,,,S458,68
T15,,,S457,69
T15,,,S456,70
T15,,,S455,71
T15,,,S454,72
T15,,,S453,73
T15,,,S452,74
T15,,,S451,75
T15,,,S415,76
T15,,,S416,77
T15,,,S417,78
T15,,,S418,79
T15,,,S419,80
T15,,,S421,81
T15,,,S420,82
T15,,,S422,83
T15,,,S423,84
T15,,,S424,85
T15,17:26:30,17:27:00,S334,86
T15,,,S335,87
T15,,,S336,88
T15,,,S425,89
T15,,,S426,90
T15,,,S427,91
T15,,,S429,92
T15,,,S430,93
T15,,,S431,94
T15,,,S432,95
T15,,,S364,96
T15,,,S366,97
T15,,,S367,98
T15,,,S368,99
T15,,,S369,100
T15,17:35:30,17:36:00,S247,101
T15,,,S295,102
T15,,,S296,103
T15,,,S297,104
T15,,,S298,105
T15,,,S302,106
T15,,,S303,107
T15,,,S304,108
T15,,,S435,109
T15,,,S436,110
T15,,,S437,111
T15,,,S438,112
T15,,,S439,113
T15,,,S440,114
T15,,,S441,115
T15,,,S442,116
T15,,,S443,117
T15,,,S444,118
T15,,,S445,119
T15,,,S446,120
T15,,,S447,121
T15,,,S448,122
T15,,,S449,123
T15,,,S450,124
T15,17:50:00,17:50:00,S164,125
T16,17:00:00,17:00:00,S164,0
T16,,,S165,1
T16,,,S166,2
T16,,,S167,3
T16,,,S372,4
T16,,,S373,5
T16,,,S444,6
T16,,,S374,7
T16,,,S375,8
T16,,,S376,9
T16,,,S377,10
T16,,,S378,11
T16,,,S240,12
T16,,,S241,13
T16,,,S242,14
T16,,,S304,15
T16,,,S459,16
T16,,,S460,17
T16,17:13:30,17:14:00,S247,18
T16,,,S306,19
T16,,,S305,20
T16,,,S307,21
T16,,,S379,22
T16,,,S380,23
T16,,,S381,24
T16,,,S382,25
T16,,,S489,26
T16,,,S383,27
T16,,,S384,28
T16,,,S385,29
T16,,,S386,30
T16,,,S387,31
T16,,,S272,32
T16,17:26:30,17:27:00,S334,33
T16,,,S273,34
T16,,,S274,35
T16,,,S388,36
T16,,,S389,37
T16,,,S390,38
T16,,,S391,39
T16,,,S392,40
T16,,,S393,41
T16,,,S395,42
T16,,,S396,43
T16,,,S451,44
T16,,,S452,45
T16,,,S453,46
T16,,,S454,47
T16,,,S455,48
T16,,,S456,49
T16,,,S457,50
T16,,,S458,51
T16,,,S397,52
T16,,,S398,53
T16,,,S399,54
T16,,,S400,55
T16,,,S401,56
T16,,,S402,57
T16,,,S403,58
T16,,,S404,59
T16,17:51:30,17:52:00,S497,60
T16,18:04:30,18:05:00,S498,61
T16,,,S406,62
T16,,,S480,63
T16,,,S407,64
T16,,,S408,65
T16,,,S409,66
T16,,,S410,67
T16,,,S458,68
T16,,,S457,69
T16,,,S456,70
T16,,,S455,71
T16,,,S454,72
T16,,,S453,73
T16,,,S452,74
T16,,,S451,75
T16,,,S415,76
T16,,,S416,77
T16,,,S417,78
T16,,,S418,79
T16,,,S419,80
T16,,,S421,81
T16,,,S420,82
T16,,,S422,83
T16,,,S423,84
T16,,,S424,85
T16,18:26:30,18:27:00,S334,86
T16,,,S335,87
T16,,,S336,88
T16,,,S425,89
T16,,,S426,90
T16,,,S427,91
T16,,,S429,92
T16,,,S430,93
T16,,,S431,94
T16,,,S432,95
T16,,,S364,96
T16,,,S366,97
T16,,,S367,98
T16,,,S368,99
T16,,,S369,100
T16,18:35:30,18:36:00,S247,101
T16,,,S295,102
T16,,,S296,103
T16,,,S297,104
T16,,,S298,105
T16,,,S302,106
T16,,,S303,107
T16,,,S304,108
T16,,,S435,109
T16,,,S436,110
T16,,,S437,111
T16,,,S438,112
T16,,,S439,113
T16,,,S440,114
T16,,,S441,115
T16,,,S442,116
T16,,,S443,117
T16,,,S444,118
T16,,,S445,119
T16,,,S446,120
T16,,,S447,121
T16,,,S448,122
T16,,,S449,123
T16,,,S450,124
T16,18:50:00,18:50:00,S164,125
T17,18:00:00,18:00:00,S164,0
T17,,,S165,1
T17,,,S166,2
T17,,,S167,3
T17,,,S372,4
T17,,,S373,5
T17,,,S444,6
T17,,,S374,7
T17,,,S375,8
T17,,,S376,9
T17,,,S377,10
T17,,,S378,11
T17,,,S240,12
T17,,,S241,13
T17,,,S242,14
T17,,,S304,15
T17,,,S459,16
T17,,,S460,17
T17,18:13:30,18:14:00,S247,18
T17,,,S306,19
T17,,,S305,20
T17,,,S307,21
T17,,,S379,22
T17,,,S380,23
T17,,,S381,24
T17,,,S382,25
T17,,,S489,26
T17,,,S383,27
T17,,,S384,28
T17,,,S385,29
T17,,,S386,30
T17,,,S387,31
T17,,,S272,32
T17,18:26:30,18:27:00,S334,33
T17,,,S273,34
T17,,,S274,35
T17,,,S388,36
T17,,,S389,37
T17,,,S390,38
T17,,,S391,39
T17,,,S392,40
T17,,,S393,41
T17,,,S395,42
T17,,,S396,43
T17,,,S451,44
T17,,,S452,45
T17,,,S453,46
T17,,,S454,47
T17,,,S455,48
T17,,,S456,49
T17,,,S457,50
T17,,,S458,51
T17,,,S397,52
T17,,,S398,53
T17,,,S399,54
T17,,,S400,55
T17,,,S401,56
T17,,,S402,57
T17,,,S403,58
T17,,,S404,59
T17,18:51:30,18:52:00,S497,60
T17,19:04:30,19:05:00,S498,61
T17,,,S406,62
T17,,,S480,63
T17,,,S407,64
T17,,,S408,65
T17,,,S409,66
T17,,,S410,67
T17,,,S458,68
T17,,,S457,69
T17,,,S456,70
T17,,,S455,71
T17,,,S454,72
T17,,,S453,73
T17,,,S452,74
T17,,,S451,75
T17,,,S415,76
T17,,,S416,77
T17,,,S417,78
T17,,,S418,79
T17,,,S419,80
T17,,,S421,81
T17,,,S420,82
T17,,,S422,83
T17,,,S423,84
T17,,,S424,85
T17,19:26:30,19:27:00,S334,86
T17,,,S335,87
T17,,,S336,88
T17,,,S425,89
T17,,,S426,90
T17,,,S427,91
T17,,,S429,92
T17,,,S430,93
T17,,,S431,94
T17,,,S432,95
T17,,,S364,96
T17,,,S366,97
T17,,,S367,98
T17,,,S368,99
T17,,,S369,100
T17,19:35:30,19:36:00,S247,101
T17,,,S295,102
T17,,,S296,103
T17,,,S297,104
T17,,,S298,105
T17,,,S302,106
T17,,,S303,107
T17,,,S304,108
T17,,,S435,109
T17,,,S436,110
T17,,,S437,111
T17,,,S438,112
T17,,,S439,113
T17,,,S440,114
T17,,,S441,115
T17,,,S442,116
T17,,,S443,117
T17,,,S444,118
T17,,,S445,119
T17,,,S446,120
T17,,,S447,121
T17,,,S448,122
T17,,,S449,123
T17,,,S450,124
T17,19:50:00,19:50:00,S164,125
T18,19:00:00,19:00:00,S164,0
T18,,,S165,1
T18,,,S166,2
T18,,,S167,3
T18,,,S372,4
T18,,,S373,5
T18,,,S444,6
T18,,,S374,7
T18,,,S375,8
T18,,,S376,9
T18,,,S377,10
T18,,,S378,11
T18,,,S240,12
T18,,,S241,13
T18,,,S242,14
T18,,,S304,15
T18,,,S459,16
T18,,,S460,17
T18,19:13:30,19:14:00,S247,18
T18,,,S306,19
T18,,,S305,20
T18,,,S307,21
T18,,,S379,22
T18,,,S380,23
T18,,,S381,24
T18,,,S382,25
T18,,,S489,26
T18,,,S383,27
T18,,,S384,28
T18,,,S385,29
T18,,,S386,30
T18,,,S387,31
T18,,,S272,32
T18,19:26:30,19:27:00,S334,33
T18,,,S273,34
T18,,,S274,35
T18,,,S388,36
T18,,,S389,37
T18,,,S390,38
T18,,,S391,39
T18,,,S392,40
T18,,,S393,41
T18,,,S395,42
T18,,,S396,43
T18,,,S451,44
T18,,,S452,45
T18,,,S453,46
T18,,,S454,47
T18,,,S455,48
T18,,,S456,49
T18,,,S457,50
T18,,,S458,51
T18,,,S397,52
T18,,,S398,53
T18,,,S399,54
T18,,,S400,55
T18,,,S401,56
T18,,,S402,57
T18,,,S403,58
T18,,,S404,59
T18,19:51:30,19:52:00,S497,60
T18,20:04:30,20:05:00,S498,61
T18,,,S406,62
T18,,,S480,63
T18,,,S407,64
T18,,,S408,65
T18,,,S409,66
T18,,,S410,67
T18,,,S458,68
T18,,,S457,69
T18,,,S456,70
T18,,,S455,71
T18,,,S454,72
T18,,,S453,73
T18,,,S452,74
T18,,,S451,75
T18,,,S415,76
T18,,,S416,77
T18,,,S417,78
T18,,,S418,79
T18,,,S419,80
T18,,,S421,81
T18,,,S420,82
T18,,,S422,83
T18,,,S423,84
T18,,,S424,85
T18,20:26:30,20:27:00,S334,86
T18,,,S335,87
T18,,,S336,88
T18,,,S425,89
T18,,,S426,90
T18,,,S427,91
T18,,,S429,92
T18,,,S430,93
T18,,,S431,94
T18,,,S432,95
T18,,,S364,96
T18,,,S366,97
T18,,,S367,98
T18,,,S368,99
T18,,,S369,100
T18,20:35:30,20:36:00,S247,101
T18,,,S295,102
T18,,,S296,103
T18,,,S297,104
T18,,,S298,105
T18,,,S302,106
T18,,,S303,107
T18,,,S304,108
T18,,,S435,109
T18,,,S436,110
T18,,,S437,111
T18,,,S438,112
T18,,,S439,113
T18,,,S440,114
T18,,,S441,115
T18,,,S442,116
T18,,,S443,117
T18,,,S444,118
T18,,,S445,119
T18,,,S446,120
T18,,,S447,121
T18,,,S448,122
T18,,,S449,123
T18,,,S450,124
T18,20:50:00,20:50:00,S164,125
