-87.358666601652,36.52797112112062
-87.3586837218367,36.52803888716471
-87.3586885042496,36.52805409433233
-87.3586902485801,36.52806972038162
-87.35868891098127,36.52808537253463
-87.3586845250731,36.52810065735689
-87.3586772010989,36.52811519064687
-87.35866712315364,36.52812860709364
-87.3586545445567,36.52814056945899
-87.35863978148521,36.52815077705502
-87.35862320502551,36.52815897330139
-87.35860523184653,36.52816495217585
-87.35843487410705,36.52820620483576
-87.35840804733587,36.5282132544266
-87.35832998963367,36.52823376653949
-87.35831139578978,36.52824047309611
-87.358294191802,36.52824926996435
-87.35827873602632,36.52825997390583
-87.35826045365937,36.52826818663719
-87.35824099792352,36.5282744000837
-87.35822070271914,36.52827850760972
-87.35812072910809,36.52830645286284
-87.35810433251206,36.52831547119886
-87.35808973458006,36.52832631749366
-87.35807724547436,36.52833876129563
-87.3580671305552,36.52835253821111
-87.35805960473122,36.52836735552149
-87.35805482791143,36.52838289840244
-87.35809330911285,36.52855891939571
-87.35816204432678,36.52877613130443
-87.3581963420379,36.5288806645252
-87.35821843438917,36.52896268183149
-87.35822313804151,36.52897622088667
-87.35823058681554,36.52898893220354
-87.35824056998597,36.52900045617817
-87.35825280513359,36.52901046679633
-87.35826694612118,36.52901868085662
-87.35828259289973,36.52902486598246
-87.35829930282371,36.52902884719605
-87.35831660316411,36.52903051186836
-87.35833400449263,36.52902981290564
-87.35835101452609,36.52902677008152
-87.35871162771714,36.52895000308179
-87.35889709327445,36.52891096523988
-87.35907095985107,36.52887261713521
-87.35908617359395,36.52886223393438
-87.3590989672969,36.5288499068167
-87.3591089652446,36.52883599779549
-87.35911587382739,36.52882091534029
-87.35911949016042,36.52880510238055
-87.35911970804459,36.52878902329871
-87.35911652108385,36.52877315029191
-87.35904157371128,36.52853294649314
-87.35886335275747,36.52801417195889
-87.35875472279641,36.5277020676812
-87.35874608914293,36.52768397843209
-87.35873373655608,36.52766735360498
-87.35871803166789,36.52765268663173
-87.35869944060448,36.52764041283366
-87.35867851516109,36.52763089650196
-87.35865587640966,36.52762442008472
-87.35863219627825,36.52762117580432
-87.35836924477789,36.52768171551684
-87.35807776780833,36.52774101587703
-87.35796155837146,36.52776973897478
-87.3576730142286,36.52782781326469
-87.35734348309603,36.52790780605575
-87.35695052319242,36.52799327674578
-87.356656151479,36.52805618278058
-87.35624265565514,36.52815022661623
-87.35591295801561,36.52822067939832
-87.35558473677168,36.52829111477041
-87.35532423122386,36.52834767771775
-87.35503580573668,36.52841289780398
-87.35470610592459,36.52848334729791
-87.35439851946694,36.52855116440635
-87.35406887981854,36.52862518820632
-87.35379512003023,36.52868428032954
-87.35353758631679,36.5287419984643
-87.35326673886287,36.52879867238985
-87.35306807994874,36.52884381002472
-87.35270315326683,36.52892776176073
-87.35243966915068,36.52898315943686
-87.35216155753999,36.52904706534167
-87.35189220545639,36.52910491173473
-87.3515993841676,36.52917255705779
-87.35134921186973,36.52922899620332
-87.35104303545687,36.52929321227826
-87.35065880156145,36.52937141170941
-87.35047187422896,36.52941164540864
-87.35030263001858,36.52944929742152
-87.35017751244564,36.52947572769678
-87.34998765098217,36.52951718555433
-87.34977860858542,36.52956004886437
-87.34955192332789,36.52960787713273
-87.34943267255693,36.52963185685544
-87.34931048805966,36.52965706134604
-87.34915742880126,36.52969095492318
-87.34888364128622,36.52974884392009
-87.34870850790196,36.52978775143856
-87.34853189733144,36.52982667512946
-87.34830666721727,36.52987329262481
-87.34814769904963,36.52990725061733
-87.34797104724551,36.52994378946058
-87.34777082404155,36.52998416675861
-87.34760590667146,36.53001580567671
-87.34737911711009,36.53005766980215
-87.347246592171,36.53008298709185
-87.34713468441301,36.53010449846965
-87.34691384308569,36.53014868011706
-87.34675778715173,36.53018021944222
-87.34661650130246,36.53021159454107
-87.3464355999389,36.53025890848316
-87.34630331819595,36.53029852891628
-87.34603222244382,36.53042791594278
-87.34585627945164,36.53050617221135
-87.34573170711762,36.53056478228488
-87.34558069024055,36.53063203135432
-87.34542528262833,36.53070171342759
-87.34524786139301,36.53077998519335
-87.34510271121968,36.53084478408896
-87.34496927558888,36.53090349167638
-87.34481380600933,36.53096959691496
-87.34465689972609,36.53103810236066
-87.34448374574913,36.53110678774533
-87.34436936868926,36.53115693766702
-87.34430195242092,36.53118868328866
-87.34418933620007,36.53125550486912
-87.34402854539042,36.53135624300705
-87.34378738883,36.53150913782883
-87.34358408706991,36.53162942226847
-87.34342187850508,36.53173375199683
-87.34319824152313,36.5318745291151
-87.34305938102513,36.53196190836899
-87.34291315521186,36.53205056126306
-87.34277573061476,36.53213553979988
-87.34265006140076,36.53221681130138
-87.34250383465543,36.53230546369328
-87.34236214007191,36.53240002692569
-87.34214072375571,36.5325378206823
-87.34194083652643,36.53266807927446
-87.34176371146049,36.5327816327769
-87.34164717777009,36.53286160987499
-87.34145158650014,36.5329839513243
-87.34128226617823,36.53308740295583
-87.3410997974521,36.53319958386863
-87.34092086105974,36.53331101009398
-87.34075067737629,36.5334159011873
-87.34054805403871,36.53354189558525
-87.34041993602919,36.53361842280138
-87.34031819900046,36.53368249747274
-87.34020589959107,36.53375098084504
-87.34004273123038,36.53385150131879
-87.33983738620968,36.53397394784672
-87.33976448218098,36.53401338181794
-87.33958101372021,36.53411913332155
-87.33948529721035,36.53417241062436
-87.33946596936299,36.5341826389085
-87.33944636073895,36.53419356445995
-87.33942921910391,36.53420692152503
-87.33941500226868,36.53422235336597
-87.33940408993735,36.5342394478322
-87.33939677355598,36.53425774836766
-87.33939324853462,36.53427676620451
-87.33939360901888,36.53429599341721
-87.33939784538489,36.5343149164876
-87.33940584448895,36.53433303002033
-87.3394173926998,36.53434985024065
-87.33959273676717,36.53449670461695
-87.33981759038873,36.53468807831126
-87.33999400424639,36.53484565042006
-87.3400452131192,36.53488585906801
-87.34022964069524,36.53504548830469
-87.34033763150957,36.53514086596955
-87.3404689690915,36.53525386902656
-87.34047712068234,36.53526549835042
-87.340482719904,36.53527807203005
-87.34048560571218,36.53529122843064
-87.34048569510682,36.53530458915726
-87.34048298551511,36.53531776993822
-87.34047755486819,36.53533039167715
-87.34046955935607,36.53534209135624
-87.34045922893974,36.53535253247715
-87.34044686073493,36.53536141473928
-87.34032287971435,36.53542072782516
-87.34020859895648,36.5354770722094
-87.34009084576067,36.53553774690831
-87.33997662534412,36.53559766711156
-87.33986777093884,36.53566038928457
-87.3397580907512,36.53572669718987
-87.33965112987207,36.53579655166234
-87.33954418093246,36.53586712124669
-87.33943814234362,36.53593911136154
-87.33933564867421,36.53601106222854
-87.33923496376212,36.53608513905559
-87.33913521345426,36.53616206684179
-87.3390372718943,36.53624112059533
-87.33894729454934,36.53631937099033
-87.33885473093244,36.53640194191801
-87.33876572438055,36.53648518884376
-87.33867239532955,36.53657492149004
-87.33858868185901,36.53665667916367
-87.33850067012628,36.53674635297445
-87.33841880160244,36.53683238220794
-87.3383431490424,36.53691905812379
-87.33826233613752,36.53701509037401
-87.33818863760335,36.53711247474305
-87.33812802724962,36.53719755384
-87.33806586230864,36.53729552620134
-87.3380012322143,36.53740497118638
-87.33794620578566,36.53750572608062
-87.33789295180988,36.53760646139039
-87.33784422611612,36.53771286944711
-87.33779902125932,36.5378178079563
-87.3377557342678,36.53793130938214
-87.33772018156063,36.53803041864781
-87.33768563621655,36.53813667019844
-87.33765558287232,36.53824644889242
-87.33763255931262,36.53835257333008
-87.33760959626082,36.53846227379648
-87.33758503013213,36.53858200670897
-87.33750002525109,36.53900642610051
-87.33745100126011,36.53925232868627
-87.33740855877782,36.53946811433277
-87.33736362667425,36.53969394216843
-87.33732119582503,36.53991044295488
-87.33727951784297,36.54011906665776
-87.33723456077755,36.54034346397537
-87.33719296711311,36.54055709406241
-87.33715065643706,36.54078074678639
-87.33711153966829,36.54098361939032
-87.33706826953733,36.54120299058043
-87.3370283507745,36.54141087934346
-87.33698508017967,36.54163025046788
-87.33695077205452,36.54180302564956
-87.33690994211354,36.54200949368354
-87.33688605432499,36.54211705801009
-87.33685699367602,36.54223326342692
-87.33683136937064,36.54234299289323
-87.33679869050741,36.54245494612729
-87.33676836792303,36.54254898987842
-87.33673034655206,36.54265957128944
-87.33669389196794,36.54275797463752
-87.33665139018538,36.54286574403449
-87.33661560385615,36.54295126386862
-87.33656950800808,36.54305621147734
-87.33652082559004,36.54316547960514
-87.33647288414264,36.54326615546641
-87.33642411673216,36.54337041710301
-87.3363770371907,36.54346965273899
-87.33632914378825,36.54357318935641
-87.33628296247457,36.54367313038797
-87.33623335660671,36.5437802625221
-87.33618458856248,36.54388452404184
-87.33613926904795,36.54398302482929
-87.3360912782113,36.54408083968374
-87.33603994748874,36.54419085207538
-87.3359989263719,36.54428143671131
-87.33594757118878,36.54439001864343
-87.33590057514074,36.54449426049735
-87.33584925598463,36.5446049879967
-87.33580477361828,36.54470061804538
-87.33575340580063,36.54480848467182
-87.3357097611913,36.54490124409242
-87.33566271613252,36.54500262501033
-87.33561392238542,36.5451054558399
-87.33556166766003,36.54521333212938
-87.33550754325391,36.54531550626623
-87.33544982478585,36.54541485859136
-87.33538852434359,36.54551210430592
-87.33532183286026,36.54560511730534
-87.33525238530601,36.54569243789437
-87.33517151129053,36.54578560693907
-87.33509924703419,36.5458636590341
-87.33501639431786,36.5459446889876
-87.33492648657224,36.54602794254781
-87.33483028925716,36.54610625788683
-87.33473840282267,36.54617737231757
-87.33464040817351,36.5462542765996
-87.33454676069371,36.54632612559463
-87.33444785510369,36.54640160905885
-87.33425354060546,36.54654967591193
-87.33405571603011,36.5466999270608
-87.33386050158224,36.54684728781134
-87.33366880785214,36.54699317884094
-87.33347276594364,36.54714412472506
-87.33327669913101,36.54729363987262
-87.33307366106112,36.54745038468957
-87.33284961395452,36.54762309745958
-87.33255467177116,36.54785023906678
-87.33225445766935,36.54808029917762
-87.33193059809437,36.54832778627758
-87.33170568370328,36.54850193702087
-87.33141424445665,36.54872689123216
-87.33119631066131,36.54889452631393
-87.33099940904727,36.54904762343416
-87.33091100117103,36.54911511994924
-87.33071321202577,36.5492682263186
-87.33052063222699,36.54941483716686
-87.33032195514156,36.54956795260438
-87.33012766125867,36.54971815828205
-87.32993071937929,36.54986910800365
-87.32973026713341,36.55002224188421
-87.32953946859153,36.55016954690093
-87.32933990126394,36.55032267040198
-87.32914120756499,36.55047506864683
-87.32894777157378,36.55062383225828
-87.32875082517946,36.55077478001131
-87.32865279492319,36.55085024890956
-87.32855384192763,36.55092358182106
-87.32845408653722,36.55100193079291
-87.32835603165043,36.55107596903486
-87.32825626383783,36.55115360263451
-87.3280567035645,36.55130743917096
-87.32795340138219,36.55138582654282
-87.32783522173455,36.55147582207488
-87.32774073555052,36.55155125139854
-87.32763042527648,36.55163472254977
-87.32753324326254,36.55170803520098
-87.32743167687984,36.55178425709789
-87.32722941796247,36.55193597572534
-87.32703151844679,36.55208335428634
-87.32683008436146,36.55223148650834
-87.32662430132197,36.5523846732974
-87.32638961254719,36.55255892055889
-87.32607611360261,36.55279197118185
-87.32597801822894,36.55286386183623
-87.32586594332753,36.55294806592642
-87.32576522418381,36.55302213108777
-87.3255594250094,36.55317460081884
-87.32536850301739,36.55331546225396
-87.32516356478007,36.55346649120088
-87.32496128519411,36.553617490743
-87.32475755136824,36.55376993648436
-87.32456136361142,36.55391419232785
-87.32422153526561,36.55416397814334
-87.32405222726872,36.55428981783999
-87.3238584008961,36.55443404671328
-87.32365869586687,36.55458024697202
-87.32346018806729,36.55472738760322
-87.3233620998974,36.55479999129257
-87.32326172747848,36.55487738871858
-87.32305852218475,36.55502648746459
-87.32285534808163,36.55517749307303
-87.32275345325675,36.55525228376436
-87.32264834369236,36.55532925542398
-87.32255638763118,36.55539749955498
-87.32244909896977,36.55547673617517
-87.32224592254111,36.5556277407365
-87.32204187080863,36.55577946981487
-87.32183869282214,36.55593047367636
-87.32164253427104,36.55607710869229
-87.32154269368196,36.55615116059872
-87.32144116368332,36.55623023816506
-87.32134397026519,36.55630354572701
-87.32124587818889,36.55637614766083
-87.32114603685058,36.55645019923225
-87.32104444623481,36.55652570043684
-87.32094372996866,36.55660047669618
-87.32084388806312,36.55667452801242
-87.32074490855318,36.55674713918384
-87.32064770189005,36.55681973096915
-87.32054347470171,36.55689669110643
-87.32044625570762,36.55696856752203
-87.32033852990118,36.5570484268958
-87.3202430476898,36.55711813823327
-87.32013970623162,36.55719508836607
-87.32004249846065,36.55726767965375
-87.31993913269702,36.55734319920325
-87.31984103803811,36.55741579997176
-87.3197411940654,36.55748985035706
-87.31954063098796,36.55763867572226
-87.31934094172794,36.55778677590127
-87.31914037714211,36.55793560058755
-87.31893891332278,36.55808371936897
-87.31873834722461,36.55823254337344
-87.31853689383682,36.55838137667392
-87.31833982458949,36.55852730064198
-87.31813749510587,36.5586768581008
-87.31796146248708,36.55880824616007
-87.31775908381523,36.55895494215636
-87.31756377284319,36.55910013036633
-87.31736496272112,36.55924821757932
-87.31706541632255,36.55947036221014
-87.31686045815719,36.55962209197167
-87.31666338271225,36.55976801314591
-87.31647507662999,36.55990811615109
-87.31626837886407,36.56006200973955
-87.3160677907839,36.56021011401069
-87.31586986161557,36.56035818909123
-87.31566927203546,36.56050629268629
-87.31546869361785,36.56065511114468
-87.31527603390951,36.56080026673376
-87.31506762982856,36.56095846866852
-87.31486810245742,36.56111728934499
-87.31467775531104,36.56127720240648
-87.3144864493741,36.5614328335455
-87.31429987104973,36.56158841314539
-87.31410977745469,36.56174593807351
-87.31390449042713,36.56191411878515
-87.31371201519221,36.56207071507193
-87.31351714325841,36.56222542943381
-87.31331399583489,36.56238023305561
-87.31312132795314,36.56252538512523
-87.31302322058615,36.56259798023412
-87.31284106375369,36.56273538786061
-87.31265884286623,36.56286898078921
-87.31231658994207,36.56311971156882
-87.31201758193681,36.56334040660021
-87.31179802162724,36.56350396903888
-87.31161578135546,36.56363660675667
-87.31141141276439,36.56378951268006
-87.31110305352499,36.5640169828584
-87.31089398610553,36.56417184619873
-87.31059263753062,36.56439447038299
-87.31031114617964,36.5646025726838
-87.31019670528107,36.56468869465542
-87.30999229956973,36.56483969091783
-87.30979255836142,36.56498682135921
-87.30959049957899,36.56513683779699
-87.30939427167893,36.56528202207464
-87.30909059777855,36.56550752876092
-87.30879272224672,36.56572629567472
-87.30850772234626,36.56593729275367
-87.30832205088584,36.56607759247807
-87.3081258025145,36.56622182104711
-87.30791089158888,36.56638151086519
-87.30770764349194,36.56653153683011
-87.3075043946223,36.56668156244564
-87.3072275840822,36.56688769923561
-87.3070278167522,36.56703387140399
-87.30682574747512,36.56718388311702
-87.30662832722369,36.56732907553892
-87.30641919490972,36.56748107015742
-87.30622180472759,36.56762816910753
-87.30602564332628,36.56777811581141
-87.30583312239173,36.56793374563551
-87.3056418775227,36.56809508404125
-87.30546012095508,36.56825822757521
-87.30528433768821,36.56842512164333
-87.30520060711433,36.56850995446838
-87.305115757228,36.56859861436271
-87.30503445374731,36.56868723604455
-87.30495546719533,36.56877297142773
-87.30487775725426,36.56886441565965
-87.30479999984485,36.56895299902956
-87.30471997241978,36.56904732939172
-87.30464933941197,36.56913774358241
-87.3045764521451,36.56923485837395
-87.3045058975996,36.56933004048901
-87.30444237311471,36.56942133188247
-87.30437657860406,36.56951837027719
-87.30431198190148,36.56961634952569
-87.30418075443839,36.56983235898301
-87.30411981417086,36.56993697521087
-87.30400958208278,36.57013559086603
-87.30395693670404,36.57023236844265
-87.30390627728539,36.57033305895676
-87.30385480195204,36.57043805018621
-87.30382539970303,36.57049053376646
-87.30379067527626,36.5705408574342
-87.30375087043154,36.57058867080979
-87.30372363546918,36.57063290728735
-87.30370098767249,36.57067879566259
-87.30368307948565,36.57072602707343
-87.3036379638645,36.5708402491248
-87.30356162378335,36.57105066068977
-87.30348987022215,36.57127032218068
-87.30345314213673,36.57135842977323
-87.30340898507366,36.57144429012348
-87.30335760832358,36.57152749624644
-87.30329925538835,36.57160765373716
-87.30323420284793,36.57168438264046
-87.30317606116066,36.57172883211219
-87.30311341804104,36.57176910641869
-87.30304673283791,36.57180491023669
-87.30297649453134,36.57183598102384
-87.30290321816406,36.57186209094384
-87.30282744105476,36.57188304853717
-87.3027497188673,36.57189870012535
-87.30231301138394,36.57192937876711
-87.30191607470796,36.57195176046155
-87.30150613306483,36.57197428036343
-87.30115055895395,36.57199526206244
-87.30093553095752,36.57200615184485
-87.3008101810417,36.57200558831212
-87.30066589941551,36.5720042738351
-87.30053221091076,36.57199998432414
-87.3004150739164,36.57199551726341
-87.30037729672813,36.57199399732325
-87.30033972512891,36.57199751706335
-87.30030183392566,36.57200202164224
-87.30026354070172,36.57200262552705
-87.30015528237277,36.5719987783904
-87.30002571999738,36.57199372877751
-87.2998721346419,36.57198392911003
-87.29972739264177,36.57197260385716
-87.29958609145639,36.57195480362362
-87.29945909506172,36.57194400329693
-87.29932323183317,36.5719332977956
-87.29919001693209,36.57192184845562
-87.29905681383882,36.57191111417136
-87.29901462229323,36.57191022563287
-87.29897254003106,36.57191282973456
-87.29893101026796,36.5719188990496
-87.29888599738254,36.57192383703167
-87.29884057900354,36.57192456276238
-87.29879535897661,36.57192106659289
-87.2986523788524,36.57190900587151
-87.29838506267754,36.57188611506098
-87.29811953178924,36.57186391988942
-87.29785664935265,36.5718409804792
-87.29758665006766,36.57181668596002
-87.29745520898354,36.57180521574867
-87.29719320186656,36.57178155021622
-87.2970582141599,36.57177011749555
-87.29679267228715,36.57174720421698
-87.29665235283892,36.57173511270604
-87.29638773312387,36.57171433467151
-87.29626163598354,36.5717042367251
-87.2961319803935,36.57169346133529
-87.29599792664453,36.57168487877144
-87.29570935505811,36.57166363978249
-87.29557439124436,36.57165363581519
-87.29506140672284,36.57162978416435
-87.29473483723291,36.57161681705799
-87.29447221462857,36.57160960476764
-87.29429477234099,36.57160505988326
-87.29406407042818,36.57159750617969
-87.29378188230064,36.57158692444251
-87.29357068752617,36.57157916178274
-87.2933825817187,36.57157329860356
-87.29310156156411,36.57155054226691
-87.29289906978373,36.57153267109722
-87.29262727628974,36.57150695403143
-87.29234486620189,36.57148278010013
-87.29207486983988,36.57145847331231
-87.29180394014338,36.57143131455306
-87.29160328084039,36.57141699835241
-87.29134926860091,36.57139395044523
-87.29115741779684,36.57137596311706
-87.29089451561568,36.57135157821255
-87.29069106799959,36.571329421573
-87.29055954687897,36.57131293746879
-87.29043600593948,36.57129636834447
-87.29028846622492,36.57127647768525
-87.29012476762401,36.57124459811031
-87.28999041140402,36.57121741362865
-87.28985332511772,36.5711859660592
-87.28973225759351,36.57115792468842
-87.28956391575559,36.57111321782789
-87.28940620256429,36.57106768245043
-87.28921003534904,36.57100252632511
-87.28907798949783,36.57095385646882
-87.28895748228115,36.57090577921117
-87.2887860376687,36.57083392180319
-87.28866539070383,36.57077726181364
-87.28850807505027,36.57070167730532
-87.28831561914664,36.5705921300321
-87.28816066076077,36.57049792153301
-87.28803873129982,36.57041695340978
-87.28784401333061,36.57027738565582
-87.28770744282349,36.57016867484375
-87.28757888769168,36.57006202479462
-87.28747898618018,36.56997223840014
-87.28738251491423,36.56987526224933
-87.28732572192567,36.56981863867868
-87.28726614073361,36.56975417606224
-87.28720932459058,36.56969612202695
-87.28718691667716,36.56967042772726
-87.2871597518245,36.56964791626997
-87.2871285141445,36.56962915457419
-87.28709399031618,36.56961461512658
-87.28705704977369,36.56960466408204
-87.28701862281037,36.5695995520432
-87.28697967715597,36.56959940774939
-87.28694119359678,36.56960423483435
-87.28690414128573,36.56961391173491
-87.28686945333205,36.56962819475255
-87.28677357659838,36.56967642328682
-87.28668304304352,36.56972602573158
-87.28658370101962,36.56977929815409
-87.28635423968814,36.56990190627433
-87.28613006268695,36.57002231194731
-87.28601493467806,36.57008648114193
-87.28591041154776,36.57014839184157
-87.28579895800269,36.57022039047781
-87.28569463255882,36.57029445945155
-87.28559474027324,36.57036848135621
-87.28550022606611,36.57044602282631
-87.28540407808274,36.5705321654529
-87.28528113007349,36.57066079620822
-87.28520266851484,36.57074388998858
-87.28511916618488,36.57084420495461
-87.28504801891022,36.57094081236124
-87.28498220317437,36.57103807858026
-87.28491823048735,36.57113961720025
-87.28486222612006,36.57124035606816
-87.28481158826629,36.5713438993819
-87.28476628201658,36.57144810153742
-87.28472722900102,36.57155509876199
-87.28469606292703,36.57165628984213
-87.28466684474306,36.57176819018404
-87.28464294660172,36.57188003418317
-87.28462341200567,36.57198754001066
-87.28460474076601,36.5720936060357
-87.28458878774802,36.57220321990556
-87.28456929955257,36.57231358652382
-87.28455156141233,36.57242250395204
-87.28453295980543,36.57253286116708
-87.28451517501352,36.5726389177679
-87.28449747164143,36.57274998078366
-87.28447974494189,36.57285961338584
-87.28446198328089,36.57296710037139
-87.28444425648441,36.57307673295894
-87.28442645981095,36.57318207432107
-87.28440790440085,36.573295292296
-87.28439190431681,36.5734020452763
-87.28437327898108,36.57351097201842
-87.28435729044305,36.57361844018801
-87.28433869992036,36.57372951252432
-87.2843225250987,36.57382553743427
-87.28430318740909,36.57394520157623
-87.28426692762851,36.57416948241842
-87.28423132163344,36.57437944979024
-87.28420734063289,36.57448628716988
-87.28417803925841,36.57459318085092
-87.28414159750604,36.57469728878869
-87.2840972449803,36.57480577238776
-87.28405097927205,36.5749056923034
-87.28399680274391,36.57500998786703
-87.28394159974359,36.57510571035498
-87.28387755262263,36.57520295704879
-87.28381259535219,36.57529878268236
-87.28373872412124,36.57539184128684
-87.28366300947093,36.5754806273909
-87.28358279122114,36.57556516913368
-87.28349547895544,36.57564978586168
-87.28340369795902,36.57573230381416
-87.28330831170123,36.57581128319742
-87.2832101836627,36.57588528422069
-87.2831128375371,36.57595283896365
-87.28300397532006,36.57602123072441
-87.28289149622678,36.57608536867425
-87.28278158417204,36.5761437567746
-87.28266365645744,36.57620008353368
-87.28254387375142,36.57625142250662
-87.28242578302212,36.57629773619925
-87.28230412196683,36.57634265685712
-87.28205550223426,36.57643398442686
-87.28180775705231,36.57652458691378
-87.28155472568957,36.57661739069422
-87.28130610422464,36.57670871671853
-87.28106276782245,36.57679784044935
-87.28081149659167,36.57688990874302
-87.28056728393023,36.57697975603654
-87.28030720207866,36.57707549287765
-87.28018637896595,36.57711754123223
-87.27994127813953,36.57720739661381
-87.27981785236609,36.57725304867321
-87.27968917552595,36.57730304793412
-87.27956938920981,36.57735438394845
-87.27945232096015,36.57740926780345
-87.27933531050759,36.57746772755596
-87.27922635019759,36.57753039426825
-87.27911304867354,36.57759882923996
-87.27900950124264,36.57766716128393
-87.27890606951725,36.57774264526046
-87.27880624255317,36.57782166777472
-87.27871439619554,36.57790060609816
-87.27862615461265,36.57798308298283
-87.27854063104583,36.57806910778006
-87.27846046260106,36.57815722206102
-87.27838305851201,36.57825174507749
-87.27831008804296,36.57834622133002
-87.27824422308329,36.57844133800376
-87.27818109932815,36.57854143302929
-87.2781250579487,36.57864073808933
-87.27807265613821,36.57874572737436
-87.27802643839704,36.57884922084759
-87.27798906505839,36.57895119049671
-87.27795181900119,36.57906102735213
-87.27792169016274,36.57917221988063
-87.27789773390815,36.57928120141669
-87.27787905190625,36.57938726610163
-87.27786577155469,36.57949828115871
-87.27785867543618,36.57960780043371
-87.27785691153775,36.57971797887208
-87.27786142455645,36.57983238314415
-87.27787472432551,36.57994168760869
-87.27789514153476,36.58005234775742
-87.27791821914654,36.58016297987981
-87.27794502923729,36.58028501786146
-87.27794880185093,36.58030252211978
-87.27794909641575,36.58032028726532
-87.27794590552558,36.58033786662745
-87.27793930940761,36.5803548182068
-87.27792947390473,36.58037071578786
-87.27791664630907,36.58038515965583
-87.27790114914805,36.58039778664659
-87.27788337206603,36.58040827927768
-87.27786376203484,36.58041637373135
-87.27784281211245,36.58042186648728
-87.27782104904631,36.5804246194401
-87.27750292017807,36.58047851872882
-87.27736757768872,36.58050068795441
-87.27723396240016,36.58051997755359
-87.27710648511351,36.58053491046194
-87.27696830848724,36.58054637921705
-87.27683184754304,36.58055425314359
-87.27670152466281,36.58055777039355
-87.27656848357296,36.58055773948336
-87.27643447473137,36.58055271134388
-87.27629774772255,36.58054413503021
-87.2761609860509,36.58053341295721
-87.27603218236335,36.58052117639677
-87.27590070679958,36.58050825247158
-87.27563417397786,36.58048029587877
-87.27537478185302,36.58045512494194
-87.27523973625505,36.58044080717951
-87.27522459795156,36.58043685517429
-87.27521052360063,36.58043086892957
-87.27519792978437,36.58042302563209
-87.27518718926527,36.58041355743509
-87.27517861995037,36.5804027445871
-87.27517247548366,36.58039090713685
-87.27516893773385,36.58037839545988
-87.27516811141021,36.58036557988802
-87.27517002097,36.58035283974806
-87.27521326502958,36.58011990519258
-87.27525306571819,36.57989344469795
-87.2752799373478,36.57974509031718
-87.27530537896085,36.57956313074322
-87.2753219211163,36.57943419863425
-87.27533800402935,36.57933173831739
-87.27536140911988,36.57918842758304
-87.27539917267812,36.57900061584147
-87.27542847289,36.57883792936659
-87.27544683445107,36.57871183937075
-87.27549027327285,36.57849106300623
-87.27553884427995,36.57820370752457
-87.27560577572696,36.57781768268505
-87.27566578120648,36.57752448426265
-87.27568755037594,36.5773897744411
-87.27568369814263,36.57734639463335
-87.27567244123875,36.57730386194471
-87.27565399621767,36.57726299454486
-87.27562871790282,36.57722457856825
-87.27559709256229,36.57718935299221
-87.27555972855453,36.57715799542206
-87.27551734462472,36.57713110905652
-87.27547075608166,36.57710921108519
-87.27542085910899,36.57709272274006
-87.27536861353147,36.57708196119224
-87.27504079137857,36.57704749434391
-87.27471735704403,36.57701011921829
-87.27448818373804,36.57698820561988
-87.27418170199468,36.57695708891934
-87.2739001070927,36.57692928678235
-87.27357505031229,36.57690122486905
-87.27319578692956,36.57686657766102
-87.27287418536645,36.57683275502544
-87.27244250092235,36.57679221746925
-87.27242292499318,36.57679028898967
-87.27240322187056,36.57679097379549
-87.27238392420043,36.57679425337387
-87.2723655536673,36.5768000390661
-87.27234860689453,36.57680817446382
-87.2723335420157,36.5768184396375
-87.27232076629018,36.57683055708222
-87.27231062509372,36.5768441992189
-87.27230339258151,36.57685899725058
-87.27229926427665,36.5768745511318
-87.27226646992125,36.57709593012172
-87.27224241517266,36.57725426893951
-87.27220895277668,36.57748924603537
-87.2721790939745,36.57767268200209
-87.27215964471475,36.57778662240303
-87.27213524455883,36.5779785849881
-87.27211399858638,36.57809111355651
-87.272081399163,36.57832465083703
-87.27205455658435,36.57847515020089
-87.27202021787211,36.57871085163053
-87.27199945563214,36.5788534186566
-87.27196166171584,36.57909487883919
-87.27193613186576,36.57927183132811
-87.27189730095111,36.57950400311466
-87.27184708062853,36.57979995800923
-87.27181811841507,36.57998409962704
-87.27180823634944,36.58000261819142
-87.27179489420722,36.58001966715958
-87.27177841850742,36.58003482929537
-87.2717592124521,36.58004773353848
-87.27173774606798,36.58005806408538
-87.27171454469951,36.58006556811822
-87.27169017614871,36.58007006199169
-87.27166523678424,36.58007143572791
-87.27164033694341,36.5800696557077
-87.2713720220285,36.58004099313312
-87.27110195678463,36.58001377894876
-87.27083720089385,36.57998579323517
-87.27057599231209,36.579957769801
-87.27030680289543,36.57992982935795
-87.27005004009295,36.57990247357483
-87.26965138821916,36.57986023899385
-87.26952257513743,36.57984728031804
-87.26942746152903,36.57984165019916
-87.26933209210826,36.57984169239693
-87.26923698621646,36.57984740668173
-87.26915067210716,36.57985268581166
-87.26906411539767,36.57985191784456
-87.26897796617575,36.57984510854821
-87.26863056872311,36.57980725243278
-87.26859151671334,36.57980298536616
-87.2685521370245,36.57980420621291
-87.26851360639043,36.57981087849181
-87.26847707617512,36.5798228028234
-87.26844363796698,36.57983962288768
-87.26841429096079,36.5798608360709
-87.26838991210391,36.57988580848484
-87.26837122988387,36.57991379390811
-87.26835880256729,36.57994395608395
-87.26835300151318,36.57997539370955
-87.26833092996739,36.58014730188227
-87.26832875803707,36.5801887257585
-87.2683329855642,36.58023004622319
-87.26834354702432,36.58027062269821
-87.26836027869214,36.58030982613824
-87.26838292119116,36.58034704878275
-87.26839230967015,36.5803609605919
-87.26839864206232,36.58037595357178
-87.26840173551206,36.58039159479463
-87.26840150069405,36.58040743261402
-87.26839794438679,36.58042300970644
-87.26839116927827,36.58043787627669
-87.26838137100097,36.58045160304595
-87.26836883248316,36.58046379364766
-87.26820082192312,36.58060575297289
-87.26816224349533,36.5806440166448
-87.26812947142682,36.58068565298329
-87.26810295448109,36.58073009185415
-87.26808305577124,36.58077672474615
-87.26807004778679,36.58082491310419
-87.26806410866232,36.58087399707242
-87.26805494341981,36.58113160894171
-87.26804378418147,36.58143073031756
-87.26803572595574,36.58164684186654
-87.26803324822896,36.58169857058265
-87.26803880939406,36.58175014322342
-87.2680523221886,36.58180075039709
-87.26807357455446,36.58184959786252
-87.26815171070508,36.58202045861933
-87.26823165528263,36.58219344638322
-87.26825389280815,36.58224211056626
-87.26828083747166,36.58228920222135
-87.26831232014671,36.58233442574885
-87.26834814322002,36.58237749727485
-87.26862997746312,36.5826950153616
-87.26888840033482,36.58299060260865
-87.26903290111912,36.58315146958048
-87.26914398067517,36.58327477387019
-87.26928585654829,36.583437813953
-87.26940966298268,36.58358029855931
-87.26955235775088,36.58373903782479
-87.26969430433771,36.58390636860855
-87.26983599836746,36.58405796478545
-87.27003757016077,36.58429262675833
-87.27009084837049,36.58435144082935
-87.27010152789245,36.58436530264678
-87.27011496999147,36.58437750138562
-87.27013078454559,36.58438768300815
-87.27014851257803,36.58439555201855
-87.27016763957721,36.5844008800383
-87.27018761043004,36.58440351243505
-87.27020784553207,36.58440337280992
-87.27022775760996,36.58440046521528
-87.27024676876505,36.58439487403673
-87.27052130646906,36.58431331449772
-87.27060518679498,36.58428954592964
-87.27062207269866,36.58428698178213
-87.27063924515866,36.58428650501691
-87.2706563097407,36.58428812658482
-87.27067287449134,36.58429180924033
-87.27068855893778,36.5842974683973
-87.27070300282978,36.58430497407161
-87.27072268185826,36.5843142114644
-87.2707438625109,36.58432095119309
-87.2707660608274,36.58432503925916
-87.27078876958656,36.58432638225284
-87.27081146990841,36.58432494948754
-87.27083364310472,36.58432077370123
-87.27125841083833,36.58420473426047
-87.27193396413384,36.58401953993217
-87.27229340338573,36.58392277994202
-87.27237171970202,36.58389952878748
-87.27244733248985,36.58387104582534
-87.27251970550033,36.58383753305898
-87.27258832546285,36.5837992281635
-87.27265270572464,36.58375640279932
-87.27271238970782,36.58370936068637
-87.27276695413654,36.58365843544905
-87.27281601204894,36.58360398825048
-87.2730942817405,36.58331422488391
-87.27321468963592,36.58319064144467
-87.27323631525789,36.58315658103788
-87.27325032361739,36.58312002074359
-87.27325629390538,36.58308205885528
-87.27325404678113,36.58304383576935
-87.27324364976604,36.5830064997273
-87.27309279003347,36.58267188103329
-87.27298288903906,36.58245700662731
-87.27286421151848,36.5821928669157
-87.27274743526286,36.58193657567588
-87.27262890923102,36.58168173330247
-87.27250956635334,36.58143119129861
-87.27235797583712,36.58110587840721
-87.27226079383742,36.58090946828392
-87.27224549434129,36.58087697835586
-87.27222438228182,36.58084668098528
-87.27219792581535,36.58081924799992
-87.27216671160434,36.5807952877109
-87.27197221509569,36.58066928389778
-87.27193402165993,36.58064035127476
-87.27190109917591,36.58060747394685
-87.27187406761995,36.58057127104858
-87.2718534360375,36.58053242433945
-87.27183959293917,36.58049166536537
-87.27183279900339,36.58044976168216
-87.27183318215882,36.58040750240102
-87.27184250974605,36.58032585781025
-87.27186080445131,36.58030277629052
-87.27188352614846,36.5802824134337
-87.27191006508669,36.58026531568744
-87.27193970908201,36.58025194187768
-87.27197166262165,36.580242650897
-87.27200506821767,36.58023769207293
-87.27203902941412,36.58023719847786
-87.27207263484861,36.58024118335749
-87.27236404165892,36.58027174822208
-87.27263767842337,36.58030035279618
-87.27291307741812,36.58032822294528
-87.2733093100597,36.58036913100197
-87.2737179696443,36.58041062264586
-87.27412577750978,36.58045426783042
-87.27453622308445,36.58049645329596
-87.274939551701,36.5805372815096
-87.27525493862507,36.58056973345721
-87.27553035104208,36.58059831286525
-87.27578799323204,36.58062493251917
-87.27605627704538,36.58065143971767
-87.27619840589036,36.58066496675453
-87.27633159751306,36.58067429569243
-87.27647008676028,36.58068213810835
-87.27660316276361,36.58068431473139
-87.27674240001083,36.58068356508678
-87.27689663165332,36.58067765023009
-87.27702333814125,36.5806698788922
-87.27713758328672,36.58065937728703
-87.27722611157269,36.58064914627077
-87.27733497806618,36.58063512447697
-87.2774526197846,36.5806152876136
-87.27758443845404,36.58059458604502
-87.27779139074323,36.5805580713585
-87.2778551003981,36.58054881655743
-87.27788088725941,36.58054769593697
-87.27790656826829,36.58054988671131
-87.27793149382364,36.58055533346487
-87.27795503343356,36.58056389842188
-87.27797659166167,36.58057536493184
-87.27799562319504,36.58058944294906
-87.27801164662546,36.58060577636991
-87.27802425663882,36.58062395203967
-87.27803313426175,36.58064351020371
-87.27809278901329,36.58087679265188
-87.27816274319829,36.58114358676271
-87.27824600489217,36.58146532052154
-87.2783008562251,36.58167576306069
-87.27835856518378,36.58189833594959
-87.27844175895922,36.58221577827163
-87.27855618770461,36.58265449630883
-87.27863760944749,36.58297195708941
-87.27872081706668,36.58329011428569
-87.27880779281757,36.58362182281349
-87.27883431574206,36.58372598041659
-87.2789175828961,36.58404771338541
-87.27900262438766,36.58436942756153
-87.27905579882034,36.58458560981437
-87.27908596245381,36.58469545153442
-87.27911604502937,36.58480028684046
-87.27914531040209,36.58490942268426
-87.27917097055165,36.58501501990926
-87.27920016652666,36.5851198645296
-87.27922767005131,36.58522973423718
-87.2792542404402,36.58533675248248
-87.2792852335127,36.5854430087709
-87.27931454573098,36.58555500534619
-87.27934108156632,36.58565987795865
-87.2793703591629,36.58576972891085
-87.27944880219999,36.58606719120792
-87.27950554959082,36.58628476611555
-87.27953485083901,36.58639604740035
-87.27959150593475,36.5866079006417
-87.27964638762251,36.58681977254253
-87.27966936529555,36.58692396723864
-87.27971285740077,36.58714454305413
-87.27974303521295,36.58736454392564
-87.27975272181685,36.58746959407168
-87.27975896536483,36.58758111841842
-87.27976343520076,36.58769266146536
-87.2797651980548,36.58780137176829
-87.27976515310263,36.58801739937264
-87.27976786154962,36.58823912049379
-87.27976517917612,36.58845660651721
-87.27976429373783,36.58867550421444
-87.27976343148826,36.58889583229072
-87.27976256923826,36.58911616034757
-87.27976077370491,36.58933363694222
-87.27976086791526,36.58955824680091
-87.27975914266619,36.58988945866681
-87.27975828039092,36.59010978663643
-87.279757395622,36.59043812828246
-87.2797556696347,36.59065989595361
-87.27975561305669,36.59087520811353
-87.27975757384733,36.59110552071601
-87.27975650278849,36.59131297500859
-87.27975473038484,36.59153188180924
-87.27975303915885,36.59175579497834
-87.27975216524808,36.59197540758574
-87.27975038052034,36.592084155114
-87.27974863127888,36.59230449224332
-87.27975100824997,36.59249664990966
-87.27975159445762,36.59276071613009
-87.27975333421185,36.59286799581768
-87.27975592905956,36.59298241968552
-87.27975774614755,36.59309446734926
-87.27976270390764,36.59330901110322
-87.27976529878345,36.59342343495072
-87.27976854578695,36.59353248701603
-87.27977105368869,36.59364154687056
-87.27977434903693,36.5937535789164
-87.27977685695331,36.59386263876123
-87.27978190180379,36.59408254643023
-87.27978447740102,36.59419577824597
-87.27979216883274,36.59430537951029
-87.27980798091693,36.59441429903495
-87.27983173969859,36.59451180885565
-87.27986841156529,36.59463064208187
-87.27991073551436,36.5947333209922
-87.2799656343127,36.59483646336354
-87.28002712735545,36.59493595955934
-87.28009741269416,36.59503059418669
-87.2801765580288,36.59512453921447
-87.2802629884436,36.59521185024317
-87.28035223050109,36.59529019005267
-87.28044955478103,36.59536546402661
-87.28055866659993,36.59543822914968
-87.28067208764601,36.59550319940735
-87.28078685170813,36.59555980999162
-87.2809096689612,36.59561156667589
-87.28103978091811,36.59565728524279
-87.2811719749466,36.59569463629725
-87.2813010770961,36.59572367445627
-87.28143376853092,36.59574611748526
-87.28156642132275,36.59576617637931
-87.28170349928742,36.5957855922962
-87.28183613285307,36.59580445890033
-87.28196950561251,36.595823317552
-87.28210656440831,36.59584154101844
-87.28223845903226,36.59586041499075
-87.28237552764009,36.59587923415064
-87.28264522057316,36.59591632287732
-87.28291788966756,36.59595457174606
-87.28318463627458,36.59599228652299
-87.28331513068378,36.59601594293151
-87.28344425353468,36.5960461708016
-87.28356758944709,36.5960842090344
-87.2836947181016,36.59612816802351
-87.28381681840497,36.5961811215664
-87.28393088536316,36.5962401209695
-87.28403759023122,36.59630098645548
-87.28425634901768,36.59643339033924
-87.28458341867234,36.59663439113524
-87.28487463278675,36.59681252276421
-87.28501949149056,36.596901000141
-87.28511656984188,36.59696077440589
-87.28529651825062,36.59707033947893
-87.28539656329923,36.59713067820191
-87.28545081120531,36.59714881740953
-87.28550782558142,36.59716017103894
-87.28556630920485,36.59716448076519
-87.28562493141915,36.59716164853101
-87.28568235841401,36.59715173877695
-87.28573728357918,36.5971349769758
-87.2857884572216,36.59711174450224
-87.28583471501487,36.597082569955
-87.28587500448049,36.59704811712979
-87.28606264340047,36.59685835755125
-87.28614846312998,36.59677160976631
-87.28623284325123,36.59668726157172
-87.28640077637185,36.5965132088607
-87.28657376609164,36.59633194909466
-87.28673577491702,36.5961573625819
-87.28690584543737,36.59597851765025
-87.28706350550914,36.59580934167273
-87.2873163767965,36.59554020297928
-87.28756773893448,36.59526929142179
-87.28763602052041,36.59519524666308
-87.28783437775891,36.59498331468228
-87.28800149650432,36.59480509550087
-87.28824707721877,36.59454258917049
-87.28838730412323,36.59439267158111
-87.28857401639667,36.59419218781445
-87.28874110259756,36.59401217956651
-87.28898377061499,36.59375268304336
-87.28922203159617,36.5934950211098
-87.28934336908746,36.59336557040329
-87.28961653984892,36.59307296288814
-87.2898562943995,36.59281647592634
-87.29009892584313,36.59255518905707
-87.29017958225035,36.59246968526605
-87.29034013595694,36.59229749337753
-87.29057841735734,36.59204161662421
-87.29085739420277,36.59174298330608
-87.29110369497722,36.59148046301294
-87.29119087422727,36.59138713977552
-87.2913448497623,36.59121978523741
-87.29159619406546,36.59094946086719
-87.29191648102892,36.59060090879247
-87.29207615145019,36.59042037837703
-87.29215375939246,36.59032954069617
-87.29222703028167,36.5902447101605
-87.29237853039375,36.59006188189838
-87.29252487580641,36.58988030053176
-87.29283320905985,36.58947941613754
-87.29295900488766,36.58930699463448
-87.29309486390544,36.58911717879319
-87.29315912713628,36.58902409818224
-87.29329048242964,36.5888301573668
-87.29335249870292,36.58873531227746
-87.29341445621935,36.58863689116382
-87.29347568428779,36.58853907389045
-87.29359740090841,36.58834344711784
-87.29365631364873,36.58823969339414
-87.2938942779398,36.58783061451352
-87.29405651574255,36.58753679432233
-87.29417142155025,36.58733170185035
-87.29428339988935,36.58712842877789
-87.29449733081792,36.58674166059768
-87.29466311268978,36.58643886007077
-87.29482890306662,36.58613665527953
-87.29493370278503,36.58594657233884
-87.29495863537986,36.58592154699636
-87.29498820123673,36.58590005173709
-87.2950216423055,36.58588263768936
-87.29505810116599,36.58586975134038
-87.29509664303258,36.58586172308976
-87.29513627971086,36.5858587587774
-87.29517599494085,36.58586093440679
-87.29521477044195,36.58586819419599
-87.29529194910118,36.58587838461125
-87.29571817390108,36.58594021780073
-87.29606381976652,36.58598018785284
-87.29635820795359,36.5860205468332
-87.2965172140058,36.58604460761644
-87.29665334494281,36.5860649689632
-87.29673133266503,36.58607663365197
-87.29681614403623,36.58608706010388
-87.29690622441427,36.58609716832215
-87.29702968747291,36.58610956838939
-87.29711798156411,36.58611893081103
-87.29724378267265,36.58613211352365
-87.29737164027195,36.58614248338974
-87.29748817686503,36.58615193494769
-87.29762084584948,36.58616269476472
-87.29767242904588,36.58616012356608
-87.29771670082424,36.58615535818585
-87.29776251107896,36.58613626985918
-87.29780110893024,36.58611010541123
-87.29787802228199,36.58604061172326
-87.29793523672076,36.5859598834994
-87.29800274028362,36.58585758546906
-87.29837128741337,36.58529139803225
-87.29897735889544,36.58439075637497
-87.29961163689035,36.5833724958622
-87.29992893660283,36.58285126871603
-87.29994505768474,36.5828408441858
-87.29996313461956,36.58283277159751
-87.29998264537636,36.58282728407369
-87.30000302651851,36.58282454008431
-87.30002368947437,36.58282461887092
-87.30004403753402,36.58282751815839
-87.3000634830813,36.58283315422032
-87.300340179161,36.58290267568955
-87.3007604821948,36.58300308527637
-87.30101222300014,36.58306524259519
-87.30129122267174,36.58313092214188
-87.30153345778794,36.58319031902293
-87.30192645812734,36.58328434106875
-87.30238597390633,36.58339576952969
-87.30266976853119,36.58346520952631
-87.3030556770575,36.58355930406638
-87.30365885215801,36.58370447434406
-87.30387841992717,36.58375171112152
-87.30411808919965,36.58379873147133
-87.30425920761832,36.58382201270668
-87.30451513183294,36.58385073599077
-87.30508372157033,36.58390661693302
-87.30543670007998,36.58394001701394
-87.30600409290636,36.58399495276515
-87.30643172307944,36.584037084156
-87.30688065323608,36.58407993841481
-87.30734142397868,36.5841236172185
-87.30836719485683,36.58422033726279
-87.30876047372679,36.5842590157759
-87.30926737724964,36.58430314348689
-87.30943079027794,36.58431568673883
-87.30955743717748,36.58432195018185
-87.30976338623316,36.58433212639959
-87.31008625376076,36.58433245613495
-87.31053218932516,36.58433717855115
-87.31091414684556,36.58433496036612
-87.31126897176389,36.58433684924747
-87.31182127882917,36.58433755612612
-87.31223047983471,36.58433790058024
-87.31237476833871,36.58433824770295
-87.31254874453784,36.58434590368095
-87.3128836902707,36.58436135561377
-87.31302220944053,36.58437034829748
-87.31309684551644,36.58437812458823
-87.31321411267443,36.58438925455676
-87.31335389370832,36.58440300204592
-87.31352214842518,36.58442216376955
-87.31376146038264,36.58444723235228
-87.31384678613469,36.5844577537541
-87.31392417597984,36.58446520696687
-87.31400209887485,36.58446651276545
-87.31407980582496,36.58446165859836
-87.31415654990957,36.58445069112414
-87.31423159346383,36.58443371576205
-87.31430421516927,36.58441089567939
-87.31466046471104,36.58424578854127
-87.31494088905174,36.58411208387292
-87.31534821990283,36.58392931456582
-87.31583884907757,36.58370653611447
-87.31626257059762,36.58351404824008
-87.31657948549886,36.58337040617258
-87.31688832918573,36.58323924984335
-87.31706456165921,36.58316961957275
-87.31724566671547,36.58310852006634
-87.3175292911646,36.58302532427845
-87.31772832275657,36.58297547462389
-87.31791332440399,36.58293531470886
-87.31821161425771,36.58288057109586
-87.31844760240698,36.58284844038155
-87.31872615708431,36.58281584661353
-87.3189658992257,36.58279607308813
-87.31916201965517,36.58278440347329
-87.31936299718622,36.58278031088387
-87.31982653308448,36.58277717753666
-87.32012697638896,36.58278058569854
-87.32029265709247,36.58278736702921
-87.32047262245291,36.58279971530416
-87.32059348340042,36.58281366033469
-87.32077851362428,36.58284598219301
-87.32090246308701,36.58288445937204
-87.32102325440984,36.58292899282397
-87.32114043313914,36.58297941500234
-87.32125355841035,36.58303553620523
-87.32136220460616,36.58309714528902
-87.3218043606944,36.5833708303385
-87.32217969722535,36.58360899863464
-87.32269600036076,36.58393146851346
-87.32289562316133,36.58405805125752
-87.32303428732462,36.58414619378462
-87.32330199724251,36.5843130455637
-87.32362349352671,36.58451364576259
-87.3240776657498,36.58479768293741
-87.32425206571175,36.58490093288666
-87.3243513419947,36.58496245977216
-87.32445530990452,36.58501872163803
-87.32456354078931,36.58506948651678
-87.32467558842134,36.58511454510443
-87.32479099083261,36.5851537116236
-87.32490927221845,36.58518682459
-87.32502994490298,36.58521374747802
-87.3251525113533,36.58523436928373
-87.32527646622154,36.58524860498262
-87.32537824660372,36.58525628278107
-87.32548040300796,36.58525929533147
-87.3255826069026,36.58525763294539
-87.32568452960321,36.58525130096923
-87.32619993020096,36.58521944062728
-87.32655719864721,36.58519049909022
-87.32677563000702,36.5851690356388
-87.32688709167142,36.58515772577618
-87.32699725127385,36.5851399610233
-87.32710553481978,36.585115833945
-87.3272113780852,36.58508547025798
-87.32731422956621,36.58504902817501
-87.32741355335378,36.58500669758062
-87.32750883191514,36.58495869904181
-87.32759956880322,36.58490528265817
-87.32768529123712,36.58484672675913
-87.32834749712899,36.5843149062416
-87.32886819198754,36.58389550746316
-87.32942247423313,36.58345189409199
-87.32983844794774,36.58313497625818
-87.32992039017255,36.58308248788396
-87.33000726123694,36.58303543638669
-87.3300985078712,36.58299412142863
-87.33019354893554,36.58295880613693
-87.33029177912795,36.58292971542737
-87.33038571583872,36.58290941117323
-87.3304815364107,36.58289600404358
-87.33057846391844,36.58288960274548
-87.33067571245914,36.58289025918144
-87.33077249353266,36.58289796802901
-87.33086802242407,36.58291266678373
-87.33135453905878,36.58300986017019
-87.33192440903589,36.58314071091216
-87.33240671568493,36.58325106065993
-87.33312952978598,36.58342195376257
-87.33369045697823,36.58354812564843
-87.3342350067927,36.58366732175013
-87.3351979344864,36.58387490526496
-87.33578255702926,36.58400319122786
-87.33580432359454,36.5840054453916
-87.33582625583416,36.5840048350928
-87.33584777797596,36.58400137635315
-87.33586832501743,36.58399515997267
-87.33588735754556,36.58398634914597
-87.33590437591587,36.58397517517766
-87.33591893335861,36.58396193141039
-87.33593064770591,36.58394696552367
-87.33593921143104,36.58393067040637
-87.3359443997206,36.5839134738425
-87.33595341324381,36.58378223109281
-87.33596687996639,36.58366953784341
-87.33601749587048,36.58327125798947
-87.33603025850701,36.58320383793006
-87.3360635835364,36.58302467755327
-87.33609590996704,36.58284383849227
-87.33612022159366,36.58266782029718
-87.33615059958873,36.58246254098022
-87.3361767514869,36.58231827004852
-87.33620303220215,36.5821696558389
-87.33623269149655,36.58201035487924
-87.33626265033446,36.58184767720385
-87.33628971944783,36.58169009895684
-87.33631754064228,36.58152851905776
-87.33635063688568,36.58133229806065
-87.33638898555024,36.58111990161306
-87.33641810575391,36.5809835170237
-87.33642979387822,36.58095984859154
-87.33644631020889,36.58093813181881
-87.33646717196505,36.58091900149189
-87.3364917693506,36.5809030167945
-87.33651938337684,36.58089064496238
-87.33654920687818,36.58088224762673
-87.33658036811291,36.5808780702429
-87.33661195622801,36.58087823491662
-87.33695968146935,36.58089302295672
-87.33762313741424,36.58092028526727
-87.33829619052959,36.58094684199804
-87.33856617312502,36.58095876668482
-87.33883464750186,36.58096891908944
-87.33924141350663,36.5809835057274
-87.33963487790648,36.58099823785755
-87.34003943736994,36.58101344229225
-87.3404417800293,36.58102866986881
-87.34083302791848,36.58104342260435
-87.34111114008299,36.58105525180307
-87.34146215290056,36.58106842043478
-87.3417745684275,36.58108070342619
-87.34205267072917,36.58109193447093
-87.34231082046047,36.58110338560257
-87.34258075350735,36.58111232137703
-87.34284923905999,36.58112306089498
-87.34311476874012,36.58113383253815
-87.34337586456674,36.58114465268877
-87.34350660681074,36.58114845091001
-87.34365839109985,36.58115523496896
-87.34392464983695,36.58116540066093
-87.34405704024152,36.58117049147339
-87.3441923866164,36.58117554939594
-87.34432625503247,36.58118062354188
-87.34445716751485,36.58118573029211
-87.34459252409195,36.58119138376409
-87.34472638240752,36.58119586147284
-87.34499707534489,36.58120597567375
-87.34513244215468,36.58121222453911
-87.34526409372839,36.58121732222668
-87.34539722329708,36.58122240338397
-87.34566126551887,36.58123258984639
-87.34593492481854,36.58124326516933
-87.34619972649978,36.58125463425425
-87.34647041982728,36.58126474516831
-87.34660427837214,36.5812692208055
-87.34687128702907,36.58127996782602
-87.34713828558986,36.5812901182636
-87.34740529439078,36.58130086410909
-87.34767229309021,36.58131101337157
-87.34794595293289,36.58132168415909
-87.34821219242072,36.58133064845193
-87.34847255060807,36.58134146584644
-87.34861384001755,36.58134824112359
-87.34888741862994,36.58135414182495
-87.34929414772007,36.58136631078202
-87.34941908778104,36.58136790194655
-87.34981086396577,36.58137010161495
-87.35006951004272,36.58136722413347
-87.35026287844057,36.58136793383857
-87.35050493942123,36.58134574722944
-87.35070187939461,36.58134784714427
-87.35080829373945,36.58134666255156
-87.35104767703267,36.58134113610009
-87.35123890855103,36.58132064656991
-87.35147634671341,36.58130512630471
-87.35169957171681,36.58128833324352
-87.3518837535751,36.58127054410313
-87.35203608460087,36.58125740156675
-87.35216895531914,36.58124733701966
-87.35233180512716,36.5812269235872
-87.35248930963233,36.58120513885378
-87.35259193148724,36.58118968835247
-87.35267686664955,36.58117729625483
-87.35281845788866,36.58115854981062
-87.35297064142128,36.58113682377184
-87.353192578779,36.58110819961348
-87.35330052106697,36.58109268917561
-87.35341201044675,36.58107713907761
-87.35350403962248,36.58106466727215
-87.35366326797974,36.58104000045408
-87.35381941382266,36.58101373845324
-87.3542166284326,36.58095176633951
-87.3545986132126,36.58088312281806
-87.35478439516361,36.58085529675744
-87.35500056177784,36.58082138385623
-87.35526245119742,36.58077792363788
-87.35543006611498,36.58074815349762
-87.35558929323381,36.5807234841491
-87.35575206736282,36.58069877495917
-87.35591446798252,36.58066953929233
-87.35605510113034,36.58064674621186
-87.35626827379048,36.58061288910221
-87.35640799127717,36.58058843673854
-87.35657926739066,36.58055957784719
-87.35671174254699,36.58053949808785
-87.35696513485361,36.58049773867136
-87.35725833544457,36.58044993001906
-87.35757914376583,36.5804000830562
-87.35776127800304,36.58036657056835
-87.35805667302354,36.58031748358847
-87.35840665970054,36.58026241975043
-87.35867273292767,36.58021890528246
-87.35893671207184,36.58018256699596
-87.35919485100695,36.58015046631989
-87.35946096448481,36.58010933410063
-87.35986110915275,36.58003987432243
-87.36040091673335,36.57993439230137
-87.36092263064604,36.57984270210334
-87.36135074079382,36.57977495048798
-87.36157721032747,36.57974093480418
-87.36200352114609,36.57967177039744
-87.36245278834525,36.57959662406057
-87.36277118404821,36.57954440592851
-87.36294826522716,36.57952667965756
-87.36314118455876,36.57950162187615
-87.36330405263149,36.57948262409197
-87.36354667991469,36.57945986848324
-87.36371499195546,36.57944796229103
-87.36392232151901,36.57943561728674
-87.36411021640213,36.57942778241269
-87.36424850197203,36.57942336636366
-87.36441174052372,36.57942582289374
-87.36455362258565,36.57942422738474
-87.36467067528196,36.57942291096494
-87.36482681974164,36.5794254467228
-87.36497771784575,36.57943233329296
-87.36511977308615,36.57944074982819
-87.36525293598429,36.57944783558654
-87.36536304306544,36.57945518063854
-87.36548558959787,36.57946381626795
-87.36559035139493,36.57946979060247
-87.36570230631584,36.5794814065457
-87.36579470296893,36.57949038120776
-87.36591734862029,36.57950473794675
-87.36605248327899,36.57952324595362
-87.3661555211873,36.57953210053956
-87.36625513586502,36.57954814690898
-87.36637076186393,36.57956687422693
-87.36649175803362,36.57958840228744
-87.366612729502,36.57960849984105
-87.36671783834045,36.57963449860812
-87.36682634568348,36.57965187501108
-87.36692780849717,36.57967219200773
-87.36707740445708,36.57970627328107
-87.36723941527121,36.5797402144811
-87.36736942829073,36.57977022405962
-87.36750301325802,36.57980162390856
-87.36762420837805,36.57983459392485
-87.36774363006738,36.57986758381119
-87.36790231754108,36.57991443757898
-87.36804142191836,36.57995721993751
-87.36820020893211,36.58000979485671
-87.36834293511025,36.58005682802833
-87.36846785165956,36.58009976989693
-87.36862491531031,36.5801552250304
-87.36874456115228,36.58020108739648
-87.36892487973432,36.58026772514048
-87.36923450220807,36.58038943945898
-87.36959830944011,36.58052849472915
-87.36983764432492,36.58061830939514
-87.37008121943288,36.58071391759761
-87.3703927245481,36.58084168804897
-87.3706907218123,36.58094276071633
-87.37106055678525,36.58109452490944
-87.37136422449871,36.58121556117382
-87.37167865884297,36.58134362829956
-87.37199294501674,36.58146311229999
-87.37233578339701,36.58159228723334
-87.37266625762663,36.58172446240373
-87.3730715218649,36.58187295837948
-87.37344119153414,36.58201470257682
-87.37380009653229,36.5821494142043
-87.37431977137214,36.58234811460545
-87.37491428860436,36.58256599410323
-87.3754892496756,36.58278123105775
-87.37599479398536,36.58298294583761
-87.37658022804617,36.58318804423892
-87.37696062670443,36.58333394806276
-87.37724632634229,36.58344086694165
-87.37743380388689,36.58351027219774
-87.37771063672153,36.58361729064141
-87.37815706311076,36.58378533170164
-87.37851965637556,36.5839271408953
-87.37875894614224,36.58401741547786
-87.37902324219402,36.58411742006659
-87.37923752732206,36.5841979632175
-87.37943395157136,36.58427155570794
-87.37965355843711,36.58435203763221
-87.37993376943483,36.58444899797211
-87.38017293733138,36.58453211784448
-87.38033356530092,36.58458751737905
-87.38050123801119,36.58463997522728
-87.38064752717115,36.58468695348383
-87.38077240769179,36.58472702184599
-87.38092576671518,36.58477248865738
-87.38107732724201,36.5848165450803
-87.38122174329675,36.58485782130679
-87.38134117826682,36.58489079774536
-87.38147842490065,36.58492786328534
-87.38162638866079,36.584969098644
-87.38183840421895,36.58502104976915
-87.38207003038131,36.58507849983445
-87.3822054288792,36.58511129361076
-87.38236933116026,36.58515091585403
-87.38248329576388,36.5851753695015
-87.38259908420574,36.58520266359277
-87.38268809253313,36.58522024806657
-87.38275756566954,36.58523662441709
-87.38287682641239,36.58525958668174
-87.38299259004833,36.5852854500169
-87.3831171468233,36.58530692102215
-87.38321507379149,36.58532726478677
-87.38332544146033,36.58534889731787
-87.38344470253611,36.5853718590234
-87.38355684398509,36.58539347112271
-87.38368497347229,36.58541633147844
-87.3837917439226,36.58543514327479
-87.38395005078831,36.58545908988346
-87.38403011616769,36.58547248337482
-87.38414033374457,36.58548553288792
-87.38426306731454,36.58550416218797
-87.38438217835305,36.58551854069565
-87.38450488693657,36.58553573937171
-87.38460091541427,36.5855489503569
-87.38470933443691,36.58556058921166
-87.3848195522491,36.58557363810743
-87.38502752216263,36.58559701654974
-87.38569742224551,36.58565947125081
-87.38650417175876,36.58573609603811
-87.38773633998066,36.58585527693543
-87.38841574169456,36.58591975401206
-87.38959791514802,36.58603641290416
-87.39000426643811,36.58607563272168
-87.3911652735498,36.58618774995555
-87.39206640161065,36.58627758713059
-87.39240577875709,36.586308029439
-87.3931520849637,36.58637671970028
-87.3936638883422,36.5864266388256
-87.39448669234562,36.58650731831938
-87.39497356478336,36.58655179576283
-87.39577141342792,36.58662560011001
-87.39634547604995,36.58668480649969
-87.3969478678063,36.5867408227313
-87.39740104309949,36.58678567837482
-87.39782044291708,36.58682662939287
-87.39833042778977,36.58687368850868
-87.39871250511169,36.58691077451874
-87.39910874692116,36.58694626535196
-87.39937887979536,36.58697319455128
-87.39965253485831,36.58699865185825
-87.39996531271734,36.58702937988186
-87.40029225494524,36.58705851298743
-87.40067435946983,36.58709702319315
-87.40096757674758,36.58712511308135
-87.40123418888375,36.58715350947789
-87.40153624962053,36.58718006521174
-87.40179571656941,36.58720568156591
-87.40198230986914,36.58722355530642
-87.40220977440708,36.5872452485008
-87.40238917145463,36.58725748209808
-87.40258093356152,36.58726671117765
-87.40272115693904,36.5872708130452
-87.40293937193751,36.58727115176923
-87.40313390380045,36.58726985638688
-87.40333017543469,36.58726663301554
-87.40352524763556,36.58726246942023
-87.40375655327101,36.58725219944899
-87.40394829731473,36.58724231524899
-87.40412188153448,36.58722695394694
-87.40428249255778,36.58721365008293
-87.4044182379261,36.58719872622807
-87.40462123070725,36.58717443983899
-87.40477934082958,36.58715353402954
-87.40491145374266,36.5871338827747
-87.40504238413438,36.58711424506688
-87.40525781579147,36.58707563406541
-87.40548653336712,36.58703483407052
-87.40574106092822,36.58698228930229
-87.40593410044572,36.58693045640204
-87.40614846590724,36.5868609370463
-87.40627677574774,36.58682702166944
-87.40641714792686,36.58680631926837
-87.40683429169397,36.58672041265226
-87.40701687479771,36.58667919080863
-87.40720651841141,36.58663597925202
-87.40735136473825,36.58660091718209
-87.40749629596787,36.58657062285135
-87.40765881075416,36.58653154035748
-87.40780021140142,36.58650224039518
-87.40793444920381,36.58646920825343
-87.40809108535204,36.58643210094029
-87.40828895386709,36.5863859308946
-87.40846444075737,36.58634478920373
-87.40866813596075,36.58629378200368
-87.40881059909522,36.58625779205763
-87.40900721620828,36.58620782023568
-87.40914503438795,36.58617665272676
-87.40927224452683,36.5861475158168
-87.41004638263975,36.58591551714665
-87.41011106009998,36.58589479580733
-87.4101705963021,36.58587592251751
-87.41023048601336,36.58585615092062
-87.41028303337818,36.58583914713301
-87.41035063485778,36.58581660334303
-87.41039986188862,36.58579993615069
-87.41043187628463,36.58579211263878
-87.41047522837523,36.58577760009492
-87.41054209604981,36.58575536278223
-87.41062769692482,36.58572664848069
-87.41071071648403,36.58569826218306
-87.41079631190827,36.58566924976749
-87.41088153243203,36.58563994359295
-87.41096162768643,36.58561337945951
-87.41110234052422,36.58556643866113
-87.41119821801978,36.58553372971252
-87.41125075963277,36.58551642750933
-87.4113341535863,36.58548833447988
-87.41144840514259,36.5854497485549
-87.41152223966041,36.58542444909275
-87.41161409483891,36.58539417104981
-87.4117107109291,36.58536145309728
-87.41178124634861,36.58533768213787
-87.41200748737363,36.58526220476044
-87.41205747882573,36.58524615594747
-87.41210411488211,36.58522451267009
-87.41214643901408,36.58519771884473
-87.41218358313247,36.58516632402807
-87.41221478540274,36.5851309721448
-87.41223940585292,36.58509238828071
-87.41225693951702,36.58505136380985
-87.41226702678213,36.58500874016313
-87.41226946076787,36.58496539157014
-87.4120688429829,36.58452707940033
-87.41197409463987,36.58432121140709
-87.41187931267302,36.58411343615735
-87.41178701542991,36.58391230838333
-87.4116897772669,36.58370766132982
-87.41149334410594,36.58330458929925
-87.41107329487134,36.58243294932529
-87.41097742039673,36.58222995488374
-87.41092708448547,36.58212657795788
-87.41082876076898,36.58191884295216
-87.41063711708434,36.58151857501176
-87.41043158316336,36.58106887150908
-87.41019781797064,36.58056131498447
-87.40991355224085,36.57994084462564
-87.40976969863347,36.57963349049956
-87.40958082161062,36.57922198156273
-87.40948760236122,36.57901823959296
-87.40940147574528,36.57883086791133
-87.40939763711754,36.5788144252946
-87.40939713374816,36.57879769867516
-87.40939997879106,36.57878112522041
-87.40940609788605,36.57876513809456
-87.4094153311019,36.57875015513718
-87.4094274371178,36.57873656794262
-87.40944209953381,36.57872473162534
-87.40945893512642,36.57871495553883
-87.40947750388506,36.57870749519054
-87.40957641105199,36.57868345542205
-87.40964234913172,36.57866742886479
-87.40973426440729,36.57864919289386
-87.40984431238452,36.57863646886257
-87.4099503814745,36.57861616070176
-87.41010809227713,36.57859048338761
-87.41019527803451,36.57857230202878
-87.4102659452137,36.57855622016661
-87.41041447570206,36.57852969536882
-87.41053093409822,36.57849519762708
-87.41066064938916,36.57847461395019
-87.4107667862294,36.57845811941497
-87.41088238164791,36.578441514803
-87.41095315085026,36.57843115405039
-87.41101689425875,36.57842469009302
-87.41108080813935,36.578427761953
-87.41115411244928,36.57842690943406
-87.41125380879707,36.57843051882515
-87.41134294476736,36.5784326211806
-87.41146017256406,36.57845971251072
-87.41159504968489,36.57850046759142
-87.41173795248571,36.57855603201056
-87.41174154501533,36.57855690074398
-87.41174526644807,36.57855727680087
-87.41174901366566,36.57855714976113
-87.41175268284302,36.57855652314497
-87.41175617230573,36.57855541431509
-87.41175938536701,36.57855385399589
-87.41176223299689,36.57855188542188
-87.411764636291,36.5785495631399
-87.41176652865697,36.57854695149754
-87.41176785765971,36.57854412286026
-87.41176858647427,36.57854115560615
-87.41176869490572,36.57853813195422
-87.41176817995061,36.57853513568621
-87.41176705587701,36.57853224982492
-87.41176535383177,36.57852955433415
-87.41176312097666,36.57852712390248
-87.41176041918131,36.57852502587435
-87.41175732330922,36.57852331838335
-87.41167950017974,36.57849054336366
-87.4116095480619,36.57846393592753
-87.41152920799229,36.57843506483898
-87.41145193037781,36.57841211921953
-87.41136430744587,36.57838929388731
-87.41126051282807,36.57837142550385
-87.41118646822424,36.57836394109317
-87.41111246625596,36.57835884059984
-87.41104300456871,36.57835964840759
-87.41095728589205,36.57836064522183
-87.41087758538102,36.578367533143
-87.41082153139287,36.57837414606556
-87.41075815176814,36.57838442082427
-87.41068151355478,36.5783972341566
-87.41059600786096,36.57841015052993
-87.4101863416797,36.57848167726375
-87.40975919529481,36.57856771244801
-87.40942627262838,36.57863238377015
-87.40940382776915,36.5786339896197
-87.40938137060208,36.57863249989622
-87.40935955270086,36.5786279578227
-87.40933900709065,36.57862049518298
-87.40932032988019,36.57861032849829
-87.40930406297491,36.57859775274488
-87.40929067833669,36.57858313279596
-87.409280564307,36.57856689283457
-87.40927401433059,36.57854950404637
-87.40912638894183,36.5782293167827
-87.40907722330438,36.57812497160963
-87.40903111999771,36.57802655199688
-87.40898638831307,36.57792215529108
-87.40893724433057,36.57781900203062
-87.40889105626827,36.5777158144246
-87.40884636749948,36.57761380161856
-87.40879872305948,36.57751182311144
-87.40875107874271,36.57740984458134
-87.40870185028788,36.57730192327563
-87.40865570538509,36.57720111952357
-87.40860956059834,36.5771003157499
-87.40856191677433,36.57699833712908
-87.40851872798866,36.57689749899937
-87.40846956398413,36.57679315352514
-87.4084189009623,36.57668763319919
-87.40837423465379,36.57658681216066
-87.40832657017556,36.57648364144401
-87.40828188283294,36.57638162838058
-87.40823417606585,36.57627607365359
-87.40818655449017,36.57617528683506
-87.40813886924052,36.576070924045
-87.40809122664591,36.57596894519798
-87.40804506203655,36.57586694917757
-87.40799887628347,36.57576376115246
-87.40795123405512,36.57566178223812
-87.40790506980547,36.57555978615221
-87.40785590744601,36.57545544037432
-87.40781126381228,36.57535581106301
-87.40776362207241,36.5752538320585
-87.40771593793856,36.57514946906436
-87.4076696892637,36.57504270493407
-87.40762204789571,36.5749407258615
-87.40757292880609,36.57483876391084
-87.4075267442736,36.57473557566419
-87.40747910327573,36.57463359652315
-87.4073453030552,36.57434185991891
-87.40729911910925,36.5742386715654
-87.40724997962404,36.57413551747177
-87.40720236059642,36.57403473018214
-87.40715763359248,36.57393033263789
-87.40710701666065,36.57382719561355
-87.40706085457563,36.57372519913275
-87.40701319354174,36.57362202778387
-87.40696553263256,36.57351885641209
-87.40691789309403,36.57341687700185
-87.4068717314924,36.57331488043264
-87.40682105159516,36.57320816731033
-87.40677641053917,36.57310853753008
-87.40672725119823,36.57300419119431
-87.40668106884189,36.57290100255118
-87.40663188851474,36.57279546418346
-87.40658724793006,36.57269583431739
-87.40654110842011,36.57259502957835
-87.40649197094677,36.57249187511104
-87.4064442901625,36.57238751150371
-87.40639667321798,36.57228672382848
-87.40634990059874,36.57218354188246
-87.4063028325416,36.57208036334007
-87.40625483970933,36.57197504947902
-87.40620869679646,36.57187400618793
-87.40616166733003,36.57177297315189
-87.40611274998105,36.57166552392473
-87.40606667112844,36.57156805652369
-87.40601956559202,36.57146273227259
-87.40597067410843,36.57135671335778
-87.40592266942095,36.57125068414399
-87.40587742675908,36.57115034561485
-87.40582948600948,36.57104789231285
-87.40578150717336,36.57094329341336
-87.40573441512559,36.57083868421718
-87.40568829901521,36.57073907106614
-87.40564489394052,36.57064228784171
-87.40559690286038,36.57053697366099
-87.40554892464296,36.57043237464855
-87.4054990968361,36.57032350500615
-87.40545389344558,36.57022531185763
-87.40540499075183,36.5701185774716
-87.40535531613877,36.57001829005813
-87.40530825067134,36.5699151110422
-87.40526118532938,36.5698119320038
-87.40521504495197,36.569710888249
-87.4051671059368,36.56960843462736
-87.40507416678828,36.56940253949711
-87.40502794626687,36.56929696610555
-87.4049666302578,36.56917368402188
-87.40485263186439,36.56891390521813
-87.40475888407966,36.56871231121038
-87.40466357420641,36.56850596627518
-87.40461589824669,36.56840160178607
-87.40452208805182,36.56819643159296
-87.40442680062742,36.56799127841745
-87.40433142887612,36.56778135720045
-87.4042376413601,36.56757737872531
-87.40414235542197,36.56737222527657
-87.40404850527723,36.56716467065898
-87.40395476162396,36.5669630758918
-87.40385789347945,36.5667519793307
-87.40376258832794,36.5665456335293
-87.40367034501992,36.56634521338339
-87.40357499846226,36.5661364834249
-87.40348125723904,36.56593488821073
-87.40343662451153,36.56583525691757
-87.40338599643972,36.56573092602475
-87.40333690974295,36.56563015397963
-87.40328628193443,36.56552582303682
-87.40323272011128,36.56542271824152
-87.40318224088719,36.5653267311689
-87.40312570282154,36.56522246851191
-87.40300361288453,36.56500570171814
-87.402947244755,36.56491097487772
-87.40288483903777,36.56480916442359
-87.40282703590161,36.56471683858614
-87.40276317402149,36.56461623713798
-87.40269941820408,36.56452159559883
-87.40263410017322,36.56442220314985
-87.40256890937687,36.56432996259851
-87.40249166462114,36.56422474678826
-87.40241127420494,36.56410883718228
-87.4023401310113,36.56401428084507
-87.40227042328118,36.56391732340315
-87.40220229922173,36.56382630878674
-87.40213261299708,36.56373054324823
-87.40206294811348,36.56363596965591
-87.40199508619207,36.56354304431382
-87.40192333178624,36.56344730255213
-87.40185243872998,36.56335012011136
-87.40178428177828,36.56325719805599
-87.40171431373777,36.5631621508649
-87.40164795565303,36.56307063862614
-87.40157710136964,36.56297560159256
-87.40150620916516,36.56287841893155
-87.40143805302638,36.56278549666458
-87.40136990974204,36.56269328955018
-87.40129178584999,36.56258832154835
-87.40121994430498,36.56248757297481
-87.40115091496718,36.56239537596711
-87.40108003650117,36.56229890822948
-87.40101096941473,36.56220456555216
-87.40094191518513,36.56211093802654
-87.40087193648343,36.56201517511261
-87.40073291690894,36.56182649969434
-87.40059569649283,36.56163923402026
-87.40045846404047,36.56145125298262
-87.40038847382333,36.56135477457054
-87.40031852183496,36.56126044169867
-87.40017859299057,36.56107034543393
-87.4000404632867,36.5608816589197
-87.39988875702147,36.5606773914072
-87.39975423828382,36.56049223959028
-87.3996124883537,36.5602993022949
-87.3994743740311,36.5601113302747
-87.39933624768804,36.55992264288827
-87.39926448712075,36.55982618422362
-87.39912818555006,36.55964033690824
-87.39899096006602,36.55945235406431
-87.39891835183363,36.55935805098773
-87.39884839069757,36.55926300199944
-87.39878022813731,36.55916936291292
-87.39871028000671,36.55907502903349
-87.39864121857222,36.55898068488862
-87.39857215730279,36.55888634070101
-87.39850395738704,36.5587905558587
-87.39843764470419,36.55870118729515
-87.39836858392249,36.55860684298133
-87.39829680039902,36.55850895330352
-87.39822594157558,36.55841319894814
-87.39815779315165,36.55832027467685
-87.39808874570295,36.55822664538562
-87.3980196984178,36.55813301605166
-87.39795062596681,36.55803795628324
-87.39788340269929,36.5579471672153
-87.3978116077153,36.55784856202934
-87.39774349825272,36.55775778309276
-87.39767262811124,36.55766131319032
-87.39760451897182,36.55757053416909
-87.39753367449019,36.55747549457058
-87.39746371669015,36.55738044471413
-87.39739375905849,36.55728539481385
-87.39732196528701,36.55718678931267
-87.39725564263162,36.5570967048512
-87.39719018131888,36.55700517974668
-87.39712194673761,36.5569072484685
-87.39680664936459,36.55642659296402
-87.39668792493654,36.55623124094061
-87.39657439356131,36.5560286755809
-87.39646894241413,36.55583173982076
-87.39636510033463,36.55562548598635
-87.39626928779735,36.55542200099515
-87.39617434959172,36.55521779051177
-87.39607665125118,36.5550078889711
-87.39598531055349,36.55480649828321
-87.39589032324348,36.55459942674055
-87.39579629877244,36.55439663608885
-87.39574836863292,36.5542934629373
-87.39560821335304,36.55398890892717
-87.39551600119914,36.55378824320319
-87.39541809170956,36.55357560133813
-87.39532584260398,36.55337278984509
-87.39522906054138,36.55316430766941
-87.395183892386,36.55306682523587
-87.39513597649034,36.55296436698681
-87.39508535079077,36.55285907851116
-87.3950303308377,36.55275598657958
-87.39497633648225,36.55266075159892
-87.39491609915081,36.55256344235864
-87.39485144232327,36.55246689925244
-87.39478506327876,36.55237323728643
-87.39471156749046,36.55227822642873
-87.39463458923183,36.55218683228193
-87.3945523429699,36.55209836002543
-87.39447110965611,36.55201702949837
-87.3943801255558,36.55193581101048
-87.39428565899362,36.55185820920116
-87.39417956775466,36.55177501819001
-87.39409339530984,36.55171520447563
-87.39401625162489,36.55166458639528
-87.39393743615483,36.55161971022444
-87.39372596225536,36.55149337857922
-87.39361417192761,36.55143886628895
-87.39350157104664,36.55138865526789
-87.39337740867488,36.55133643092871
-87.39325337267046,36.55129135844398
-87.39312939990342,36.55124986182308
-87.39299841143557,36.55121273770832
-87.39287193100242,36.55117985374418
-87.39273577550917,36.55115137280185
-87.39260767377382,36.55112709129871
-87.39247696324652,36.55110570098349
-87.39234280792211,36.55109007281717
-87.39220871570473,36.55107802049447
-87.39207382535466,36.55107098458638
-87.39193367942488,36.55106758555652
-87.39180157451088,36.55106767081227
-87.39166508781541,36.55107066757158
-87.39153485661568,36.55107645378339
-87.39139667263336,36.55108376177111
-87.39125850122771,36.55109178479993
-87.39112477460193,36.55110047203628
-87.39098838862212,36.55110918962235
-87.39085206560493,36.55112148304789
-87.39071481831155,36.55113164088824
-87.39057755838689,36.55114108337468
-87.39030658420764,36.55115992723848
-87.39003554694335,36.55117519450366
-87.38989556458346,36.5511810907014
-87.38962523738691,36.55118633411096
-87.38960821785983,36.55118748080182
-87.38959153508661,36.55119043086394
-87.38957548129319,36.55119513262191
-87.38956033769347,36.55120150371631
-87.38953825558347,36.55120971546965
-87.38951477150287,36.55121479958706
-87.38949056044143,36.55121660993863
-87.389353111448,36.55121532305916
-87.38921648598335,36.5512104498775
-87.3890816208387,36.55120484103976
-87.38894585668773,36.55119852700415
-87.38881180254474,36.55118861652307
-87.3886750513732,36.55117659074409
-87.38854003539181,36.55116239891883
-87.38840766621304,36.55114746130375
-87.38827168843827,36.55112898813368
-87.38803259428741,36.55109524200144
-87.387898351858,36.5510746025275
-87.3876324385477,36.55102828631762
-87.3873682607282,36.55097980364842
-87.38709872690203,36.55092923563012
-87.3868372216227,36.55088143658961
-87.38657036034856,36.55083155218808
-87.38630530995958,36.55078379253287
-87.38591839106039,36.55071310321736
-87.38565600077499,36.55066531175503
-87.38539092639898,36.55061611970026
-87.38512229406217,36.55056625235751
-87.38486167761786,36.55051843892851
-87.3845948188178,36.55046855017375
-87.38433421555475,36.55042145080909
-87.38406914282027,36.55037225586123
-87.38380141111668,36.5503230906728
-87.38353457871084,36.5502746299809
-87.38326951949694,36.55022614848235
-87.38300624600184,36.55017836138857
-87.38286932209742,36.55015631626485
-87.38238899599493,36.55006736642039
-87.38212029230532,36.55001320122035
-87.38199212057289,36.54998461729726
-87.38186035314662,36.5499532128355
-87.38173567725842,36.54992172744525
-87.38160560781148,36.54988601131055
-87.38146839699833,36.54984751500604
-87.38134893990457,36.54981024704077
-87.38109384518974,36.54972301883954
-87.38084926307482,36.5496285169994
-87.38072421290754,36.54957557456518
-87.38060091074689,36.54952118142111
-87.38032913698589,36.54939265161253
-87.38010006238505,36.54927221946183
-87.37998545034775,36.54920771202089
-87.37987433418611,36.54914030333109
-87.37977395523819,36.54907849513472
-87.3795605380307,36.54894071563399
-87.37933625967625,36.54879018311088
-87.3791281375221,36.5486509119494
-87.37892181390996,36.54851305066922
-87.3787101225914,36.54837238868473
-87.37850202761517,36.54823454682772
-87.3781540307135,36.54800529981947
-87.37784905755827,36.54780274608438
-87.37764104045624,36.54766919392502
-87.37742223750419,36.54752717979084
-87.37721065129404,36.5473922367438
-87.37686093894109,36.54716586688561
-87.37664753198639,36.54702808215796
-87.37632648669198,36.54681855360233
-87.37611667704138,36.54668358849279
-87.37590507039872,36.54654721272173
-87.37569346448682,36.5464108365744
-87.37548006160937,36.54627304975261
-87.37526845716532,36.54613667284932
-87.37500661802557,36.54596652864498
-87.37490260175547,36.54589903492457
-87.37479499031684,36.54582872049633
-87.37458865674272,36.54568942129229
-87.37448636415951,36.54561904630892
-87.37438759238991,36.54554720065603
-87.37428165506965,36.54547114405935
-87.37403919613418,36.54529362474191
-87.37393685477747,36.54522038847667
-87.37383626147727,36.54514570163828
-87.37373754065965,36.54507671625095
-87.37363160459672,36.54500065907276
-87.3735292639966,36.54492742245537
-87.37343226670932,36.544855555929
-87.37333339734103,36.54477798777976
-87.37323275542337,36.54470043961961
-87.37313925441825,36.54462567189991
-87.37303856314014,36.54454526276531
-87.37293966967842,36.5444662638813
-87.37284971470251,36.54439145579623
-87.37275084648802,36.54431388715815
-87.37265375120069,36.54423629837377
-87.37256022643102,36.54416009978967
-87.37246313151925,36.54408251084809
-87.37226894227055,36.54392733272466
-87.37217369522602,36.5438540147013
-87.37207487805722,36.5437793063063
-87.37197254048304,36.54370606834109
-87.37187192612045,36.54362994942495
-87.37176963862778,36.54355957209469
-87.37166732647029,36.54348776427097
-87.37156326662878,36.54341740681191
-87.37145748394477,36.54334993011863
-87.37135167660182,36.5432810229259
-87.37105043357032,36.54308699407338
-87.37093763544307,36.5430238882955
-87.37082661020125,36.5429607623743
-87.37071740750041,36.54290047712628
-87.37060293651371,36.54284311269121
-87.37048487063957,36.54278292739874
-87.37037222233916,36.54272840352335
-87.37025418163363,36.54266964840966
-87.37014333117101,36.54261653469679
-87.37002177022544,36.54255924981426
-87.36990555236021,36.54250333514469
-87.36978935946959,36.54244885076882
-87.36967671212693,36.54239432624041
-87.36955694936356,36.54233845127343
-87.36944252964761,36.54228394654349
-87.36932271760908,36.5422252105299
-87.36909030881276,36.54211481013078
-87.36887942083909,36.54201847324928
-87.36878462554301,36.54197089983131
-87.36866306657932,36.5419136135727
-87.36854330526235,36.54185773759453
-87.36842536637047,36.54180470230881
-87.36829841552998,36.54174318446568
-87.36796052963098,36.5415824671789
-87.36772807508106,36.54146920332794
-87.36747594843328,36.54134614604396
-87.36712543436539,36.54117269265423
-87.36678747902329,36.54100768084154
-87.36644248396016,36.54084560878383
-87.36607956579795,36.54067229214726
-87.36584719084694,36.54056331587598
-87.36573280100215,36.54051023801749
-87.36526795473149,36.54028656204948
-87.36514994620153,36.54022923232168
-87.36503548313107,36.54017186257333
-87.36492454078874,36.54011302240601
-87.36480640915846,36.54004854029742
-87.36469536828095,36.5399839782832
-87.36458610022366,36.53991939622012
-87.36447501027641,36.53985197318352
-87.36437460576013,36.539787291206
-87.364268759946,36.53971551692267
-87.36417714480449,36.53964644384607
-87.36407651841766,36.53956888793598
-87.36398837475261,36.53949548360933
-87.36389299250982,36.53941357650432
-87.36381006825292,36.5393343906003
-87.3636333128003,36.53916040370382
-87.36347962685657,36.53898758786605
-87.36340182374094,36.53889689860553
-87.36332936333938,36.53880757991976
-87.36325685371705,36.53871540036835
-87.36318963740033,36.53862173058493
-87.36312239655227,36.53852663035116
-87.36305867638586,36.5384300598201
-87.36299852627256,36.538334879817
-87.36293652964216,36.53823542847236
-87.36280894228344,36.53803370469593
-87.36269583250802,36.53784898634871
-87.3625663750785,36.53764156056409
-87.36244602802758,36.53744833915784
-87.36232750349691,36.53725795852647
-87.36220715761324,36.53706473685495
-87.36208319316499,36.53686726363538
-87.36196644294769,36.53667686269977
-87.3618424057091,36.53647509797143
-87.36172730588527,36.53627752481523
-87.36167599712864,36.53618081414663
-87.36162456518342,36.53607695139579
-87.36157677712143,36.53597877046146
-87.36152886587541,36.53587343744694
-87.36148452450844,36.5357694950202
-87.36143838605497,36.53566414206114
-87.36139933789046,36.53555870948399
-87.36136024051436,36.53545041606645
-87.3613228664676,36.5353392419101
-87.36128554183806,36.5352309285614
-87.36125365818779,36.53512970756568
-87.36121830352445,36.53503281758682
-87.3611827024024,36.53492162347311
-87.36111337159429,36.53470493695413
-87.36104770946136,36.53449536265145
-87.36098017656117,36.53428008653953
-87.36091631229279,36.53407192265134
-87.36084885405742,36.53386093766971
-87.36081497718976,36.53374686268159
-87.36070071791167,36.53339190313632
-87.36063153763355,36.53318379869437
-87.36056046202238,36.53296856201695
-87.36048938679839,36.53275332528013
-87.36041838587997,36.53254237972479
-87.36034736070552,36.53233000369718
-87.36027818228776,36.53212189896951
-87.36020893032672,36.53190950294402
-87.36013967873807,36.53169710686188
-87.36000312154808,36.53128230754896
-87.35993387106289,36.53106991129864
-87.35986464557945,36.53085894540607
-87.35967395742992,36.53028594595387
-87.3594570625,36.52976663437011
-87.35940659049437,36.52965228603119
-87.35934394033762,36.52944553811705
-87.35926303311693,36.52920799649714
-87.35920067088428,36.52901793665756
-87.35913749510149,36.52887523479494
-87.35913749510137,36.52887523479484
-87.35911917221995,36.52883384684763
-87.3590950284818,36.5287793106085
-87.35904820810848,36.52863390481319
-87.35902838374405,36.52858071450622
-87.35890604947967,36.52820199838196
-87.35890082168227,36.52818914407065
-87.35889303908672,36.52817716144891
-87.35888291477069,36.52816637858101
-87.35887072591996,36.52815709068376
-87.35885680624597,36.52814955204421
-87.35884153684624,36.52814396905767
-87.3588253357714,36.52814049457667
-87.35880864657921,36.5281392237267
-87.35879192619134,36.52814019130136
-87.35877563238347,36.52814337081021
-87.35856229457625,36.52819368942
-87.35845342855112,36.52821994621623
-87.35843311099762,36.52821874244653
-87.35841327889996,36.52821498154921
-87.35840804733587,36.5282132544266
-87.35839442323423,36.52820875663174
-87.35837701080472,36.52820022180273
-87.35836147268536,36.52818958835636
-87.35834819354778,36.52817711954141
-87.35833750213777,36.5281631240445
-87.35832966313902,36.5281479483475
-87.35832487061576,36.52813196814994
-87.35827635776921,36.52797394322051
-87.35826843989442,36.527943033586
-87.35826684536991,36.52792971128686
-87.35826786035852,36.52791635206912
-87.35827145972067,36.52790328680259
-87.35827755430874,36.52789083907647
-87.35828599317732,36.52787931718547
-87.35829656731779,36.52786900649353
-87.3583090148389,36.52786016236686
-87.35832302745098,36.52785300384861
-87.35851146507494,36.52781512550359
-87.3585264967889,36.52781171324313
-87.35854203219995,36.52781044246152
-87.35855760655491,36.52781135117533
-87.358572753933,36.52781441219955
-87.35858702118931,36.52781953396128
-87.35859998150667,36.52782656323871
-87.35861124716654,36.52783528974535
-87.35862048114615,36.52784545242057
-87.35862740720266,36.52785674723933
-87.35865860763882,36.52795296936786
-87.358666601652,36.52797112112062
