trip_id,arrival_time,departure_time,stop_id,stop_sequence

T0,04:40:00,04:40:00,S1,0
T0,04:46:30,04:47:00,S2,2
T0,04:57:30,04:58:00,S3,3
T0,05:04:30,05:05:00,S4,4
T0,05:26:30,05:27:00,S5,5
T0,05:35:30,05:36:00,S2,6
T0,05:48:00,05:48:00,S1,7

T1,06:40:00,06:40:00,S1,0
T1,06:46:30,06:47:00,S2,1
T1,06:57:30,06:58:00,S3,2
T1,07:04:30,07:05:00,S4,3
T1,07:26:30,07:27:00,S5,4
T1,07:35:30,07:36:00,S2,5
T1,07:48:00,07:48:00,S1,6
T2,20:00:00,20:00:00,S1,0
T2,20:06:30,20:07:00,S2,1
T2,20:17:30,20:18:00,S3,2
T2,20:24:30,20:25:00,S4,3
T2,20:36:30,20:37:00,S5,4
T2,20:44:30,20:45:00,S2,5
T2,20:50:30,20:50:30,S1,6
T3,05:00:00,05:00:00,S1,0
T3,05:13:30,05:14:00,S2,1
T3,05:26:30,05:27:00,S5,2
T3,05:51:30,05:52:00,S6,3
T3,06:04:30,06:05:00,S7,4
T3,06:26:30,06:27:00,S5,5
T3,06:35:30,06:36:00,S2,6
T3,06:50:00,06:50:00,S1,7
T4,06:00:00,06:00:00,S1,0
T4,06:13:30,06:14:00,S2,1
T4,06:26:30,06:27:00,S5,2
T4,06:51:30,06:52:00,S6,3
T4,07:04:30,07:05:00,S7,4
T4,07:26:30,07:27:00,S5,5
T4,07:35:30,07:36:00,S2,6
T4,07:50:00,07:50:00,S1,7
T5,07:00:00,07:00:00,S1,0
T5,07:13:30,07:14:00,S2,1
T5,07:26:30,07:27:00,S5,2
T5,07:51:30,07:52:00,S6,3
T5,08:04:30,08:05:00,S7,4
T5,08:26:30,08:27:00,S5,5
T5,08:35:30,08:36:00,S2,6
T5,08:50:00,08:50:00,S1,7
T6,08:00:00,08:00:00,S1,0
T6,08:13:30,08:14:00,S2,1
T6,08:26:30,08:27:00,S5,2
T6,08:51:30,08:52:00,S6,3
T6,09:04:30,09:05:00,S7,4
T6,09:26:30,09:27:00,S5,5
T6,09:35:30,09:36:00,S2,6
T6,09:50:00,09:50:00,S1,7
T7,09:00:00,09:00:00,S1,0
T7,09:13:30,09:14:00,S2,1
T7,09:26:30,09:27:00,S5,2
T7,09:51:30,09:52:00,S6,3
T7,10:04:30,10:05:00,S7,4
T7,10:26:30,10:27:00,S5,5
T7,10:35:30,10:36:00,S2,6
T7,10:50:00,10:50:00,S1,7
T8,10:00:00,10:00:00,S1,0
T8,10:13:30,10:14:00,S2,1
T8,10:26:30,10:27:00,S5,2
T8,10:51:30,10:52:00,S6,3
T8,11:04:30,11:05:00,S7,4
T8,11:26:30,11:27:00,S5,5
T8,11:35:30,11:36:00,S2,6
T8,11:50:00,11:50:00,S1,7
T9,11:00:00,11:00:00,S1,0
T9,11:13:30,11:14:00,S2,1
T9,11:26:30,11:27:00,S5,2
T9,11:51:30,11:52:00,S6,3
T9,12:04:30,12:05:00,S7,4
T9,12:26:30,12:27:00,S5,5
T9,12:35:30,12:36:00,S2,6
T9,12:50:00,12:50:00,S1,7
T10,12:00:00,12:00:00,S1,0
T10,12:13:30,12:14:00,S2,1
T10,12:26:30,12:27:00,S5,2
T10,12:51:30,12:52:00,S6,3
T10,13:04:30,13:05:00,S7,4
T10,13:26:30,13:27:00,S5,5
T10,13:35:30,13:36:00,S2,6
T10,13:50:00,13:50:00,S1,7
T11,13:00:00,13:00:00,S1,0
T11,13:13:30,13:14:00,S2,1
T11,13:26:30,13:27:00,S5,2
T11,13:51:30,13:52:00,S6,3
T11,14:04:30,14:05:00,S7,4
T11,14:26:30,14:27:00,S5,5
T11,14:35:30,14:36:00,S2,6
T11,14:50:00,14:50:00,S1,7
T12,14:00:00,14:00:00,S1,0
T12,14:13:30,14:14:00,S2,1
T12,14:26:30,14:27:00,S5,2
T12,14:51:30,14:52:00,S6,3
T12,15:04:30,15:05:00,S7,4
T12,15:26:30,15:27:00,S5,5
T12,15:35:30,15:36:00,S2,6
T12,15:50:00,15:50:00,S1,7
T13,15:00:00,15:00:00,S1,0
T13,15:13:30,15:14:00,S2,1
T13,15:26:30,15:27:00,S5,2
T13,15:51:30,15:52:00,S6,3
T13,16:04:30,16:05:00,S7,4
T13,16:26:30,16:27:00,S5,5
T13,16:35:30,16:36:00,S2,6
T13,16:50:00,16:50:00,S1,7
T14,15:00:00,15:00:00,S1,0
T14,15:13:30,15:14:00,S2,1
T14,15:26:30,15:27:00,S5,2
T14,15:51:30,15:52:00,S6,3
T14,16:04:30,16:05:00,S7,4
T14,16:26:30,16:27:00,S5,5
T14,16:35:30,16:36:00,S2,6
T14,16:50:00,16:50:00,S1,7
T15,16:00:00,16:00:00,S1,0
T15,16:13:30,16:14:00,S2,1
T15,16:26:30,16:27:00,S5,2
T15,16:51:30,16:52:00,S6,3
T15,17:04:30,17:05:00,S7,4
T15,17:26:30,17:27:00,S5,5
T15,17:35:30,17:36:00,S2,6
T15,17:50:00,17:50:00,S1,7
T16,17:00:00,17:00:00,S1,0
T16,17:13:30,17:14:00,S2,1
T16,17:26:30,17:27:00,S5,2
T16,17:51:30,17:52:00,S6,3
T16,18:04:30,18:05:00,S7,4
T16,18:26:30,18:27:00,S5,5
T16,18:35:30,18:36:00,S2,6
T16,18:50:00,18:50:00,S1,7
T17,18:00:00,18:00:00,S1,0
T17,18:13:30,18:14:00,S2,1
T17,18:26:30,18:27:00,S5,2
T17,18:51:30,18:52:00,S6,3
T17,19:04:30,19:05:00,S7,4
T17,19:26:30,19:27:00,S5,5
T17,19:35:30,19:36:00,S2,6
T17,19:50:00,19:50:00,S1,7

T18,06:30:00,06:30:00,S1,0
T18,06:56:30,06:57:00,S5,1
T18,07:15:30,07:16:00,S9,2
T18,07:24:30,07:25:00,S10,4
T18,07:32:30,07:33:00,S9,5
T18,07:56:30,07:57:00,S5,6
T18,08:20:00,08:20:00,S1,7
T19,07:30:00,07:30:00,S1,0
T19,07:56:30,07:57:00,S5,1
T19,08:15:30,08:16:00,S9,2
T19,08:24:30,08:25:00,S10,4
T19,08:32:30,08:33:00,S9,5
T19,08:56:30,08:57:00,S5,6
T19,09:20:00,09:20:00,S1,7
T20,08:30:00,08:30:00,S1,0
T20,08:56:30,08:57:00,S5,1
T20,09:15:30,09:16:00,S9,2
T20,09:24:30,09:25:00,S10,4
T20,09:32:30,09:33:00,S9,5
T20,09:56:30,09:57:00,S5,6
T20,10:20:00,10:20:00,S1,7
T21,09:30:00,09:30:00,S1,0
T21,09:56:30,09:57:00,S5,1
T21,10:15:30,10:16:00,S9,2
T21,10:24:30,10:25:00,S10,4
T21,10:32:30,10:33:00,S9,5
T21,10:56:30,10:57:00,S5,6
T21,11:20:00,11:20:00,S1,7
T22,10:30:00,10:30:00,S1,0
T22,10:56:30,10:57:00,S5,1
T22,11:15:30,11:16:00,S9,2
T22,11:24:30,11:25:00,S10,4
T22,11:32:30,11:33:00,S9,5
T22,11:56:30,11:57:00,S5,6
T22,12:20:00,12:20:00,S1,7
T23,11:30:00,11:30:00,S1,0
T23,11:56:30,11:57:00,S5,1
T23,12:15:30,12:16:00,S9,2
T23,12:24:30,12:25:00,S10,4
T23,12:32:30,12:33:00,S9,5
T23,12:56:30,12:57:00,S5,6
T23,13:20:00,13:20:00,S1,7
T24,12:30:00,12:30:00,S1,0
T24,12:56:30,12:57:00,S5,1
T24,13:15:30,13:16:00,S9,2
T24,13:24:30,13:25:00,S10,4
T24,13:32:30,13:33:00,S9,5
T24,13:56:30,13:57:00,S5,6
T24,14:20:00,14:20:00,S1,7
T25,13:30:00,13:30:00,S1,0
T25,13:56:30,13:57:00,S5,1
T25,14:15:30,14:16:00,S9,2
T25,14:24:30,14:25:00,S10,4
T25,14:32:30,14:33:00,S9,5
T25,14:56:30,14:57:00,S5,6
T25,15:20:00,15:20:00,S1,7
T26,14:30:00,14:30:00,S1,0
T26,14:56:30,14:57:00,S5,1
T26,15:15:30,15:16:00,S9,2
T26,15:24:30,15:25:00,S10,4
T26,15:32:30,15:33:00,S9,5
T26,15:56:30,15:57:00,S5,6
T26,16:20:00,16:20:00,S1,7
T27,15:30:00,15:30:00,S1,0
T27,15:56:30,15:57:00,S5,1
T27,16:15:30,16:16:00,S9,2
T27,16:24:30,16:25:00,S10,4
T27,16:32:30,16:33:00,S9,5
T27,16:56:30,16:57:00,S5,6
T27,17:20:00,17:20:00,S1,7
T28,16:30:00,16:30:00,S1,0
T28,16:56:30,16:57:00,S5,1
T28,17:15:30,17:16:00,S9,2
T28,17:24:30,17:25:00,S10,4
T28,17:32:30,17:33:00,S9,5
T28,17:56:30,17:57:00,S5,6
T28,18:20:00,18:20:00,S1,7
T29,17:30:00,17:30:00,S1,0
T29,17:56:30,17:57:00,S5,1
T29,18:15:30,18:16:00,S9,2
T29,18:24:30,18:25:00,S10,4
T29,18:32:30,18:33:00,S9,5
T29,18:56:30,18:57:00,S5,6
T29,19:20:00,19:20:00,S1,7
T30,18:30:00,18:30:00,S1,0
T30,18:56:30,18:57:00,S5,1
T30,19:15:30,19:16:00,S9,2
T30,19:24:30,19:25:00,S10,4
T30,19:32:30,19:33:00,S9,5
T30,19:56:30,19:57:00,S5,6
T30,20:20:00,20:20:00,S1,7

T31,06:00:00,06:00:00,S1,0
T31,06:06:30,06:07:00,S2,1
T31,06:12:30,06:13:00,S11,2
T31,06:26:30,06:27:00,S5,3
T31,06:32:30,06:33:00,S12,4
T31,06:36:30,06:37:00,S13,5
T31,06:50:00,06:50:00,S1,6
T32,06:30:00,06:30:00,S1,0
T32,06:36:30,06:37:00,S2,1
T32,06:42:30,06:43:00,S11,2
T32,06:56:30,06:57:00,S5,3
T32,07:02:30,07:03:00,S12,4
T32,07:06:30,07:07:00,S13,5
T32,07:20:00,07:20:00,S1,6
T33,07:00:00,07:00:00,S1,0
T33,07:06:30,07:07:00,S2,1
T33,07:12:30,07:13:00,S11,2
T33,07:26:30,07:27:00,S5,3
T33,07:32:30,07:33:00,S12,4
T33,07:36:30,07:37:00,S13,5
T33,07:50:00,07:50:00,S1,6
T34,07:30:00,07:30:00,S1,0
T34,07:36:30,07:37:00,S2,1
T34,07:42:30,07:43:00,S11,2
T34,07:56:30,07:57:00,S5,3
T34,08:02:30,08:03:00,S12,4
T34,08:06:30,08:07:00,S13,5
T34,08:20:00,08:20:00,S1,6
T35,08:00:00,08:00:00,S1,0
T35,08:06:30,08:07:00,S2,1
T35,08:12:30,08:13:00,S11,2
T35,08:26:30,08:27:00,S5,3
T35,08:32:30,08:33:00,S12,4
T35,08:36:30,08:37:00,S13,5
T35,08:50:00,08:50:00,S1,6
T36,08:30:00,08:30:00,S1,0
T36,08:36:30,08:37:00,S2,1
T36,08:42:30,08:43:00,S11,2
T36,08:56:30,08:57:00,S5,3
T36,09:02:30,09:03:00,S12,4
T36,09:06:30,09:07:00,S13,5
T36,09:20:00,09:20:00,S1,6
T37,09:00:00,09:00:00,S1,0
T37,09:06:30,09:07:00,S2,1
T37,09:12:30,09:13:00,S11,2
T37,09:26:30,09:27:00,S5,3
T37,09:32:30,09:33:00,S12,4
T37,09:36:30,09:37:00,S13,5
T37,09:50:00,09:50:00,S1,6
T38,09:30:00,09:30:00,S1,0
T38,09:36:30,09:37:00,S2,1
T38,09:42:30,09:43:00,S11,2
T38,09:56:30,09:57:00,S5,3
T38,10:02:30,10:03:00,S12,4
T38,10:06:30,10:07:00,S13,5
T38,10:20:00,10:20:00,S1,6
T39,10:00:00,10:00:00,S1,0
T39,10:06:30,10:07:00,S2,1
T39,10:12:30,10:13:00,S11,2
T39,10:26:30,10:27:00,S5,3
T39,10:32:30,10:33:00,S12,4
T39,10:36:30,10:37:00,S13,5
T39,10:50:00,10:50:00,S1,6
T40,10:30:00,10:30:00,S1,0
T40,10:36:30,10:37:00,S2,1
T40,10:42:30,10:43:00,S11,2
T40,10:56:30,10:57:00,S5,3
T40,11:02:30,11:03:00,S12,4
T40,11:06:30,11:07:00,S13,5
T40,11:20:00,11:20:00,S1,6
T41,11:00:00,11:00:00,S1,0
T41,11:06:30,11:07:00,S2,1
T41,11:12:30,11:13:00,S11,2
T41,11:26:30,11:27:00,S5,3
T41,11:32:30,11:33:00,S12,4
T41,11:36:30,11:37:00,S13,5
T41,11:50:00,11:50:00,S1,6
T42,11:30:00,11:30:00,S1,0
T42,11:36:30,11:37:00,S2,1
T42,11:42:30,11:43:00,S11,2
T42,11:56:30,11:57:00,S5,3
T42,12:02:30,12:03:00,S12,4
T42,12:06:30,12:07:00,S13,5
T42,12:20:00,12:20:00,S1,6
T43,12:00:00,12:00:00,S1,0
T43,12:06:30,12:07:00,S2,1
T43,12:12:30,12:13:00,S11,2
T43,12:26:30,12:27:00,S5,3
T43,12:32:30,12:33:00,S12,4
T43,12:36:30,12:37:00,S13,5
T43,12:50:00,12:50:00,S1,6
T44,12:30:00,12:30:00,S1,0
T44,12:36:30,12:37:00,S2,1
T44,12:42:30,12:43:00,S11,2
T44,12:56:30,12:57:00,S5,3
T44,13:02:30,13:03:00,S12,4
T44,13:06:30,13:07:00,S13,5
T44,13:20:00,13:20:00,S1,6
T45,13:00:00,13:00:00,S1,0
T45,13:06:30,13:07:00,S2,1
T45,13:12:30,13:13:00,S11,2
T45,13:26:30,13:27:00,S5,3
T45,13:32:30,13:33:00,S12,4
T45,13:36:30,13:37:00,S13,5
T45,13:50:00,13:50:00,S1,6
T46,13:30:00,13:30:00,S1,0
T46,13:36:30,13:37:00,S2,1
T46,13:42:30,13:43:00,S11,2
T46,13:56:30,13:57:00,S5,3
T46,14:02:30,14:03:00,S12,4
T46,14:06:30,14:07:00,S13,5
T46,14:20:00,14:20:00,S1,6
T47,14:00:00,14:00:00,S1,0
T47,14:06:30,14:07:00,S2,1
T47,14:12:30,14:13:00,S11,2
T47,14:26:30,14:27:00,S5,3
T47,14:32:30,14:33:00,S12,4
T47,14:36:30,14:37:00,S13,5
T47,14:50:00,14:50:00,S1,6
T48,14:30:00,14:30:00,S1,0
T48,14:36:30,14:37:00,S2,1
T48,14:42:30,14:43:00,S11,2
T48,14:56:30,14:57:00,S5,3
T48,15:02:30,15:03:00,S12,4
T48,15:06:30,15:07:00,S13,5
T48,15:20:00,15:20:00,S1,6
T49,15:00:00,15:00:00,S1,0
T49,15:06:30,15:07:00,S2,1
T49,15:12:30,15:13:00,S11,2
T49,15:26:30,15:27:00,S5,3
T49,15:32:30,15:33:00,S12,4
T49,15:36:30,15:37:00,S13,5
T49,15:50:00,15:50:00,S1,6
T50,15:30:00,15:30:00,S1,0
T50,15:36:30,15:37:00,S2,1
T50,15:42:30,15:43:00,S11,2
T50,15:56:30,15:57:00,S5,3
T50,16:02:30,16:03:00,S12,4
T50,16:06:30,16:07:00,S13,5
T50,16:20:00,16:20:00,S1,6
T51,16:00:00,16:00:00,S1,0
T51,16:06:30,16:07:00,S2,1
T51,16:12:30,16:13:00,S11,2
T51,16:26:30,16:27:00,S5,3
T51,16:32:30,16:33:00,S12,4
T51,16:36:30,16:37:00,S13,5
T51,16:50:00,16:50:00,S1,6
T52,16:30:00,16:30:00,S1,0
T52,16:36:30,16:37:00,S2,1
T52,16:42:30,16:43:00,S11,2
T52,16:56:30,16:57:00,S5,3
T52,17:02:30,17:03:00,S12,4
T52,17:06:30,17:07:00,S13,5
T52,17:20:00,17:20:00,S1,6
T53,17:00:00,17:00:00,S1,0
T53,17:06:30,17:07:00,S2,1
T53,17:12:30,17:13:00,S11,2
T53,17:26:30,17:27:00,S5,3
T53,17:32:30,17:33:00,S12,4
T53,17:36:30,17:37:00,S13,5
T53,17:50:00,17:50:00,S1,6
T54,17:30:00,17:30:00,S1,0
T54,17:36:30,17:37:00,S2,1
T54,17:42:30,17:43:00,S11,2
T54,17:56:30,17:57:00,S5,3
T54,18:02:30,18:03:00,S12,4
T54,18:06:30,18:07:00,S13,5
T54,18:20:00,18:20:00,S1,6
T55,18:00:00,18:00:00,S1,0
T55,18:06:30,18:07:00,S2,1
T55,18:12:30,18:13:00,S11,2
T55,18:26:30,18:27:00,S5,3
T55,18:32:30,18:33:00,S12,4
T55,18:36:30,18:37:00,S13,5
T55,18:50:00,18:50:00,S1,6
T56,19:00:00,19:00:00,S1,0
T56,19:06:30,19:07:00,S2,1
T56,19:12:30,19:13:00,S11,2
T56,19:26:30,19:27:00,S5,3
T56,19:32:30,19:33:00,S12,4
T56,19:36:30,19:37:00,S13,5
T56,19:50:00,19:50:00,S1,6
T57,20:00:00,20:00:00,S1,0
T57,20:06:30,20:07:00,S2,1
T57,20:12:30,20:13:00,S11,2
T57,20:26:30,20:27:00,S5,3
T57,20:32:30,20:33:00,S12,4
T57,20:36:30,20:37:00,S13,5
T57,20:50:00,20:50:00,S1,6

T58,06:00:00,06:00:00,S1,0
T58,06:06:30,06:07:00,S2,1
T58,06:17:30,06:18:00,S14,2
T58,06:26:30,06:27:00,S5,3
T58,06:37:30,06:38:00,S15,4
T58,06:39:30,06:40:00,S16,5
T58,06:50:00,06:50:00,S1,6
T59,07:00:00,07:00:00,S1,0
T59,07:06:30,07:07:00,S2,1
T59,07:17:30,07:18:00,S14,2
T59,07:26:30,07:27:00,S5,3
T59,07:37:30,07:38:00,S15,4
T59,07:39:30,07:40:00,S16,5
T59,07:50:00,07:50:00,S1,6
T60,08:00:00,08:00:00,S1,0
T60,08:06:30,08:07:00,S2,1
T60,08:17:30,08:18:00,S14,2
T60,08:26:30,08:27:00,S5,3
T60,08:37:30,08:38:00,S15,4
T60,08:39:30,08:40:00,S16,5
T60,08:50:00,08:50:00,S1,6
T61,09:00:00,09:00:00,S1,0
T61,09:06:30,09:07:00,S2,1
T61,09:17:30,09:18:00,S14,2
T61,09:26:30,09:27:00,S5,3
T61,09:37:30,09:38:00,S15,4
T61,09:39:30,09:40:00,S16,5
T61,09:50:00,09:50:00,S1,6
T62,10:00:00,10:00:00,S1,0
T62,10:06:30,10:07:00,S2,1
T62,10:17:30,10:18:00,S14,2
T62,10:26:30,10:27:00,S5,3
T62,10:37:30,10:38:00,S15,4
T62,10:39:30,10:40:00,S16,5
T62,10:50:00,10:50:00,S1,6
T63,11:00:00,11:00:00,S1,0
T63,11:06:30,11:07:00,S2,1
T63,11:17:30,11:18:00,S14,2
T63,11:26:30,11:27:00,S5,3
T63,11:37:30,11:38:00,S15,4
T63,11:39:30,11:40:00,S16,5
T63,11:50:00,11:50:00,S1,6
T64,12:00:00,12:00:00,S1,0
T64,12:06:30,12:07:00,S2,1
T64,12:17:30,12:18:00,S14,2
T64,12:26:30,12:27:00,S5,3
T64,12:37:30,12:38:00,S15,4
T64,12:39:30,12:40:00,S16,5
T64,12:50:00,12:50:00,S1,6
T65,13:00:00,13:00:00,S1,0
T65,13:06:30,13:07:00,S2,1
T65,13:17:30,13:18:00,S14,2
T65,13:26:30,13:27:00,S5,3
T65,13:37:30,13:38:00,S15,4
T65,13:39:30,13:40:00,S16,5
T65,13:50:00,13:50:00,S1,6
T66,14:00:00,14:00:00,S1,0
T66,14:06:30,14:07:00,S2,1
T66,14:17:30,14:18:00,S14,2
T66,14:26:30,14:27:00,S5,3
T66,14:37:30,14:38:00,S15,4
T66,14:39:30,14:40:00,S16,5
T66,14:50:00,14:50:00,S1,6
T67,15:00:00,15:00:00,S1,0
T67,15:06:30,15:07:00,S2,1
T67,15:17:30,15:18:00,S14,2
T67,15:26:30,15:27:00,S5,3
T67,15:37:30,15:38:00,S15,4
T67,15:39:30,15:40:00,S16,5
T67,15:50:00,15:50:00,S1,6
T68,16:00:00,16:00:00,S1,0
T68,16:06:30,16:07:00,S2,1
T68,16:17:30,16:18:00,S14,2
T68,16:26:30,16:27:00,S5,3
T68,16:37:30,16:38:00,S15,4
T68,16:39:30,16:40:00,S16,5
T68,16:50:00,16:50:00,S1,6
T69,17:00:00,17:00:00,S1,0
T69,17:06:30,17:07:00,S2,1
T69,17:17:30,17:18:00,S14,2
T69,17:26:30,17:27:00,S5,3
T69,17:37:30,17:38:00,S15,4
T69,17:39:30,17:40:00,S16,5
T69,17:50:00,17:50:00,S1,6
T70,18:00:00,18:00:00,S1,0
T70,18:06:30,18:07:00,S2,1
T70,18:17:30,18:18:00,S14,2
T70,18:26:30,18:27:00,S5,3
T70,18:37:30,18:38:00,S15,4
T70,18:39:30,18:40:00,S16,5
T70,18:50:00,18:50:00,S1,6
T71,19:00:00,19:00:00,S1,0
T71,19:06:30,19:07:00,S2,1
T71,19:17:30,19:18:00,S14,2
T71,19:26:30,19:27:00,S5,3
T71,19:37:30,19:38:00,S15,4
T71,19:39:30,19:40:00,S16,5
T71,19:50:00,19:50:00,S1,6
T72,20:00:00,20:00:00,S1,0
T72,20:06:30,20:07:00,S2,1
T72,20:17:30,20:18:00,S14,2
T72,20:26:30,20:27:00,S5,3
T72,20:37:30,20:38:00,S15,4
T72,20:39:30,20:40:00,S16,5
T72,20:50:00,20:50:00,S1,6

T73,05:20:00,05:20:00,S17,0
T73,05:29:30,05:30:00,S21,1
T73,05:36:30,05:37:00,S22,2
T73,06:53:00,06:53:00,S23,3
T74,06:20:00,06:20:00,S17,0
T74,06:29:30,06:30:00,S21,1
T74,06:36:30,06:37:00,S22,2
T74,07:53:00,07:53:00,S23,3
T75,20:00:00,20:00:00,S1,0
T75,20:14:30,20:15:00,S18,1
T75,20:19:30,20:20:00,S19,2
T75,20:21:30,20:22:00,S20,3
T75,20:29:30,20:30:00,S21,4
T75,20:36:30,20:37:00,S22,5
T75,20:45:00,20:45:00,S17,6
T76,06:00:00,06:00:00,S1,0
T76,06:14:30,06:15:00,S18,1
T76,06:19:30,06:20:00,S19,2
T76,06:29:30,06:30:00,S21,3
T76,06:52:30,06:53:00,S23,4
T76,07:16:30,07:17:00,S20,5
T76,07:22:30,07:23:00,S19,6
T76,07:50:00,07:50:00,S1,7
T77,07:00:00,07:00:00,S1,0
T77,07:14:30,07:15:00,S18,1
T77,07:19:30,07:20:00,S19,2
T77,07:29:30,07:30:00,S21,3
T77,07:52:30,07:53:00,S23,4
T77,08:16:30,08:17:00,S20,5
T77,08:22:30,08:23:00,S19,6
T77,08:50:00,08:50:00,S1,7
T78,08:00:00,08:00:00,S1,0
T78,08:14:30,08:15:00,S18,1
T78,08:19:30,08:20:00,S19,2
T78,08:29:30,08:30:00,S21,3
T78,08:52:30,08:53:00,S23,4
T78,09:16:30,09:17:00,S20,5
T78,09:22:30,09:23:00,S19,6
T78,09:50:00,09:50:00,S1,7
T79,09:00:00,09:00:00,S1,0
T79,09:14:30,09:15:00,S18,1
T79,09:19:30,09:20:00,S19,2
T79,09:29:30,09:30:00,S21,3
T79,09:52:30,09:53:00,S23,4
T79,10:16:30,10:17:00,S20,5
T79,10:22:30,10:23:00,S19,6
T79,10:50:00,10:50:00,S1,7
T80,10:00:00,10:00:00,S1,0
T80,10:14:30,10:15:00,S18,1
T80,10:19:30,10:20:00,S19,2
T80,10:29:30,10:30:00,S21,3
T80,10:52:30,10:53:00,S23,4
T80,11:16:30,11:17:00,S20,5
T80,11:22:30,11:23:00,S19,6
T80,11:50:00,11:50:00,S1,7
T81,11:00:00,11:00:00,S1,0
T81,11:14:30,11:15:00,S18,1
T81,11:19:30,11:20:00,S19,2
T81,11:29:30,11:30:00,S21,3
T81,11:52:30,11:53:00,S23,4
T81,12:16:30,12:17:00,S20,5
T81,12:22:30,12:23:00,S19,6
T81,12:50:00,12:50:00,S1,7
T82,12:00:00,12:00:00,S1,0
T82,12:14:30,12:15:00,S18,1
T82,12:19:30,12:20:00,S19,2
T82,12:29:30,12:30:00,S21,3
T82,12:52:30,12:53:00,S23,4
T82,13:16:30,13:17:00,S20,5
T82,13:22:30,13:23:00,S19,6
T82,13:50:00,13:50:00,S1,7
T83,13:00:00,13:00:00,S1,0
T83,13:14:30,13:15:00,S18,1
T83,13:19:30,13:20:00,S19,2
T83,13:29:30,13:30:00,S21,3
T83,13:52:30,13:53:00,S23,4
T83,14:16:30,14:17:00,S20,5
T83,14:22:30,14:23:00,S19,6
T83,14:50:00,14:50:00,S1,7
T84,14:00:00,14:00:00,S1,0
T84,14:14:30,14:15:00,S18,1
T84,14:19:30,14:20:00,S19,2
T84,14:29:30,14:30:00,S21,3
T84,14:52:30,14:53:00,S23,4
T84,15:16:30,15:17:00,S20,5
T84,15:22:30,15:23:00,S19,6
T84,15:50:00,15:50:00,S1,7
T85,15:00:00,15:00:00,S1,0
T85,15:14:30,15:15:00,S18,1
T85,15:19:30,15:20:00,S19,2
T85,15:29:30,15:30:00,S21,3
T85,15:52:30,15:53:00,S23,4
T85,16:16:30,16:17:00,S20,5
T85,16:22:30,16:23:00,S19,6
T85,16:50:00,16:50:00,S1,7
T86,16:00:00,16:00:00,S1,0
T86,16:14:30,16:15:00,S18,1
T86,16:19:30,16:20:00,S19,2
T86,16:29:30,16:30:00,S21,3
T86,16:52:30,16:53:00,S23,4
T86,17:16:30,17:17:00,S20,5
T86,17:22:30,17:23:00,S19,6
T86,17:50:00,17:50:00,S1,7
T87,17:00:00,17:00:00,S1,0
T87,17:14:30,17:15:00,S18,1
T87,17:19:30,17:20:00,S19,2
T87,17:29:30,17:30:00,S21,3
T87,17:52:30,17:53:00,S23,4
T87,18:16:30,18:17:00,S20,5
T87,18:22:30,18:23:00,S19,6
T87,18:50:00,18:50:00,S1,7
T88,18:00:00,18:00:00,S1,0
T88,18:14:30,18:15:00,S18,1
T88,18:19:30,18:20:00,S19,2
T88,18:29:30,18:30:00,S21,3
T88,18:52:30,18:53:00,S23,4
T88,19:16:30,19:17:00,S20,5
T88,19:22:30,19:23:00,S19,6
T88,19:50:00,19:50:00,S1,7
T89,19:00:00,19:00:00,S1,0
T89,19:14:30,19:15:00,S18,1
T89,19:19:30,19:20:00,S19,2
T89,19:29:30,19:30:00,S21,3
T89,19:52:30,19:53:00,S23,4
T89,20:16:30,20:17:00,S20,5
T89,20:22:30,20:23:00,S19,6
T89,20:50:00,20:50:00,S1,7

T90,06:00:00,06:00:00,S1,0
T90,06:04:30,06:05:00,S24,1
T90,06:10:30,06:11:00,S25,2
T90,06:22:30,06:23:00,S27,3
T90,06:31:30,06:32:00,S28,4
T90,06:39:30,06:40:00,S19,5
T90,06:50:00,06:50:00,S1,6
T91,06:30:00,06:30:00,S1,0
T91,06:34:30,06:35:00,S24,1
T91,06:40:30,06:41:00,S25,2
T91,06:49:30,06:50:00,S26,3
T91,06:52:30,06:53:00,S27,4
T91,07:01:30,07:02:00,S28,5
T91,07:09:30,07:10:00,S19,6
T91,07:20:00,07:20:00,S1,7
T92,07:00:00,07:00:00,S1,0
T92,07:04:30,07:05:00,S24,1
T92,07:10:30,07:11:00,S25,2
T92,07:22:30,07:23:00,S27,3
T92,07:31:30,07:32:00,S28,4
T92,07:39:30,07:40:00,S19,5
T92,07:50:00,07:50:00,S1,6
T93,07:30:00,07:30:00,S1,0
T93,07:34:30,07:35:00,S24,1
T93,07:40:30,07:41:00,S25,2
T93,07:49:30,07:50:00,S26,3
T93,07:52:30,07:53:00,S27,4
T93,08:01:30,08:02:00,S28,5
T93,08:09:30,08:10:00,S19,6
T93,08:20:00,08:20:00,S1,7
T94,08:00:00,08:00:00,S1,0
T94,08:04:30,08:05:00,S24,1
T94,08:10:30,08:11:00,S25,2
T94,08:22:30,08:23:00,S27,3
T94,08:31:30,08:32:00,S28,4
T94,08:39:30,08:40:00,S19,5
T94,08:50:00,08:50:00,S1,6
T95,08:30:00,08:30:00,S1,0
T95,08:34:30,08:35:00,S24,1
T95,08:40:30,08:41:00,S25,2
T95,08:49:30,08:50:00,S26,3
T95,08:52:30,08:53:00,S27,4
T95,09:01:30,09:02:00,S28,5
T95,09:09:30,09:10:00,S19,6
T95,09:20:00,09:20:00,S1,7
T96,09:00:00,09:00:00,S1,0
T96,09:04:30,09:05:00,S24,1
T96,09:10:30,09:11:00,S25,2
T96,09:22:30,09:23:00,S27,3
T96,09:31:30,09:32:00,S28,4
T96,09:39:30,09:40:00,S19,5
T96,09:50:00,09:50:00,S1,6
T97,09:30:00,09:30:00,S1,0
T97,09:34:30,09:35:00,S24,1
T97,09:40:30,09:41:00,S25,2
T97,09:49:30,09:50:00,S26,3
T97,09:52:30,09:53:00,S27,4
T97,10:01:30,10:02:00,S28,5
T97,10:09:30,10:10:00,S19,6
T97,10:20:00,10:20:00,S1,7
T98,10:00:00,10:00:00,S1,0
T98,10:04:30,10:05:00,S24,1
T98,10:10:30,10:11:00,S25,2
T98,10:22:30,10:23:00,S27,3
T98,10:31:30,10:32:00,S28,4
T98,10:39:30,10:40:00,S19,5
T98,10:50:00,10:50:00,S1,6
T99,10:30:00,10:30:00,S1,0
T99,10:34:30,10:35:00,S24,1
T99,10:40:30,10:41:00,S25,2
T99,10:49:30,10:50:00,S26,3
T99,10:52:30,10:53:00,S27,4
T99,11:01:30,11:02:00,S28,5
T99,11:09:30,11:10:00,S19,6
T99,11:20:00,11:20:00,S1,7
T100,11:00:00,11:00:00,S1,0
T100,11:04:30,11:05:00,S24,1
T100,11:10:30,11:11:00,S25,2
T100,11:22:30,11:23:00,S27,3
T100,11:31:30,11:32:00,S28,4
T100,11:39:30,11:40:00,S19,5
T100,11:50:00,11:50:00,S1,6
T101,11:30:00,11:30:00,S1,0
T101,11:34:30,11:35:00,S24,1
T101,11:40:30,11:41:00,S25,2
T101,11:49:30,11:50:00,S26,3
T101,11:52:30,11:53:00,S27,4
T101,12:01:30,12:02:00,S28,5
T101,12:09:30,12:10:00,S19,6
T101,12:20:00,12:20:00,S1,7
T102,13:00:00,13:00:00,S1,0
T102,13:04:30,13:05:00,S24,1
T102,13:10:30,13:11:00,S25,2
T102,13:22:30,13:23:00,S27,3
T102,13:31:30,13:32:00,S28,4
T102,13:39:30,13:40:00,S19,5
T102,13:50:00,13:50:00,S1,6
T103,13:30:00,13:30:00,S1,0
T103,13:34:30,13:35:00,S24,1
T103,13:40:30,13:41:00,S25,2
T103,13:49:30,13:50:00,S26,3
T103,13:52:30,13:53:00,S27,4
T103,14:01:30,14:02:00,S28,5
T103,14:09:30,14:10:00,S19,6
T103,14:20:00,14:20:00,S1,7
T104,15:00:00,15:00:00,S1,0
T104,15:04:30,15:05:00,S24,1
T104,15:10:30,15:11:00,S25,2
T104,15:22:30,15:23:00,S27,3
T104,15:31:30,15:32:00,S28,4
T104,15:39:30,15:40:00,S19,5
T104,15:50:00,15:50:00,S1,6
T105,15:30:00,15:30:00,S1,0
T105,15:34:30,15:35:00,S24,1
T105,15:40:30,15:41:00,S25,2
T105,15:49:30,15:50:00,S26,3
T105,15:52:30,15:53:00,S27,4
T105,16:01:30,16:02:00,S28,5
T105,16:09:30,16:10:00,S19,6
T105,16:20:00,16:20:00,S1,7
T106,16:00:00,16:00:00,S1,0
T106,16:04:30,16:05:00,S24,1
T106,16:10:30,16:11:00,S25,2
T106,16:22:30,16:23:00,S27,3
T106,16:31:30,16:32:00,S28,4
T106,16:39:30,16:40:00,S19,5
T106,16:50:00,16:50:00,S1,6
T107,16:30:00,16:30:00,S1,0
T107,16:34:30,16:35:00,S24,1
T107,16:40:30,16:41:00,S25,2
T107,16:49:30,16:50:00,S26,3
T107,16:52:30,16:53:00,S27,4
T107,17:01:30,17:02:00,S28,5
T107,17:09:30,17:10:00,S19,6
T107,17:20:00,17:20:00,S1,7
T108,17:00:00,17:00:00,S1,0
T108,17:04:30,17:05:00,S24,1
T108,17:10:30,17:11:00,S25,2
T108,17:22:30,17:23:00,S27,3
T108,17:31:30,17:32:00,S28,4
T108,17:39:30,17:40:00,S19,5
T108,17:50:00,17:50:00,S1,6
T109,17:30:00,17:30:00,S1,0
T109,17:34:30,17:35:00,S24,1
T109,17:40:30,17:41:00,S25,2
T109,17:49:30,17:50:00,S26,3
T109,17:52:30,17:53:00,S27,4
T109,18:01:30,18:02:00,S28,5
T109,18:09:30,18:10:00,S19,6
T109,18:20:00,18:20:00,S1,7
T110,18:00:00,18:00:00,S1,0
T110,18:04:30,18:05:00,S24,1
T110,18:10:30,18:11:00,S25,2
T110,18:22:30,18:23:00,S27,3
T110,18:31:30,18:32:00,S28,4
T110,18:39:30,18:40:00,S19,5
T110,18:50:00,18:50:00,S1,6
T111,19:00:00,19:00:00,S1,0
T111,19:04:30,19:05:00,S24,1
T111,19:10:30,19:11:00,S25,2
T111,19:22:30,19:23:00,S27,3
T111,19:31:30,19:32:00,S28,4
T111,19:39:30,19:40:00,S19,5
T111,19:50:00,19:50:00,S1,6
T112,20:00:00,20:00:00,S1,0
T112,20:04:30,20:05:00,S24,1
T112,20:10:30,20:11:00,S25,2
T112,20:22:30,20:23:00,S27,3
T112,20:31:30,20:32:00,S28,4
T112,20:39:30,20:40:00,S19,5
T112,20:50:00,20:50:00,S1,6

T113,06:00:00,06:00:00,S1,0
T113,06:07:30,06:08:00,S34,1
T113,06:16:30,06:17:00,S32,2
T113,06:21:30,06:22:00,S35,3
T113,06:26:30,06:27:00,S36,4
T113,06:39:30,06:40:00,S34,5
T113,06:50:30,06:50:30,S34,6
T114,06:30:00,06:30:00,S1,0
T114,06:37:30,06:38:00,S34,1
T114,06:46:30,06:47:00,S32,2
T114,06:51:30,06:52:00,S35,3
T114,06:56:30,06:57:00,S36,4
T114,07:09:30,07:10:00,S34,5
T114,07:20:30,07:20:30,S34,6
T115,07:00:00,07:00:00,S1,0
T115,07:07:30,07:08:00,S34,1
T115,07:16:30,07:17:00,S32,2
T115,07:21:30,07:22:00,S35,3
T115,07:26:30,07:27:00,S36,4
T115,07:39:30,07:40:00,S34,5
T115,07:50:30,07:50:30,S34,6
T116,07:30:00,07:30:00,S1,0
T116,07:37:30,07:38:00,S34,1
T116,07:46:30,07:47:00,S32,2
T116,07:51:30,07:52:00,S35,3
T116,07:56:30,07:57:00,S36,4
T116,08:09:30,08:10:00,S34,5
T116,08:20:30,08:20:30,S34,6
T117,08:00:00,08:00:00,S1,0
T117,08:07:30,08:08:00,S34,1
T117,08:16:30,08:17:00,S32,2
T117,08:21:30,08:22:00,S35,3
T117,08:26:30,08:27:00,S36,4
T117,08:39:30,08:40:00,S34,5
T117,08:50:30,08:50:30,S34,6
T118,08:30:00,08:30:00,S1,0
T118,08:37:30,08:38:00,S34,1
T118,08:46:30,08:47:00,S32,2
T118,08:51:30,08:52:00,S35,3
T118,08:56:30,08:57:00,S36,4
T118,09:09:30,09:10:00,S34,5
T118,09:20:30,09:20:30,S34,6
T119,09:00:00,09:00:00,S1,0
T119,09:07:30,09:08:00,S34,1
T119,09:16:30,09:17:00,S32,2
T119,09:21:30,09:22:00,S35,3
T119,09:26:30,09:27:00,S36,4
T119,09:39:30,09:40:00,S34,5
T119,09:50:30,09:50:30,S34,6
T120,09:30:00,09:30:00,S1,0
T120,09:37:30,09:38:00,S34,1
T120,09:46:30,09:47:00,S32,2
T120,09:51:30,09:52:00,S35,3
T120,09:56:30,09:57:00,S36,4
T120,10:09:30,10:10:00,S34,5
T120,10:20:30,10:20:30,S34,6
T121,10:00:00,10:00:00,S1,0
T121,10:07:30,10:08:00,S34,1
T121,10:16:30,10:17:00,S32,2
T121,10:21:30,10:22:00,S35,3
T121,10:26:30,10:27:00,S36,4
T121,10:39:30,10:40:00,S34,5
T121,10:50:30,10:50:30,S34,6
T122,10:30:00,10:30:00,S1,0
T122,10:37:30,10:38:00,S34,1
T122,10:46:30,10:47:00,S32,2
T122,10:51:30,10:52:00,S35,3
T122,10:56:30,10:57:00,S36,4
T122,11:09:30,11:10:00,S34,5
T122,11:20:30,11:20:30,S34,6
T123,11:00:00,11:00:00,S1,0
T123,11:07:30,11:08:00,S34,1
T123,11:16:30,11:17:00,S32,2
T123,11:21:30,11:22:00,S35,3
T123,11:26:30,11:27:00,S36,4
T123,11:39:30,11:40:00,S34,5
T123,11:50:30,11:50:30,S34,6
T124,11:30:00,11:30:00,S1,0
T124,11:37:30,11:38:00,S34,1
T124,11:46:30,11:47:00,S32,2
T124,11:51:30,11:52:00,S35,3
T124,11:56:30,11:57:00,S36,4
T124,12:09:30,12:10:00,S34,5
T124,12:20:30,12:20:30,S34,6
T125,12:00:00,12:00:00,S1,0
T125,12:07:30,12:08:00,S34,1
T125,12:16:30,12:17:00,S32,2
T125,12:21:30,12:22:00,S35,3
T125,12:26:30,12:27:00,S36,4
T125,12:39:30,12:40:00,S34,5
T125,12:50:30,12:50:30,S34,6
T126,12:30:00,12:30:00,S1,0
T126,12:37:30,12:38:00,S34,1
T126,12:46:30,12:47:00,S32,2
T126,12:51:30,12:52:00,S35,3
T126,12:56:30,12:57:00,S36,4
T126,13:09:30,13:10:00,S34,5
T126,13:20:30,13:20:30,S34,6
T127,13:00:00,13:00:00,S1,0
T127,13:07:30,13:08:00,S34,1
T127,13:16:30,13:17:00,S32,2
T127,13:21:30,13:22:00,S35,3
T127,13:26:30,13:27:00,S36,4
T127,13:39:30,13:40:00,S34,5
T127,13:50:30,13:50:30,S34,6
T128,13:30:00,13:30:00,S1,0
T128,13:37:30,13:38:00,S34,1
T128,13:46:30,13:47:00,S32,2
T128,13:51:30,13:52:00,S35,3
T128,13:56:30,13:57:00,S36,4
T128,14:09:30,14:10:00,S34,5
T128,14:20:30,14:20:30,S34,6
T129,14:00:00,14:00:00,S1,0
T129,14:07:30,14:08:00,S34,1
T129,14:16:30,14:17:00,S32,2
T129,14:21:30,14:22:00,S35,3
T129,14:26:30,14:27:00,S36,4
T129,14:39:30,14:40:00,S34,5
T129,14:50:30,14:50:30,S34,6
T130,14:30:00,14:30:00,S1,0
T130,14:37:30,14:38:00,S34,1
T130,14:46:30,14:47:00,S32,2
T130,14:51:30,14:52:00,S35,3
T130,14:56:30,14:57:00,S36,4
T130,15:09:30,15:10:00,S34,5
T130,15:20:30,15:20:30,S34,6
T131,15:00:00,15:00:00,S1,0
T131,15:07:30,15:08:00,S34,1
T131,15:16:30,15:17:00,S32,2
T131,15:21:30,15:22:00,S35,3
T131,15:26:30,15:27:00,S36,4
T131,15:39:30,15:40:00,S34,5
T131,15:50:30,15:50:30,S34,6
T132,15:30:00,15:30:00,S1,0
T132,15:37:30,15:38:00,S34,1
T132,15:46:30,15:47:00,S32,2
T132,15:51:30,15:52:00,S35,3
T132,15:56:30,15:57:00,S36,4
T132,16:09:30,16:10:00,S34,5
T132,16:20:30,16:20:30,S34,6
T133,16:00:00,16:00:00,S1,0
T133,16:07:30,16:08:00,S34,1
T133,16:16:30,16:17:00,S32,2
T133,16:21:30,16:22:00,S35,3
T133,16:26:30,16:27:00,S36,4
T133,16:39:30,16:40:00,S34,5
T133,16:50:30,16:50:30,S34,6
T134,16:30:00,16:30:00,S1,0
T134,16:37:30,16:38:00,S34,1
T134,16:46:30,16:47:00,S32,2
T134,16:51:30,16:52:00,S35,3
T134,16:56:30,16:57:00,S36,4
T134,17:09:30,17:10:00,S34,5
T134,17:20:30,17:20:30,S34,6
T135,17:00:00,17:00:00,S1,0
T135,17:07:30,17:08:00,S34,1
T135,17:16:30,17:17:00,S32,2
T135,17:21:30,17:22:00,S35,3
T135,17:26:30,17:27:00,S36,4
T135,17:39:30,17:40:00,S34,5
T135,17:50:30,17:50:30,S34,6
T136,17:30:00,17:30:00,S1,0
T136,17:37:30,17:38:00,S34,1
T136,17:46:30,17:47:00,S32,2
T136,17:51:30,17:52:00,S35,3
T136,17:56:30,17:57:00,S36,4
T136,18:09:30,18:10:00,S34,5
T136,18:20:30,18:20:30,S34,6
T137,18:00:00,18:00:00,S1,0
T137,18:07:30,18:08:00,S34,1
T137,18:16:30,18:17:00,S32,2
T137,18:21:30,18:22:00,S35,3
T137,18:26:30,18:27:00,S36,4
T137,18:39:30,18:40:00,S34,5
T137,18:50:30,18:50:30,S34,6
T138,18:30:00,18:30:00,S1,0
T138,18:37:30,18:38:00,S34,1
T138,18:46:30,18:47:00,S32,2
T138,18:51:30,18:52:00,S35,3
T138,18:56:30,18:57:00,S36,4
T138,19:09:30,19:10:00,S34,5
T138,19:20:30,19:20:30,S34,6
T139,19:00:00,19:00:00,S1,0
T139,19:07:30,19:08:00,S34,1
T139,19:16:30,19:17:00,S32,2
T139,19:21:30,19:22:00,S35,3
T139,19:26:30,19:27:00,S36,4
T139,19:39:30,19:40:00,S34,5
T139,19:50:30,19:50:30,S34,6
T140,20:00:00,20:00:00,S1,0
T140,20:07:30,20:08:00,S34,1
T140,20:16:30,20:17:00,S32,2
T140,20:21:30,20:22:00,S35,3
T140,20:26:30,20:27:00,S36,4
T140,20:39:30,20:40:00,S34,5
T140,20:50:30,20:50:30,S34,6

T141,05:00:00,05:00:00,S1,0
T141,05:04:30,05:05:00,S29,1
T141,05:07:30,05:08:00,S30,2
T141,05:21:30,05:22:00,S31,3
T141,05:31:30,05:32:00,S32,4
T141,05:39:30,05:40:00,S33,5
T141,05:52:30,05:57:00,S5,6
T141,06:04:30,06:05:00,S33,7
T141,06:16:30,06:17:00,S32,8
T141,06:28:30,06:29:00,S31,9
T141,06:39:30,06:40:00,S30,10
T141,06:42:30,06:43:00,S29,11
T141,06:50:00,06:50:00,S1,12
T142,06:00:00,06:00:00,S1,0
T142,06:04:30,06:05:00,S29,1
T142,06:07:30,06:08:00,S30,2
T142,06:21:30,06:22:00,S31,3
T142,06:31:30,06:32:00,S32,4
T142,06:39:30,06:40:00,S33,5
T142,06:52:30,06:57:00,S5,6
T142,07:04:30,07:05:00,S33,7
T142,07:16:30,07:17:00,S32,8
T142,07:28:30,07:29:00,S31,9
T142,07:39:30,07:40:00,S30,10
T142,07:42:30,07:43:00,S29,11
T142,07:50:00,07:50:00,S1,12
T143,07:00:00,07:00:00,S1,0
T143,07:04:30,07:05:00,S29,1
T143,07:07:30,07:08:00,S30,2
T143,07:21:30,07:22:00,S31,3
T143,07:31:30,07:32:00,S32,4
T143,07:39:30,07:40:00,S33,5
T143,07:52:30,07:57:00,S5,6
T143,08:04:30,08:05:00,S33,7
T143,08:16:30,08:17:00,S32,8
T143,08:28:30,08:29:00,S31,9
T143,08:39:30,08:40:00,S30,10
T143,08:42:30,08:43:00,S29,11
T143,08:50:00,08:50:00,S1,12
T144,08:00:00,08:00:00,S1,0
T144,08:04:30,08:05:00,S29,1
T144,08:07:30,08:08:00,S30,2
T144,08:21:30,08:22:00,S31,3
T144,08:31:30,08:32:00,S32,4
T144,08:39:30,08:40:00,S33,5
T144,08:52:30,08:57:00,S5,6
T144,09:04:30,09:05:00,S33,7
T144,09:16:30,09:17:00,S32,8
T144,09:28:30,09:29:00,S31,9
T144,09:39:30,09:40:00,S30,10
T144,09:42:30,09:43:00,S29,11
T144,09:50:00,09:50:00,S1,12
T145,09:00:00,09:00:00,S1,0
T145,09:04:30,09:05:00,S29,1
T145,09:07:30,09:08:00,S30,2
T145,09:21:30,09:22:00,S31,3
T145,09:31:30,09:32:00,S32,4
T145,09:39:30,09:40:00,S33,5
T145,09:52:30,09:57:00,S5,6
T145,10:04:30,10:05:00,S33,7
T145,10:16:30,10:17:00,S32,8
T145,10:28:30,10:29:00,S31,9
T145,10:39:30,10:40:00,S30,10
T145,10:42:30,10:43:00,S29,11
T145,10:50:00,10:50:00,S1,12
T146,10:00:00,10:00:00,S1,0
T146,10:04:30,10:05:00,S29,1
T146,10:07:30,10:08:00,S30,2
T146,10:21:30,10:22:00,S31,3
T146,10:31:30,10:32:00,S32,4
T146,10:39:30,10:40:00,S33,5
T146,10:52:30,10:57:00,S5,6
T146,11:04:30,11:05:00,S33,7
T146,11:16:30,11:17:00,S32,8
T146,11:28:30,11:29:00,S31,9
T146,11:39:30,11:40:00,S30,10
T146,11:42:30,11:43:00,S29,11
T146,11:50:00,11:50:00,S1,12
T147,11:00:00,11:00:00,S1,0
T147,11:04:30,11:05:00,S29,1
T147,11:07:30,11:08:00,S30,2
T147,11:21:30,11:22:00,S31,3
T147,11:31:30,11:32:00,S32,4
T147,11:39:30,11:40:00,S33,5
T147,11:52:30,11:57:00,S5,6
T147,12:04:30,12:05:00,S33,7
T147,12:16:30,12:17:00,S32,8
T147,12:28:30,12:29:00,S31,9
T147,12:39:30,12:40:00,S30,10
T147,12:42:30,12:43:00,S29,11
T147,12:50:00,12:50:00,S1,12
T148,12:00:00,12:00:00,S1,0
T148,12:04:30,12:05:00,S29,1
T148,12:07:30,12:08:00,S30,2
T148,12:21:30,12:22:00,S31,3
T148,12:31:30,12:32:00,S32,4
T148,12:39:30,12:40:00,S33,5
T148,12:52:30,12:57:00,S5,6
T148,13:04:30,13:05:00,S33,7
T148,13:16:30,13:17:00,S32,8
T148,13:28:30,13:29:00,S31,9
T148,13:39:30,13:40:00,S30,10
T148,13:42:30,13:43:00,S29,11
T148,13:50:00,13:50:00,S1,12
T149,13:00:00,13:00:00,S1,0
T149,13:04:30,13:05:00,S29,1
T149,13:07:30,13:08:00,S30,2
T149,13:21:30,13:22:00,S31,3
T149,13:31:30,13:32:00,S32,4
T149,13:39:30,13:40:00,S33,5
T149,13:52:30,13:57:00,S5,6
T149,14:04:30,14:05:00,S33,7
T149,14:16:30,14:17:00,S32,8
T149,14:28:30,14:29:00,S31,9
T149,14:39:30,14:40:00,S30,10
T149,14:42:30,14:43:00,S29,11
T149,14:50:00,14:50:00,S1,12
T150,14:00:00,14:00:00,S1,0
T150,14:04:30,14:05:00,S29,1
T150,14:07:30,14:08:00,S30,2
T150,14:21:30,14:22:00,S31,3
T150,14:31:30,14:32:00,S32,4
T150,14:39:30,14:40:00,S33,5
T150,14:52:30,14:57:00,S5,6
T150,15:04:30,15:05:00,S33,7
T150,15:16:30,15:17:00,S32,8
T150,15:28:30,15:29:00,S31,9
T150,15:39:30,15:40:00,S30,10
T150,15:42:30,15:43:00,S29,11
T150,15:50:00,15:50:00,S1,12
T151,15:00:00,15:00:00,S1,0
T151,15:04:30,15:05:00,S29,1
T151,15:07:30,15:08:00,S30,2
T151,15:21:30,15:22:00,S31,3
T151,15:31:30,15:32:00,S32,4
T151,15:39:30,15:40:00,S33,5
T151,15:52:30,15:57:00,S5,6
T151,16:04:30,16:05:00,S33,7
T151,16:16:30,16:17:00,S32,8
T151,16:28:30,16:29:00,S31,9
T151,16:39:30,16:40:00,S30,10
T151,16:42:30,16:43:00,S29,11
T151,16:50:00,16:50:00,S1,12
T152,16:00:00,16:00:00,S1,0
T152,16:04:30,16:05:00,S29,1
T152,16:07:30,16:08:00,S30,2
T152,16:21:30,16:22:00,S31,3
T152,16:31:30,16:32:00,S32,4
T152,16:39:30,16:40:00,S33,5
T152,16:52:30,16:57:00,S5,6
T152,17:04:30,17:05:00,S33,7
T152,17:16:30,17:17:00,S32,8
T152,17:28:30,17:29:00,S31,9
T152,17:39:30,17:40:00,S30,10
T152,17:42:30,17:43:00,S29,11
T152,17:50:00,17:50:00,S1,12
T153,17:00:00,17:00:00,S1,0
T153,17:04:30,17:05:00,S29,1
T153,17:07:30,17:08:00,S30,2
T153,17:21:30,17:22:00,S31,3
T153,17:31:30,17:32:00,S32,4
T153,17:39:30,17:40:00,S33,5
T153,17:52:30,17:57:00,S5,6
T153,18:04:30,18:05:00,S33,7
T153,18:16:30,18:17:00,S32,8
T153,18:28:30,18:29:00,S31,9
T153,18:39:30,18:40:00,S30,10
T153,18:42:30,18:43:00,S29,11
T153,18:50:00,18:50:00,S1,12
T154,18:00:00,18:00:00,S1,0
T154,18:04:30,18:05:00,S29,1
T154,18:07:30,18:08:00,S30,2
T154,18:21:30,18:22:00,S31,3
T154,18:31:30,18:32:00,S32,4
T154,18:39:30,18:40:00,S33,5
T154,18:52:30,18:57:00,S5,6
T154,19:04:30,19:05:00,S33,7
T154,19:16:30,19:17:00,S32,8
T154,19:28:30,19:29:00,S31,9
T154,19:39:30,19:40:00,S30,10
T154,19:42:30,19:43:00,S29,11
T154,19:50:00,19:50:00,S1,12
T155,19:00:00,19:00:00,S1,0
T155,19:04:30,19:05:00,S29,1
T155,19:07:30,19:08:00,S30,2
T155,19:21:30,19:22:00,S31,3
T155,19:31:30,19:32:00,S32,4
T155,19:39:30,19:40:00,S33,5
T155,19:52:30,19:52:30,S5,6
T156,20:00:00,20:00:00,S1,0
T156,20:04:30,20:05:00,S29,1
T156,20:07:30,20:08:00,S30,2
T156,20:21:30,20:22:00,S31,3
T156,20:31:30,20:32:00,S32,4
T156,20:39:30,20:40:00,S30,10
T156,20:42:30,20:43:00,S29,11
T156,20:50:00,20:50:00,S1,12
